<?xml version="1.0"?>
<VTKFile type="PolyData" version="0.1" byte_order="LittleEndian">
  <PolyData>
    <Piece NumberOfPoints="     19" NumberOfVerts="  0" NumberOfLines="     18"
           NumberOfStrips="  0" NumberOfPolys="      0">
      <Points>
        <DataArray type="Float32" NumberOfComponents="3" format="ascii">
                      -4.89694                      -0.40938                      91.44533
                      -4.84183                      -0.78458                      92.75835
                      -4.75579                      -1.62610                      95.35950
                      -4.68070                      -2.51113                      97.94876
                      -4.59250                      -3.64398                     101.17804
                      -4.42805                      -4.86771                     105.08898
                      -4.23328                      -5.96825                     109.03355
                      -4.03688                      -7.06792                     112.97828
                      -3.83579                      -8.16496                     116.92356
                      -3.63033                      -9.26107                     120.86890
                      -3.42144                     -10.35960                     124.81337
                      -3.20795                     -11.45894                     128.75739
                      -2.99026                     -12.55889                     132.70101
                      -2.76896                     -13.65930                     136.64431
                      -2.54237                     -14.76017                     140.58721
                      -2.34953                     -15.67785                     143.87271
                      -2.19289                     -16.40454                     146.50306
                      -2.03383                     -17.07849                     149.14846
                      -1.95534                     -17.45557                     150.45965
        </DataArray>
      </Points>
      <PointData>
        <DataArray type="Float32" Name="TranslationalVelocity" NumberOfComponents="3" format="ascii">
                      -0.07123                      -0.09412                      -0.03272
                      -0.07498                      -0.18077                      -0.05733
                      -0.08305                      -0.35237                      -0.11258
                      -0.09142                      -0.52323                      -0.17074
                      -0.10211                      -0.73647                      -0.24527
                      -0.11433                      -0.99531                      -0.32579
                      -0.12607                      -1.25681                      -0.39821
                      -0.13807                      -1.51855                      -0.47061
                      -0.15041                      -1.78054                      -0.54286
                      -0.16323                      -2.04267                      -0.61503
                      -0.17667                      -2.30480                      -0.68733
                      -0.19089                      -2.56690                      -0.75962
                      -0.20603                      -2.82894                      -0.83187
                      -0.22227                      -3.09087                      -0.90405
                      -0.23979                      -3.35270                      -0.97614
                      -0.25551                      -3.57083                      -1.03615
                      -0.26883                      -3.74546                      -1.08360
                      -0.28261                      -3.92111                      -1.12752
                      -0.29001                      -4.00819                      -1.15211
        </DataArray>
        <DataArray type="Float32" Name="RotationalVelocity" NumberOfComponents="3" format="ascii">
                       0.06573                      -0.00120                      -0.00579
                       0.06575                      -0.00121                      -0.00580
                       0.06578                      -0.00123                      -0.00580
                       0.06583                      -0.00125                      -0.00581
                       0.06588                      -0.00128                      -0.00582
                       0.06595                      -0.00132                      -0.00583
                       0.06602                      -0.00137                      -0.00585
                       0.06606                      -0.00144                      -0.00587
                       0.06610                      -0.00154                      -0.00589
                       0.06612                      -0.00166                      -0.00591
                       0.06612                      -0.00183                      -0.00595
                       0.06611                      -0.00203                      -0.00598
                       0.06609                      -0.00228                      -0.00603
                       0.06607                      -0.00257                      -0.00608
                       0.06605                      -0.00289                      -0.00614
                       0.06603                      -0.00318                      -0.00619
                       0.06602                      -0.00341                      -0.00623
                       0.06602                      -0.00364                      -0.00627
                       0.06603                      -0.00375                      -0.00629
        </DataArray>
        <DataArray type="Float32" Name="TranslationalAcceleration" NumberOfComponents="3" format="ascii">
                       0.00792                      -0.00730                       0.00949
                       0.00628                      -0.01028                      -0.00581
                       0.01823                      -0.02958                      -0.01957
                       0.02785                      -0.04693                      -0.03551
                       0.03526                      -0.06692                      -0.05730
                       0.03630                      -0.09027                      -0.08360
                       0.02874                      -0.11399                      -0.10919
                       0.01398                      -0.13826                      -0.13469
                      -0.00419                      -0.16428                      -0.16031
                      -0.02001                      -0.19316                      -0.18654
                      -0.02567                      -0.22592                      -0.21416
                      -0.01139                      -0.26346                      -0.24406
                       0.03463                      -0.30642                      -0.27728
                       0.12616                      -0.35515                      -0.31487
                       0.27895                      -0.40961                      -0.35790
                       0.46736                      -0.45910                      -0.39873
                       0.66419                      -0.50103                      -0.43474
                       0.90926                      -0.54513                      -0.47322
                       1.05180                      -0.56732                      -0.49426
        </DataArray>
        <DataArray type="Float32" Name="OrientationX" NumberOfComponents="3" format="ascii">
                       0.96655                      -0.23304                      -0.10711
                       0.96655                      -0.23303                      -0.10718
                       0.96653                      -0.23297                      -0.10741
                       0.96652                      -0.23290                      -0.10773
                       0.96648                      -0.23279                      -0.10825
                       0.97402                      -0.20275                      -0.10088
                       0.97882                      -0.18091                      -0.09585
                       0.98256                      -0.16175                      -0.09166
                       0.98609                      -0.14146                      -0.08727
                       0.98925                      -0.12053                      -0.08280
                       0.99180                      -0.10069                      -0.07872
                       0.99391                      -0.08100                      -0.07475
                       0.99545                      -0.06312                      -0.07134
                       0.99638                      -0.04955                      -0.06913
                       0.99710                      -0.03620                      -0.06690
                       0.99758                      -0.02506                      -0.06490
                       0.99785                      -0.01678                      -0.06333
                       0.99796                      -0.01236                      -0.06267
                       0.99794                      -0.01238                      -0.06289
        </DataArray>
        <DataArray type="Float32" Name="OrientationY" NumberOfComponents="3" format="ascii">
                       0.25319                       0.93364                       0.25342
                       0.25319                       0.93362                       0.25345
                       0.25321                       0.93359                       0.25355
                       0.25323                       0.93356                       0.25367
                       0.25327                       0.93350                       0.25384
                       0.22240                       0.94037                       0.25738
                       0.20005                       0.94470                       0.25986
                       0.18051                       0.94805                       0.26194
                       0.15982                       0.95119                       0.26400
                       0.13850                       0.95397                       0.26600
                       0.11833                       0.95618                       0.26778
                       0.09833                       0.95798                       0.26944
                       0.08024                       0.95927                       0.27087
                       0.06661                       0.96001                       0.27192
                       0.05319                       0.96057                       0.27290
                       0.04194                       0.96090                       0.27369
                       0.03357                       0.96107                       0.27425
                       0.02915                       0.96113                       0.27454
                       0.02922                       0.96113                       0.27454
        </DataArray>
        <DataArray type="Float32" Name="OrientationZ" NumberOfComponents="3" format="ascii">
                       0.04095                      -0.27206                       0.96141
                       0.04101                      -0.27211                       0.96139
                       0.04120                      -0.27226                       0.96134
                       0.04149                      -0.27246                       0.96127
                       0.04197                      -0.27275                       0.96117
                       0.04268                      -0.27313                       0.96103
                       0.04354                      -0.27353                       0.96088
                       0.04453                      -0.27392                       0.96072
                       0.04567                      -0.27428                       0.96057
                       0.04693                      -0.27461                       0.96041
                       0.04831                      -0.27490                       0.96026
                       0.04979                      -0.27515                       0.96011
                       0.05133                      -0.27536                       0.95997
                       0.05289                      -0.27554                       0.95983
                       0.05438                      -0.27567                       0.95971
                       0.05550                      -0.27575                       0.95963
                       0.05626                      -0.27579                       0.95957
                       0.05684                      -0.27581                       0.95953
                       0.05705                      -0.27581                       0.95952
        </DataArray>
        <DataArray type="Float32" Name="Force" NumberOfComponents="3" format="ascii">
                     158.66576                       3.02685                      -5.90162
                     159.67941                       4.18605                      -5.62688
                     175.94504                       7.10551                      -5.53103
                     134.83202                       7.33777                      -3.74424
                     794.91873                    -275.13969                    -112.58025
                     744.38076                    -218.34610                     -94.86535
                     732.05446                    -196.88846                     -88.91230
                     648.83023                    -154.74260                     -73.89497
                     587.20290                    -116.75785                     -60.98558
                     563.33011                     -99.58472                     -55.73699
                     530.44048                     -72.83886                     -47.32695
                     505.48073                     -59.18898                     -42.99185
                     451.88407                     -41.91927                     -36.05309
                     424.26776                     -33.48288                     -32.87868
                     395.25364                     -25.83331                     -29.72919
                     370.00042                     -20.00715                     -27.08109
                     338.74435                     -15.48108                     -24.25832
                     233.62878                      -9.62110                     -16.57339
                     235.06788                      -9.67307                     -16.72437
        </DataArray>
        <DataArray type="Float32" Name="Moment" NumberOfComponents="3" format="ascii">
                       0.00000                       0.00000                       0.00000
                       0.00000                       0.00000                       0.00000
                       0.00000                       0.00000                       0.00000
                       0.00000                       0.00000                       0.00000
                     -30.59018                     198.24187                    -700.48623
                     -32.49589                     207.03341                    -731.50268
                     -31.10783                     194.24476                    -686.26252
                     -29.94557                     182.77608                    -645.68447
                     -27.71798                     164.97048                    -582.72268
                     -25.48019                     147.56410                    -521.17787
                     -21.52242                     121.07362                    -427.56251
                     -19.61058                     107.03446                    -377.93280
                     -17.49378                      92.60514                    -326.93721
                     -15.50484                      79.66158                    -281.20051
                     -13.50205                      67.47285                    -238.14247
                     -11.83173                      57.93386                    -204.45400
                      -9.89054                      47.77850                    -168.60308
                      -4.67958                      22.37551                     -78.95558
                      -4.71923                      22.48334                     -79.33458
        </DataArray>
      </PointData>
      <Lines>
        <DataArray type="Int32" Name="connectivity" format="ascii">
      0      1
      1      2
      2      3
      3      4
      4      5
      5      6
      6      7
      7      8
      8      9
      9     10
     10     11
     11     12
     12     13
     13     14
     14     15
     15     16
     16     17
     17     18
        </DataArray>
        <DataArray type="Int32" Name="offsets" format="ascii">
      2
      4
      6
      8
     10
     12
     14
     16
     18
     20
     22
     24
     26
     28
     30
     32
     34
     36
        </DataArray>
      </Lines>
    </Piece>
  </PolyData>
</VTKFile>
