<?xml version="1.0"?>
<VTKFile type="PolyData" version="0.1" byte_order="LittleEndian">
  <PolyData>
    <Piece NumberOfPoints="     19" NumberOfVerts="  0" NumberOfLines="     18"
           NumberOfStrips="  0" NumberOfPolys="      0">
      <Points>
        <DataArray type="Float32" NumberOfComponents="3" format="ascii">
                      -5.12893                      -1.15240                      89.05229
                      -5.26566                      -2.19967                      88.18485
                      -5.56729                      -4.23223                      86.37939
                      -5.88173                      -6.23481                      84.53976
                      -6.28152                      -8.71915                      82.21863
                      -6.69668                     -11.79135                      79.53377
                      -7.07590                     -14.94522                      76.94205
                      -7.45320                     -18.09826                      74.34894
                      -7.82548                     -21.25188                      71.75569
                      -8.19318                     -24.40511                      69.16117
                      -8.55743                     -27.55585                      66.56306
                      -8.91710                     -30.70541                      63.96281
                      -9.27265                     -33.85409                      61.36086
                      -9.62478                     -37.00212                      58.75762
                      -9.97191                     -40.14965                      56.15308
                     -10.25746                     -42.77232                      53.98174
                     -10.48341                     -44.87530                      52.25022
                     -10.70487                     -47.01361                      50.56013
                     -10.81846                     -48.05567                      49.68330
        </DataArray>
      </Points>
      <PointData>
        <DataArray type="Float32" Name="TranslationalVelocity" NumberOfComponents="3" format="ascii">
                       0.05847                       0.04876                      -0.05532
                       0.05300                       0.09417                      -0.10928
                       0.04212                       0.18874                      -0.21394
                       0.03104                       0.28511                      -0.31696
                       0.01659                       0.40666                      -0.44457
                      -0.00237                       0.54688                      -0.60210
                      -0.02338                       0.68193                      -0.76340
                      -0.04647                       0.81680                      -0.92406
                      -0.07186                       0.95139                      -1.08414
                      -0.09964                       1.08574                      -1.24354
                      -0.12975                       1.21998                      -1.40217
                      -0.16199                       1.35404                      -1.56015
                      -0.19597                       1.48792                      -1.71758
                      -0.23109                       1.62164                      -1.87458
                      -0.26654                       1.75523                      -2.03134
                      -0.29554                       1.86650                      -2.16195
                      -0.31789                       1.95520                      -2.26678
                      -0.33912                       2.04179                      -2.37357
                      -0.34899                       2.08671                      -2.42568
        </DataArray>
        <DataArray type="Float32" Name="RotationalVelocity" NumberOfComponents="3" format="ascii">
                       0.05163                       0.00081                      -0.00453
                       0.05163                       0.00083                      -0.00455
                       0.05160                       0.00088                      -0.00462
                       0.05157                       0.00097                      -0.00472
                       0.05150                       0.00112                      -0.00491
                       0.05139                       0.00135                      -0.00521
                       0.05126                       0.00164                      -0.00557
                       0.05110                       0.00197                      -0.00599
                       0.05094                       0.00231                      -0.00643
                       0.05078                       0.00266                      -0.00689
                       0.05062                       0.00300                      -0.00732
                       0.05048                       0.00330                      -0.00770
                       0.05037                       0.00352                      -0.00800
                       0.05029                       0.00365                      -0.00817
                       0.05024                       0.00364                      -0.00817
                       0.05023                       0.00351                      -0.00801
                       0.05024                       0.00330                      -0.00777
                       0.05028                       0.00298                      -0.00740
                       0.05030                       0.00277                      -0.00716
        </DataArray>
        <DataArray type="Float32" Name="TranslationalAcceleration" NumberOfComponents="3" format="ascii">
                       0.07990                       0.00937                       0.00686
                       0.02125                       0.01181                      -0.00270
                       0.05006                       0.03420                      -0.00874
                       0.06443                       0.05491                      -0.01501
                       0.06912                       0.07908                      -0.02339
                       0.06372                       0.10537                      -0.03543
                       0.05379                       0.13021                      -0.04918
                       0.04369                       0.15541                      -0.06349
                       0.03508                       0.18196                      -0.07862
                       0.02747                       0.21058                      -0.09503
                       0.01868                       0.24176                      -0.11325
                       0.00548                       0.27572                      -0.13374
                      -0.01591                       0.31252                      -0.15677
                      -0.04921                       0.35204                      -0.18227
                      -0.09756                       0.39401                      -0.20974
                      -0.15111                       0.43055                      -0.23335
                      -0.20253                       0.46050                      -0.25218
                      -0.26121                       0.49053                      -0.27077
                      -0.29311                       0.50602                      -0.27908
        </DataArray>
        <DataArray type="Float32" Name="OrientationX" NumberOfComponents="3" format="ascii">
                       0.95065                       0.11459                      -0.28831
                       0.95066                       0.11467                      -0.28825
                       0.95069                       0.11491                      -0.28807
                       0.95073                       0.11526                      -0.28780
                       0.95079                       0.11582                      -0.28738
                       0.95976                       0.09643                      -0.26376
                       0.96564                       0.08273                      -0.24635
                       0.97038                       0.07095                      -0.23093
                       0.97496                       0.05849                      -0.21454
                       0.97922                       0.04568                      -0.19759
                       0.98283                       0.03368                      -0.18141
                       0.98601                       0.02182                      -0.16527
                       0.98854                       0.01121                      -0.15052
                       0.99027                       0.00347                      -0.13912
                       0.99177                      -0.00421                      -0.12793
                       0.99288                      -0.01075                      -0.11863
                       0.99361                      -0.01569                      -0.11176
                       0.99398                      -0.01819                      -0.10801
                       0.99400                      -0.01802                      -0.10792
        </DataArray>
        <DataArray type="Float32" Name="OrientationY" NumberOfComponents="3" format="ascii">
                       0.29393                      -0.63012                       0.71872
                       0.29391                      -0.63022                       0.71864
                       0.29389                      -0.63048                       0.71842
                       0.29386                      -0.63081                       0.71814
                       0.29384                      -0.63128                       0.71774
                       0.26335                      -0.63525                       0.72602
                       0.24124                      -0.63791                       0.73136
                       0.22186                      -0.64000                       0.73565
                       0.20132                      -0.64187                       0.73991
                       0.18014                      -0.64343                       0.74401
                       0.16007                      -0.64461                       0.74756
                       0.14013                      -0.64548                       0.75081
                       0.12205                      -0.64603                       0.75349
                       0.10838                      -0.64634                       0.75531
                       0.09490                      -0.64650                       0.75699
                       0.08360                      -0.64653                       0.75830
                       0.07519                      -0.64648                       0.75922
                       0.07072                      -0.64645                       0.75967
                       0.07077                      -0.64646                       0.75966
        </DataArray>
        <DataArray type="Float32" Name="OrientationZ" NumberOfComponents="3" format="ascii">
                      -0.09931                      -0.76800                      -0.63270
                      -0.09926                      -0.76790                      -0.63283
                      -0.09907                      -0.76765                      -0.63316
                      -0.09878                      -0.76733                      -0.63360
                      -0.09829                      -0.76686                      -0.63424
                      -0.09754                      -0.76626                      -0.63508
                      -0.09664                      -0.76566                      -0.63595
                      -0.09560                      -0.76509                      -0.63679
                      -0.09443                      -0.76458                      -0.63757
                      -0.09315                      -0.76414                      -0.63829
                      -0.09176                      -0.76377                      -0.63893
                      -0.09030                      -0.76347                      -0.63950
                      -0.08879                      -0.76323                      -0.64000
                      -0.08730                      -0.76304                      -0.64043
                      -0.08589                      -0.76290                      -0.64078
                      -0.08485                      -0.76282                      -0.64102
                      -0.08416                      -0.76277                      -0.64117
                      -0.08364                      -0.76274                      -0.64127
                      -0.08345                      -0.76274                      -0.64130
        </DataArray>
        <DataArray type="Float32" Name="Force" NumberOfComponents="3" format="ascii">
                     146.61607                     -12.39680                      -7.96575
                     134.27807                     -15.17891                      -2.63872
                     159.14898                     -19.55172                      -1.17746
                     124.96932                     -15.02755                      -1.25417
                     747.92845                     144.85036                    -291.81483
                     670.02885                     105.81346                    -231.46417
                     636.48383                      90.61750                    -206.85971
                     542.14255                      66.56320                    -162.33682
                     473.98039                      45.94237                    -126.12113
                     442.49557                      36.83662                    -109.44362
                     404.41360                      23.40891                     -86.65235
                     375.73631                      17.15609                     -74.03143
                     326.04505                       9.92061                     -57.41646
                     298.56420                       6.74151                     -49.01144
                     271.22688                       4.02583                     -41.36220
                     248.53034                       2.05926                     -35.50761
                     223.59799                       0.75056                     -30.36033
                     151.49979                       0.13340                     -19.98921
                     150.92191                       0.13244                     -19.86847
        </DataArray>
        <DataArray type="Float32" Name="Moment" NumberOfComponents="3" format="ascii">
                       0.00000                       0.00000                       0.00000
                       0.00000                       0.00000                       0.00000
                       0.00000                       0.00000                       0.00000
                       0.00000                       0.00000                       0.00000
                      64.14155                     501.83631                     413.49666
                      64.90655                     512.07809                     421.98329
                      58.62681                     467.19482                     385.04861
                      53.01888                     427.41259                     352.31528
                      45.93087                     375.11305                     309.25758
                      39.41552                     326.55509                     269.27452
                      30.97613                     260.66729                     214.98672
                      26.23865                     224.50044                     185.19650
                      21.73694                     189.22538                     156.13040
                      17.90491                     158.59758                     130.88685
                      14.52819                     130.84118                     108.00149
                      12.04693                     109.85475                      90.69171
                       9.67347                      88.95193                      73.44230
                       4.41861                      40.88873                      33.76184
                       4.38615                      40.67789                      33.58860
        </DataArray>
      </PointData>
      <Lines>
        <DataArray type="Int32" Name="connectivity" format="ascii">
      0      1
      1      2
      2      3
      3      4
      4      5
      5      6
      6      7
      7      8
      8      9
      9     10
     10     11
     11     12
     12     13
     13     14
     14     15
     15     16
     16     17
     17     18
        </DataArray>
        <DataArray type="Int32" Name="offsets" format="ascii">
      2
      4
      6
      8
     10
     12
     14
     16
     18
     20
     22
     24
     26
     28
     30
     32
     34
     36
        </DataArray>
      </Lines>
    </Piece>
  </PolyData>
</VTKFile>
