<?xml version="1.0"?>
<VTKFile type="PolyData" version="0.1" byte_order="LittleEndian">
  <PolyData>
    <Piece NumberOfPoints="     19" NumberOfVerts="  0" NumberOfLines="     18"
           NumberOfStrips="  0" NumberOfPolys="      0">
      <Points>
        <DataArray type="Float32" NumberOfComponents="3" format="ascii">
                      -5.00454                       1.49260                      89.89506
                      -5.07382                       2.85404                      89.79731
                      -5.22596                       5.58326                      89.69671
                      -5.38422                       8.31563                      89.63984
                      -5.58521                      11.73320                      89.59306
                      -5.78499                      15.82515                      89.38565
                      -5.97034                      19.90733                      89.04210
                      -6.15574                      23.98884                      88.69142
                      -6.33840                      28.06965                      88.33198
                      -6.51841                      32.14994                      87.96622
                      -6.69618                      36.23004                      87.59847
                      -6.87059                      40.30994                      87.22776
                      -7.04181                      44.38969                      86.85470
                      -7.21020                      48.46933                      86.47988
                      -7.37378                      52.54899                      86.10356
                      -7.50620                      55.94877                      85.78888
                      -7.61061                      58.66785                      85.52863
                      -7.71863                      61.38208                      85.21312
                      -7.76888                      62.74277                      85.09646
        </DataArray>
      </Points>
      <PointData>
        <DataArray type="Float32" Name="TranslationalVelocity" NumberOfComponents="3" format="ascii">
                       0.01867                       0.00905                       0.12573
                       0.02878                       0.01776                       0.23984
                       0.04905                       0.02732                       0.46859
                       0.06933                       0.03325                       0.69763
                       0.09468                       0.03866                       0.98412
                       0.12500                       0.05751                       1.32720
                       0.15517                       0.08767                       1.66953
                       0.18522                       0.11842                       2.01187
                       0.21509                       0.14989                       2.35425
                       0.24471                       0.18187                       2.69669
                       0.27399                       0.21400                       3.03921
                       0.30285                       0.24634                       3.38184
                       0.33121                       0.27885                       3.72457
                       0.35901                       0.31148                       4.06740
                       0.38619                       0.34418                       4.41034
                       0.40832                       0.37149                       4.69620
                       0.42568                       0.39404                       4.92488
                       0.44272                       0.42125                       5.15318
                       0.45115                       0.43138                       5.26764
        </DataArray>
        <DataArray type="Float32" Name="RotationalVelocity" NumberOfComponents="3" format="ascii">
                       0.08381                       0.00010                      -0.00743
                       0.08381                       0.00010                      -0.00743
                       0.08381                       0.00010                      -0.00743
                       0.08382                       0.00010                      -0.00742
                       0.08383                       0.00010                      -0.00742
                       0.08384                       0.00010                      -0.00741
                       0.08386                       0.00010                      -0.00739
                       0.08388                       0.00009                      -0.00735
                       0.08390                       0.00008                      -0.00730
                       0.08393                       0.00007                      -0.00723
                       0.08395                       0.00006                      -0.00714
                       0.08398                       0.00004                      -0.00703
                       0.08401                       0.00003                      -0.00690
                       0.08403                       0.00001                      -0.00675
                       0.08406                      -0.00001                      -0.00659
                       0.08408                      -0.00002                      -0.00646
                       0.08409                      -0.00002                      -0.00636
                       0.08410                      -0.00003                      -0.00628
                       0.08411                      -0.00002                      -0.00624
        </DataArray>
        <DataArray type="Float32" Name="TranslationalAcceleration" NumberOfComponents="3" format="ascii">
                      -0.12963                      -0.00746                      -0.00960
                      -0.03712                      -0.01103                       0.00822
                      -0.09032                      -0.03244                       0.02595
                      -0.12080                      -0.05329                       0.04474
                      -0.13739                      -0.07857                       0.06964
                      -0.13703                      -0.10620                       0.10206
                      -0.12736                      -0.13179                       0.13669
                      -0.11818                      -0.15730                       0.17267
                      -0.11472                      -0.18308                       0.21048
                      -0.11947                      -0.20918                       0.25081
                      -0.13297                      -0.23554                       0.29443
                      -0.15463                      -0.26192                       0.34209
                      -0.18363                      -0.28810                       0.39434
                      -0.21973                      -0.31398                       0.45143
                      -0.26417                      -0.33953                       0.51318
                      -0.31024                      -0.36075                       0.56770
                      -0.35499                      -0.37770                       0.61282
                      -0.40936                      -0.39417                       0.65893
                      -0.44172                      -0.40321                       0.68182
        </DataArray>
        <DataArray type="Float32" Name="OrientationX" NumberOfComponents="3" format="ascii">
                       0.98840                       0.06030                       0.13940
                       0.98840                       0.06028                       0.13940
                       0.98840                       0.06022                       0.13941
                       0.98840                       0.06013                       0.13943
                       0.98841                       0.05999                       0.13947
                       0.99249                       0.05748                       0.10797
                       0.99482                       0.05541                       0.08524
                       0.99643                       0.05335                       0.06540
                       0.99771                       0.05101                       0.04444
                       0.99857                       0.04840                       0.02290
                       0.99895                       0.04569                       0.00258
                       0.99893                       0.04280                      -0.01752
                       0.99857                       0.03992                      -0.03566
                       0.99809                       0.03732                      -0.04930
                       0.99743                       0.03472                      -0.06269
                       0.99673                       0.03262                      -0.07388
                       0.99613                       0.03108                      -0.08219
                       0.99580                       0.03004                      -0.08654
                       0.99581                       0.02978                      -0.08645
        </DataArray>
        <DataArray type="Float32" Name="OrientationY" NumberOfComponents="3" format="ascii">
                       0.14330                      -0.06601                      -0.98748
                       0.14331                      -0.06621                      -0.98746
                       0.14334                      -0.06674                      -0.98742
                       0.14339                      -0.06742                      -0.98737
                       0.14346                      -0.06837                      -0.98729
                       0.11196                      -0.07146                      -0.99114
                       0.08922                      -0.07396                      -0.99326
                       0.06936                      -0.07618                      -0.99468
                       0.04836                      -0.07830                      -0.99576
                       0.02675                      -0.08026                      -0.99641
                       0.00633                      -0.08197                      -0.99661
                      -0.01390                      -0.08348                      -0.99641
                      -0.03218                      -0.08473                      -0.99588
                      -0.04596                      -0.08565                      -0.99526
                      -0.05949                      -0.08645                      -0.99448
                      -0.07080                      -0.08704                      -0.99369
                      -0.07920                      -0.08743                      -0.99302
                      -0.08362                      -0.08766                      -0.99263
                      -0.08355                      -0.08770                      -0.99264
        </DataArray>
        <DataArray type="Float32" Name="OrientationZ" NumberOfComponents="3" format="ascii">
                      -0.05035                       0.99600                      -0.07388
                      -0.05030                       0.99598                      -0.07408
                      -0.05016                       0.99595                      -0.07460
                      -0.04997                       0.99591                      -0.07526
                      -0.04969                       0.99586                      -0.07618
                      -0.04926                       0.99579                      -0.07736
                      -0.04873                       0.99572                      -0.07853
                      -0.04809                       0.99567                      -0.07961
                      -0.04731                       0.99562                      -0.08059
                      -0.04639                       0.99560                      -0.08144
                      -0.04532                       0.99559                      -0.08217
                      -0.04411                       0.99559                      -0.08279
                      -0.04278                       0.99560                      -0.08332
                      -0.04137                       0.99563                      -0.08377
                      -0.03995                       0.99565                      -0.08416
                      -0.03884                       0.99567                      -0.08444
                      -0.03805                       0.99569                      -0.08463
                      -0.03740                       0.99570                      -0.08478
                      -0.03715                       0.99570                      -0.08484
        </DataArray>
        <DataArray type="Float32" Name="Force" NumberOfComponents="3" format="ascii">
                     155.05950                       7.67399                      -2.20968
                     154.75432                       7.53857                      -3.68600
                     167.85141                       7.90682                      -7.21735
                     126.71053                       5.75723                      -7.88651
                     692.88103                      46.90064                     167.97095
                     656.07616                      41.54120                     125.04545
                     635.90331                      38.75772                     106.25312
                     567.34861                      32.93387                      78.23436
                     512.50555                      27.84874                      50.98558
                     483.86029                      25.03198                      37.61883
                     451.31195                      21.53380                      17.58309
                     422.91241                      19.00673                       7.93294
                     373.99599                      15.62786                      -1.88046
                     345.80819                      13.58291                      -6.63061
                     317.73585                      11.69154                     -10.47149
                     294.32800                      10.24201                     -13.06628
                     267.38566                       8.91798                     -14.13334
                     183.12709                       5.92508                     -10.49260
                     183.74011                       5.89877                     -10.50721
        </DataArray>
        <DataArray type="Float32" Name="Moment" NumberOfComponents="3" format="ascii">
                       0.00000                       0.00000                       0.00000
                       0.00000                       0.00000                       0.00000
                       0.00000                       0.00000                       0.00000
                       0.00000                       0.00000                       0.00000
                      34.79844                    -700.33723                      52.00355
                      35.13966                    -714.86081                      53.11574
                      31.85854                    -656.54464                      48.81948
                      28.92512                    -605.30405                      45.04896
                      25.15222                    -535.98686                      39.93096
                      21.60194                    -470.27296                      35.07665
                      16.99066                    -379.22244                      28.32342
                      14.32887                    -329.10147                      24.61689
                      11.80468                    -279.97798                      20.97661
                       9.65368                    -237.08766                      17.79355
                       7.77337                    -197.92650                      14.87983
                       6.40962                    -168.05576                      12.65109
                       5.13102                    -137.43068                      10.35547
                       2.34090                     -63.82704                       4.81313
                       2.32674                     -63.89068                       4.81939
        </DataArray>
      </PointData>
      <Lines>
        <DataArray type="Int32" Name="connectivity" format="ascii">
      0      1
      1      2
      2      3
      3      4
      4      5
      5      6
      6      7
      7      8
      8      9
      9     10
     10     11
     11     12
     12     13
     13     14
     14     15
     15     16
     16     17
     17     18
        </DataArray>
        <DataArray type="Int32" Name="offsets" format="ascii">
      2
      4
      6
      8
     10
     12
     14
     16
     18
     20
     22
     24
     26
     28
     30
     32
     34
     36
        </DataArray>
      </Lines>
    </Piece>
  </PolyData>
</VTKFile>
