<?xml version="1.0"?>
<VTKFile type="PolyData" version="0.1" byte_order="LittleEndian">
  <PolyData>
    <Piece NumberOfPoints="     19" NumberOfVerts="  0" NumberOfLines="     18"
           NumberOfStrips="  0" NumberOfPolys="      0">
      <Points>
        <DataArray type="Float32" NumberOfComponents="3" format="ascii">
                      -4.94741                       1.07621                      91.04498
                      -4.92430                       2.05585                      91.99767
                      -4.89404                       3.94919                      93.97151
                      -4.87097                       5.81202                      95.97726
                      -4.84577                       8.12342                      98.50278
                      -4.77004                      11.00030                     101.42560
                      -4.67615                      13.97045                     104.25116
                      -4.58175                      16.94457                     107.07246
                      -4.48394                      19.92376                     109.88821
                      -4.38277                      22.90642                     112.70009
                      -4.27873                      25.88969                     115.51110
                      -4.17059                      28.87430                     118.32042
                      -4.05850                      31.85997                     121.12839
                      -3.94280                      34.84644                     123.93532
                      -3.82150                      37.83349                     126.74135
                      -3.71591                      40.32316                     129.07905
                      -3.62935                      42.32059                     130.94307
                      -3.54472                      44.35629                     132.76700
                      -3.49958                      45.34548                     133.70884
        </DataArray>
      </Points>
      <PointData>
        <DataArray type="Float32" Name="TranslationalVelocity" NumberOfComponents="3" format="ascii">
                      -0.01666                      -0.15006                       0.15352
                      -0.00469                      -0.28844                       0.29553
                       0.01832                      -0.57504                       0.57008
                       0.04089                      -0.86631                       0.84031
                       0.06881                      -1.23327                       1.17582
                       0.10358                      -1.65890                       1.59376
                       0.13944                      -2.07103                       2.02565
                       0.17516                      -2.48290                       2.45851
                       0.21068                      -2.89434                       2.89249
                       0.24594                      -3.30555                       3.32732
                       0.28083                      -3.71692                       3.76253
                       0.31529                      -4.12831                       4.19818
                       0.34927                      -4.53970                       4.63420
                       0.38270                      -4.95111                       5.07050
                       0.41555                      -5.36255                       5.50702
                       0.44245                      -5.70544                       5.87096
                       0.46374                      -5.97892                       6.16301
                       0.48527                      -6.24657                       6.46072
                       0.49555                      -6.38481                       6.60542
        </DataArray>
        <DataArray type="Float32" Name="RotationalVelocity" NumberOfComponents="3" format="ascii">
                       0.14493                      -0.00054                      -0.01274
                       0.14495                      -0.00054                      -0.01274
                       0.14501                      -0.00055                      -0.01273
                       0.14508                      -0.00056                      -0.01272
                       0.14518                      -0.00058                      -0.01271
                       0.14532                      -0.00061                      -0.01268
                       0.14545                      -0.00064                      -0.01266
                       0.14557                      -0.00068                      -0.01263
                       0.14568                      -0.00074                      -0.01258
                       0.14578                      -0.00080                      -0.01253
                       0.14586                      -0.00088                      -0.01247
                       0.14593                      -0.00096                      -0.01239
                       0.14599                      -0.00106                      -0.01230
                       0.14604                      -0.00117                      -0.01220
                       0.14608                      -0.00127                      -0.01210
                       0.14611                      -0.00136                      -0.01201
                       0.14613                      -0.00142                      -0.01195
                       0.14615                      -0.00147                      -0.01189
                       0.14615                      -0.00149                      -0.01186
        </DataArray>
        <DataArray type="Float32" Name="TranslationalAcceleration" NumberOfComponents="3" format="ascii">
                       0.07848                      -0.03117                      -0.00397
                       0.02383                      -0.03810                      -0.01296
                       0.05850                      -0.10864                      -0.03959
                       0.07897                      -0.17349                      -0.06673
                       0.09110                      -0.24957                      -0.10047
                       0.09340                      -0.33728                      -0.13699
                       0.08984                      -0.42394                      -0.16989
                       0.08553                      -0.51068                      -0.20251
                       0.08340                      -0.59862                      -0.23507
                       0.08471                      -0.68806                      -0.26774
                       0.08957                      -0.77871                      -0.30058
                       0.09743                      -0.86998                      -0.33353
                       0.10767                      -0.96119                      -0.36653
                       0.12003                      -1.05176                      -0.39958
                       0.13519                      -1.14148                      -0.43277
                       0.15151                      -1.21578                      -0.46070
                       0.16833                      -1.27542                      -0.48308
                       0.19031                      -1.33619                      -0.50454
                       0.20391                      -1.36670                      -0.51634
        </DataArray>
        <DataArray type="Float32" Name="OrientationX" NumberOfComponents="3" format="ascii">
                       0.98556                      -0.12942                       0.10917
                       0.98556                      -0.12944                       0.10915
                       0.98556                      -0.12951                       0.10909
                       0.98555                      -0.12962                       0.10900
                       0.98555                      -0.12980                       0.10885
                       0.99040                      -0.10830                       0.08585
                       0.99327                      -0.09295                       0.06904
                       0.99534                      -0.07970                       0.05420
                       0.99709                      -0.06579                       0.03841
                       0.99842                      -0.05160                       0.02205
                       0.99924                      -0.03837                       0.00644
                       0.99964                      -0.02541                      -0.00915
                       0.99963                      -0.01389                      -0.02341
                       0.99939                      -0.00555                      -0.03447
                       0.99897                       0.00263                      -0.04535
                       0.99847                       0.00951                      -0.05439
                       0.99803                       0.01466                      -0.06108
                       0.99775                       0.01718                      -0.06478
                       0.99775                       0.01691                      -0.06492
        </DataArray>
        <DataArray type="Float32" Name="OrientationY" NumberOfComponents="3" format="ascii">
                       0.16842                       0.68341                      -0.71034
                       0.16842                       0.68330                      -0.71044
                       0.16842                       0.68302                      -0.71072
                       0.16842                       0.68265                      -0.71107
                       0.16843                       0.68214                      -0.71156
                       0.13694                       0.68527                      -0.71530
                       0.11417                       0.68693                      -0.71770
                       0.09427                       0.68804                      -0.71952
                       0.07324                       0.68903                      -0.72102
                       0.05160                       0.68982                      -0.72214
                       0.03117                       0.69034                      -0.72282
                       0.01094                       0.69065                      -0.72310
                      -0.00734                       0.69075                      -0.72306
                      -0.02110                       0.69067                      -0.72286
                      -0.03462                       0.69052                      -0.72248
                      -0.04591                       0.69035                      -0.72202
                      -0.05430                       0.69018                      -0.72160
                      -0.05872                       0.69005                      -0.72137
                      -0.05864                       0.69003                      -0.72140
        </DataArray>
        <DataArray type="Float32" Name="OrientationZ" NumberOfComponents="3" format="ascii">
                       0.01732                       0.71847                       0.69534
                       0.01738                       0.71857                       0.69524
                       0.01754                       0.71883                       0.69497
                       0.01776                       0.71915                       0.69462
                       0.01811                       0.71961                       0.69414
                       0.01864                       0.72019                       0.69353
                       0.01928                       0.72076                       0.69292
                       0.02005                       0.72128                       0.69235
                       0.02097                       0.72174                       0.69184
                       0.02205                       0.72214                       0.69140
                       0.02329                       0.72247                       0.69101
                       0.02469                       0.72274                       0.69068
                       0.02621                       0.72296                       0.69039
                       0.02782                       0.72315                       0.69013
                       0.02942                       0.72330                       0.68990
                       0.03068                       0.72342                       0.68973
                       0.03158                       0.72349                       0.68961
                       0.03231                       0.72355                       0.68951
                       0.03260                       0.72358                       0.68947
        </DataArray>
        <DataArray type="Float32" Name="Force" NumberOfComponents="3" format="ascii">
                     157.31482                      -0.00784                      -3.91060
                     157.72380                       1.78694                      -5.79010
                     172.69842                       5.86629                     -10.42574
                     131.67192                       7.43451                     -11.05715
                     793.02064                    -162.15109                     146.79120
                     754.80939                    -127.51589                     111.38424
                     756.23834                    -115.38144                      98.06021
                     669.77762                     -88.93064                      72.36392
                     602.29013                     -63.89422                      47.63133
                     585.37497                     -53.75034                      36.73238
                     545.71197                     -35.17398                      17.81043
                     526.28018                     -26.91150                       8.85604
                     459.83328                     -15.09833                      -1.98585
                     437.35785                     -10.57883                      -6.81914
                     413.59670                      -6.60527                     -10.92773
                     391.96121                      -3.38482                     -14.04831
                     362.50131                      -1.12218                     -15.54211
                     252.61668                      -0.06765                     -11.84024
                     255.55196                      -0.11287                     -12.03919
        </DataArray>
        <DataArray type="Float32" Name="Moment" NumberOfComponents="3" format="ascii">
                       0.00000                       0.00000                       0.00000
                       0.00000                       0.00000                       0.00000
                       0.00000                       0.00000                       0.00000
                       0.00000                       0.00000                       0.00000
                     -13.05186                    -514.92011                    -498.28913
                     -13.90241                    -531.67499                    -514.46543
                     -13.41308                    -494.71709                    -478.66188
                     -13.08741                    -463.24187                    -448.16175
                     -12.34072                    -417.12089                    -403.49328
                     -11.62913                    -373.56039                    -361.30520
                     -10.06188                    -305.88862                    -295.80610
                      -9.47581                    -271.78364                    -262.77817
                      -8.75757                    -236.63308                    -228.74773
                      -8.06009                    -205.31570                    -198.43338
                      -7.29217                    -175.71219                    -169.78755
                      -6.58834                    -152.28703                    -147.12866
                      -5.63477                    -126.58620                    -122.28447
                      -2.71989                     -59.72386                     -57.68889
                      -2.76695                     -60.22254                     -58.16844
        </DataArray>
      </PointData>
      <Lines>
        <DataArray type="Int32" Name="connectivity" format="ascii">
      0      1
      1      2
      2      3
      3      4
      4      5
      5      6
      6      7
      7      8
      8      9
      9     10
     10     11
     11     12
     12     13
     13     14
     14     15
     15     16
     16     17
     17     18
        </DataArray>
        <DataArray type="Int32" Name="offsets" format="ascii">
      2
      4
      6
      8
     10
     12
     14
     16
     18
     20
     22
     24
     26
     28
     30
     32
     34
     36
        </DataArray>
      </Lines>
    </Piece>
  </PolyData>
</VTKFile>
