<?xml version="1.0"?>
<VTKFile type="PolyData" version="0.1" byte_order="LittleEndian">
  <PolyData>
    <Piece NumberOfPoints="     19" NumberOfVerts="  0" NumberOfLines="     18"
           NumberOfStrips="  0" NumberOfPolys="      0">
      <Points>
        <DataArray type="Float32" NumberOfComponents="3" format="ascii">
                      -4.88858                      -0.83328                      91.25246
                      -4.84870                      -1.59477                      92.38665
                      -4.79533                      -3.19640                      94.60330
                      -4.75378                      -4.83590                      96.79498
                      -4.70771                      -6.90880                      99.51895
                      -4.58938                      -9.28091                     102.86233
                      -4.43620                     -11.54830                     106.27452
                      -4.27971                     -13.81629                     109.68621
                      -4.11645                     -16.08334                     113.09828
                      -3.94641                     -18.35082                     116.50980
                      -3.77029                     -20.62145                     119.91894
                      -3.58660                     -22.89370                     123.32664
                      -3.39546                     -25.16724                     126.73309
                      -3.19730                     -27.44179                     130.13850
                      -2.99037                     -29.71723                     133.54283
                      -2.81117                     -31.61400                     136.37904
                      -2.66361                     -33.12515                     138.65195
                      -2.51083                     -34.59104                     140.95530
                      -2.43602                     -35.35855                     142.08352
        </DataArray>
      </Points>
      <PointData>
        <DataArray type="Float32" Name="TranslationalVelocity" NumberOfComponents="3" format="ascii">
                       0.00632                      -0.27132                      -0.17791
                      -0.00781                      -0.51713                      -0.34244
                      -0.03754                      -0.99721                      -0.68861
                      -0.06793                      -1.47192                      -1.04314
                      -0.10621                      -2.06221                      -1.49174
                      -0.14960                      -2.78853                      -2.00562
                      -0.19054                      -3.53116                      -2.49736
                      -0.23095                      -4.27449                      -2.98975
                      -0.27072                      -5.01873                      -3.48241
                      -0.30980                      -5.76362                      -3.97561
                      -0.34816                      -6.50864                      -4.46988
                      -0.38573                      -7.25392                      -4.96484
                      -0.42247                      -7.99943                      -5.46035
                      -0.45837                      -8.74510                      -5.95631
                      -0.49344                      -9.49089                      -6.45266
                      -0.52205                     -10.11248                      -6.86655
                      -0.54447                     -10.61076                      -7.19638
                      -0.56571                     -11.11585                      -7.51642
                      -0.57691                     -11.36329                      -7.68401
        </DataArray>
        <DataArray type="Float32" Name="RotationalVelocity" NumberOfComponents="3" format="ascii">
                       0.21601                       0.00039                      -0.01914
                       0.21604                       0.00040                      -0.01913
                       0.21614                       0.00042                      -0.01913
                       0.21625                       0.00045                      -0.01911
                       0.21642                       0.00050                      -0.01909
                       0.21664                       0.00059                      -0.01905
                       0.21686                       0.00070                      -0.01900
                       0.21707                       0.00083                      -0.01894
                       0.21726                       0.00097                      -0.01887
                       0.21743                       0.00113                      -0.01879
                       0.21757                       0.00131                      -0.01871
                       0.21769                       0.00149                      -0.01861
                       0.21779                       0.00168                      -0.01851
                       0.21788                       0.00187                      -0.01841
                       0.21794                       0.00204                      -0.01831
                       0.21799                       0.00217                      -0.01823
                       0.21801                       0.00225                      -0.01818
                       0.21803                       0.00232                      -0.01813
                       0.21803                       0.00234                      -0.01812
        </DataArray>
        <DataArray type="Float32" Name="TranslationalAcceleration" NumberOfComponents="3" format="ascii">
                      -0.07052                       0.02500                      -0.07210
                      -0.02777                       0.03234                      -0.08183
                      -0.07148                       0.09652                      -0.23189
                      -0.10239                       0.15878                      -0.36837
                      -0.12912                       0.23388                      -0.52650
                      -0.15097                       0.31425                      -0.70724
                      -0.16848                       0.38737                      -0.88473
                      -0.18599                       0.46092                      -1.06161
                      -0.20597                       0.53571                      -1.24046
                      -0.22929                       0.61207                      -1.42204
                      -0.25564                       0.68989                      -1.60579
                      -0.28400                       0.76857                      -1.79053
                      -0.31312                       0.84752                      -1.97481
                      -0.34197                       0.92624                      -2.15746
                      -0.37018                       1.00457                      -2.33804
                      -0.39374                       1.06976                      -2.48745
                      -0.41342                       1.12173                      -2.60735
                      -0.43516                       1.17183                      -2.72979
                      -0.44712                       1.19912                      -2.79122
        </DataArray>
        <DataArray type="Float32" Name="OrientationX" NumberOfComponents="3" format="ascii">
                       0.96026                      -0.21498                      -0.17802
                       0.96025                      -0.21492                      -0.17811
                       0.96024                      -0.21474                      -0.17839
                       0.96022                      -0.21448                      -0.17881
                       0.96019                      -0.21407                      -0.17949
                       0.96850                      -0.18776                      -0.16357
                       0.97385                      -0.16843                      -0.15246
                       0.97809                      -0.15131                      -0.14301
                       0.98212                      -0.13315                      -0.13307
                       0.98581                      -0.11435                      -0.12291
                       0.98885                      -0.09642                      -0.11352
                       0.99144                      -0.07854                      -0.10433
                       0.99341                      -0.06218                      -0.09626
                       0.99465                      -0.04951                      -0.09069
                       0.99568                      -0.03705                      -0.08516
                       0.99641                      -0.02672                      -0.08036
                       0.99687                      -0.01907                      -0.07669
                       0.99707                      -0.01485                      -0.07502
                       0.99705                      -0.01470                      -0.07535
        </DataArray>
        <DataArray type="Float32" Name="OrientationY" NumberOfComponents="3" format="ascii">
                       0.27752                       0.80359                       0.52652
                       0.27752                       0.80354                       0.52659
                       0.27754                       0.80341                       0.52679
                       0.27756                       0.80325                       0.52702
                       0.27761                       0.80301                       0.52735
                       0.24693                       0.80912                       0.53325
                       0.22471                       0.81290                       0.53730
                       0.20526                       0.81582                       0.54066
                       0.18467                       0.81856                       0.54393
                       0.16344                       0.82102                       0.54701
                       0.14335                       0.82298                       0.54968
                       0.12342                       0.82459                       0.55210
                       0.10538                       0.82574                       0.55412
                       0.09179                       0.82640                       0.55556
                       0.07840                       0.82689                       0.55687
                       0.06717                       0.82719                       0.55789
                       0.05880                       0.82735                       0.55860
                       0.05438                       0.82741                       0.55896
                       0.05444                       0.82741                       0.55896
        </DataArray>
        <DataArray type="Float32" Name="OrientationZ" NumberOfComponents="3" format="ascii">
                       0.02987                      -0.55500                       0.83132
                       0.02994                      -0.55509                       0.83125
                       0.03020                      -0.55535                       0.83107
                       0.03059                      -0.55569                       0.83083
                       0.03124                      -0.55618                       0.83047
                       0.03223                      -0.55684                       0.83000
                       0.03344                      -0.55751                       0.82950
                       0.03486                      -0.55816                       0.82900
                       0.03650                      -0.55878                       0.82851
                       0.03836                      -0.55933                       0.82805
                       0.04042                      -0.55983                       0.82762
                       0.04266                      -0.56025                       0.82722
                       0.04503                      -0.56061                       0.82685
                       0.04744                      -0.56091                       0.82652
                       0.04978                      -0.56114                       0.82622
                       0.05157                      -0.56128                       0.82601
                       0.05280                      -0.56136                       0.82588
                       0.05377                      -0.56140                       0.82579
                       0.05413                      -0.56141                       0.82577
        </DataArray>
        <DataArray type="Float32" Name="Force" NumberOfComponents="3" format="ascii">
                     138.15449                       5.96507                      -0.98088
                     158.04728                       9.38908                       0.57475
                     175.06996                      17.46429                       5.29506
                     135.13849                      18.87075                       7.61956
                     912.41976                    -289.77438                    -227.85095
                     861.00435                    -233.94849                    -189.72156
                     885.70010                    -221.95617                    -184.02604
                     778.09127                    -173.19120                    -148.49813
                     695.55777                    -129.66326                    -117.36339
                     696.11673                    -115.87197                    -109.77562
                     647.95461                     -83.64240                     -87.64754
                     643.84563                     -71.02293                     -80.78300
                     554.99072                     -45.38478                     -60.65511
                     541.89995                     -37.31601                     -56.14182
                     525.65311                     -29.83135                     -51.70026
                     507.86702                     -23.06471                     -47.20328
                     476.85989                     -17.75487                     -42.42310
                     336.79635                     -11.00846                     -29.33439
                     317.47344                     -10.52710                     -27.89135
        </DataArray>
        <DataArray type="Float32" Name="Moment" NumberOfComponents="3" format="ascii">
                       0.00000                       0.00000                       0.00000
                       0.00000                       0.00000                       0.00000
                       0.00000                       0.00000                       0.00000
                       0.00000                       0.00000                       0.00000
                     -21.43940                     380.09858                    -569.25179
                     -23.21274                     398.48591                    -596.72421
                     -22.83948                     377.52990                    -565.26795
                     -22.83734                     361.77627                    -541.59610
                     -22.01050                     332.78851                    -498.11119
                     -21.21136                     305.04281                    -456.49020
                     -18.49833                     252.38565                    -377.60582
                     -17.76337                     229.60469                    -343.43936
                     -16.67657                     204.22567                    -305.40013
                     -15.57094                     181.00450                    -270.60502
                     -14.27477                     158.16286                    -236.39710
                     -13.02899                     139.38175                    -208.28623
                     -11.23140                     117.36926                    -175.36865
                      -5.45768                      56.01083                     -83.68057
                      -5.08621                      51.85219                     -77.46454
        </DataArray>
      </PointData>
      <Lines>
        <DataArray type="Int32" Name="connectivity" format="ascii">
      0      1
      1      2
      2      3
      3      4
      4      5
      5      6
      6      7
      7      8
      8      9
      9     10
     10     11
     11     12
     12     13
     13     14
     14     15
     15     16
     16     17
     17     18
        </DataArray>
        <DataArray type="Int32" Name="offsets" format="ascii">
      2
      4
      6
      8
     10
     12
     14
     16
     18
     20
     22
     24
     26
     28
     30
     32
     34
     36
        </DataArray>
      </Lines>
    </Piece>
  </PolyData>
</VTKFile>
