<?xml version="1.0"?>
<VTKFile type="PolyData" version="0.1" byte_order="LittleEndian">
  <PolyData>
    <Piece NumberOfPoints="     19" NumberOfVerts="  0" NumberOfLines="     18"
           NumberOfStrips="  0" NumberOfPolys="      0">
      <Points>
        <DataArray type="Float32" NumberOfComponents="3" format="ascii">
                      -5.01068                       1.49064                      89.86992
                      -5.08195                       2.85018                      89.74964
                      -5.23808                       5.57713                      89.60385
                      -5.40036                       8.30795                      89.50174
                      -5.60637                      11.72397                      89.39836
                      -5.81216                      15.81163                      89.12322
                      -6.00350                      19.88729                      88.71210
                      -6.19493                      23.96215                      88.29388
                      -6.38363                      28.03618                      87.86691
                      -6.56972                      32.10958                      87.43366
                      -6.75361                      36.18276                      86.99842
                      -6.93421                      40.25570                      86.56025
                      -7.11169                      44.32845                      86.11977
                      -7.28642                      48.40108                      85.67754
                      -7.45644                      52.47370                      85.23384
                      -7.59433                      55.86760                      84.86302
                      -7.70316                      58.58183                      84.55788
                      -7.81565                      61.29029                      84.19758
                      -7.86817                      62.64879                      84.05845
        </DataArray>
      </Points>
      <PointData>
        <DataArray type="Float32" Name="TranslationalVelocity" NumberOfComponents="3" format="ascii">
                       0.04166                       0.01061                       0.12515
                       0.05149                       0.02101                       0.23686
                       0.07130                       0.03412                       0.46093
                       0.09121                       0.04369                       0.68529
                       0.11624                       0.05369                       0.96589
                       0.14628                       0.07780                       1.30158
                       0.17643                       0.11298                       1.63622
                       0.20697                       0.14874                       1.97074
                       0.23803                       0.18523                       2.30516
                       0.26974                       0.22223                       2.63951
                       0.30226                       0.25941                       2.97383
                       0.33573                       0.29685                       3.30813
                       0.37028                       0.33449                       3.64242
                       0.40601                       0.37231                       3.97669
                       0.44300                       0.41026                       4.31095
                       0.47483                       0.44198                       4.58947
                       0.50091                       0.46805                       4.81217
                       0.52746                       0.49871                       5.03435
                       0.54098                       0.51064                       5.14576
        </DataArray>
        <DataArray type="Float32" Name="RotationalVelocity" NumberOfComponents="3" format="ascii">
                       0.08215                       0.00052                      -0.00728
                       0.08215                       0.00052                      -0.00728
                       0.08214                       0.00051                      -0.00730
                       0.08213                       0.00051                      -0.00732
                       0.08211                       0.00051                      -0.00735
                       0.08210                       0.00051                      -0.00741
                       0.08208                       0.00050                      -0.00749
                       0.08207                       0.00049                      -0.00760
                       0.08207                       0.00048                      -0.00774
                       0.08206                       0.00046                      -0.00791
                       0.08206                       0.00044                      -0.00812
                       0.08206                       0.00041                      -0.00837
                       0.08206                       0.00037                      -0.00865
                       0.08206                       0.00032                      -0.00895
                       0.08205                       0.00027                      -0.00925
                       0.08204                       0.00022                      -0.00950
                       0.08203                       0.00019                      -0.00967
                       0.08202                       0.00016                      -0.00982
                       0.08201                       0.00015                      -0.00988
        </DataArray>
        <DataArray type="Float32" Name="TranslationalAcceleration" NumberOfComponents="3" format="ascii">
                      -0.09726                      -0.00876                       0.01646
                      -0.02788                      -0.01076                       0.01743
                      -0.06758                      -0.03143                       0.04989
                      -0.09006                      -0.05137                       0.07950
                      -0.10237                      -0.07534                       0.11440
                      -0.10406                      -0.10093                       0.15511
                      -0.10145                      -0.12410                       0.19569
                      -0.10147                      -0.14723                       0.23580
                      -0.10797                      -0.17084                       0.27538
                      -0.12250                      -0.19519                       0.31395
                      -0.14481                      -0.22030                       0.35083
                      -0.17342                      -0.24603                       0.38532
                      -0.20625                      -0.27219                       0.41682
                      -0.24117                      -0.29860                       0.44504
                      -0.27657                      -0.32514                       0.47014
                      -0.30604                      -0.34738                       0.48915
                      -0.32984                      -0.36525                       0.50388
                      -0.35479                      -0.38306                       0.51922
                      -0.36797                      -0.39228                       0.52698
        </DataArray>
        <DataArray type="Float32" Name="OrientationX" NumberOfComponents="3" format="ascii">
                       0.98830                       0.06405                       0.13845
                       0.98830                       0.06403                       0.13846
                       0.98830                       0.06397                       0.13847
                       0.98830                       0.06389                       0.13849
                       0.98831                       0.06374                       0.13852
                       0.99239                       0.06073                       0.10707
                       0.99473                       0.05828                       0.08438
                       0.99635                       0.05591                       0.06458
                       0.99763                       0.05323                       0.04366
                       0.99849                       0.05028                       0.02217
                       0.99888                       0.04724                       0.00190
                       0.99886                       0.04404                      -0.01816
                       0.99851                       0.04087                      -0.03625
                       0.99803                       0.03807                      -0.04985
                       0.99738                       0.03528                      -0.06320
                       0.99669                       0.03301                      -0.07436
                       0.99609                       0.03135                      -0.08264
                       0.99575                       0.03025                      -0.08699
                       0.99577                       0.03001                      -0.08689
        </DataArray>
        <DataArray type="Float32" Name="OrientationY" NumberOfComponents="3" format="ascii">
                       0.14349                      -0.08214                      -0.98624
                       0.14350                      -0.08234                      -0.98622
                       0.14353                      -0.08287                      -0.98617
                       0.14358                      -0.08354                      -0.98611
                       0.14365                      -0.08450                      -0.98601
                       0.11216                      -0.08770                      -0.98981
                       0.08943                      -0.09027                      -0.99189
                       0.06957                      -0.09254                      -0.99328
                       0.04857                      -0.09470                      -0.99432
                       0.02696                      -0.09670                      -0.99495
                       0.00655                      -0.09844                      -0.99512
                      -0.01368                      -0.09997                      -0.99490
                      -0.03196                      -0.10123                      -0.99435
                      -0.04574                      -0.10217                      -0.99372
                      -0.05928                      -0.10297                      -0.99292
                      -0.07059                      -0.10356                      -0.99212
                      -0.07899                      -0.10396                      -0.99144
                      -0.08341                      -0.10419                      -0.99105
                      -0.08334                      -0.10422                      -0.99106
        </DataArray>
        <DataArray type="Float32" Name="OrientationZ" NumberOfComponents="3" format="ascii">
                      -0.05180                       0.99456                      -0.09036
                      -0.05175                       0.99455                      -0.09056
                      -0.05161                       0.99450                      -0.09109
                      -0.05143                       0.99445                      -0.09174
                      -0.05115                       0.99438                      -0.09266
                      -0.05072                       0.99429                      -0.09384
                      -0.05020                       0.99421                      -0.09500
                      -0.04956                       0.99414                      -0.09609
                      -0.04879                       0.99408                      -0.09706
                      -0.04788                       0.99404                      -0.09791
                      -0.04682                       0.99402                      -0.09864
                      -0.04563                       0.99402                      -0.09925
                      -0.04431                       0.99402                      -0.09978
                      -0.04293                       0.99404                      -0.10022
                      -0.04154                       0.99406                      -0.10061
                      -0.04045                       0.99408                      -0.10089
                      -0.03968                       0.99409                      -0.10107
                      -0.03905                       0.99410                      -0.10122
                      -0.03880                       0.99410                      -0.10128
        </DataArray>
        <DataArray type="Float32" Name="Force" NumberOfComponents="3" format="ascii">
                     154.41424                       7.82916                      -2.34456
                     154.10086                       7.67144                      -3.78638
                     167.11756                       8.00306                      -7.25083
                     126.13840                       5.79388                      -7.85330
                     688.81907                      50.40388                     166.25173
                     652.92786                      44.36261                     123.77285
                     633.08532                      41.27138                     105.15734
                     564.70772                      34.90748                      77.35531
                     509.39580                      29.27779                      50.23930
                     479.59802                      26.14860                      36.90061
                     446.84640                      22.28558                      17.08073
                     418.28425                      19.57006                       7.57078
                     369.58075                      15.99177                      -2.02714
                     340.99891                      13.82692                      -6.69317
                     312.55039                      11.83319                     -10.44297
                     288.86652                      10.31030                     -12.95627
                     261.90881                       8.93710                     -13.96546
                     178.99962                       5.91900                     -10.34309
                     179.40556                       5.88914                     -10.34768
        </DataArray>
        <DataArray type="Float32" Name="Moment" NumberOfComponents="3" format="ascii">
                       0.00000                       0.00000                       0.00000
                       0.00000                       0.00000                       0.00000
                       0.00000                       0.00000                       0.00000
                       0.00000                       0.00000                       0.00000
                      35.68169                    -696.54771                      63.34056
                      36.09557                    -711.98550                      64.77779
                      32.77883                    -654.66980                      59.59951
                      29.76150                    -603.24552                      54.95718
                      25.84748                    -533.12384                      48.60919
                      22.16111                    -466.55066                      42.57982
                      17.42302                    -375.65309                      34.32129
                      14.69380                    -325.58232                      29.78266
                      12.10390                    -276.51879                      25.32785
                       9.89607                    -233.68106                      21.43359
                       7.96556                    -194.61942                      17.87527
                       6.56486                    -164.87916                      15.15996
                       5.25223                    -134.57120                      12.38265
                       2.39420                     -62.36963                       5.74253
                       2.37844                     -62.36468                       5.74345
        </DataArray>
      </PointData>
      <Lines>
        <DataArray type="Int32" Name="connectivity" format="ascii">
      0      1
      1      2
      2      3
      3      4
      4      5
      5      6
      6      7
      7      8
      8      9
      9     10
     10     11
     11     12
     12     13
     13     14
     14     15
     15     16
     16     17
     17     18
        </DataArray>
        <DataArray type="Int32" Name="offsets" format="ascii">
      2
      4
      6
      8
     10
     12
     14
     16
     18
     20
     22
     24
     26
     28
     30
     32
     34
     36
        </DataArray>
      </Lines>
    </Piece>
  </PolyData>
</VTKFile>
