<?xml version="1.0"?>
<VTKFile type="PolyData" version="0.1" byte_order="LittleEndian">
  <PolyData>
    <Piece NumberOfPoints="     19" NumberOfVerts="  0" NumberOfLines="     18"
           NumberOfStrips="  0" NumberOfPolys="      0">
      <Points>
        <DataArray type="Float32" NumberOfComponents="3" format="ascii">
                      -5.10351                      -0.84287                      88.77645
                      -5.26362                      -1.60653                      87.65435
                      -5.61026                      -3.05436                      85.35966
                      -5.96887                      -4.46397                      83.04060
                      -6.42330                      -6.20226                      80.12654
                      -6.90647                      -8.40572                      76.70137
                      -7.35590                     -10.71503                      73.34366
                      -7.80337                     -13.02403                      69.98544
                      -8.24582                     -15.33445                      66.62743
                      -8.68370                     -17.64492                      63.26877
                      -9.11809                     -19.95266                      59.90775
                      -9.54791                     -22.25923                      56.54530
                      -9.97362                     -24.56494                      53.18170
                     -10.39592                     -26.87000                      49.81721
                     -10.81324                     -29.17454                      46.45173
                     -11.15726                     -31.09469                      43.64647
                     -11.43011                     -32.63714                      41.40631
                     -11.69941                     -34.22509                      39.19638
                     -11.83615                     -34.98428                      38.06831
        </DataArray>
      </Points>
      <PointData>
        <DataArray type="Float32" Name="TranslationalVelocity" NumberOfComponents="3" format="ascii">
                      -0.00712                       0.10435                      -0.07169
                      -0.01268                       0.20018                      -0.13612
                      -0.02323                       0.39623                      -0.25823
                      -0.03356                       0.59430                      -0.37704
                      -0.04644                       0.84300                      -0.52341
                      -0.06309                       1.13460                      -0.70872
                      -0.08099                       1.41989                      -0.90261
                      -0.09947                       1.70482                      -1.09612
                      -0.11863                       1.98932                      -1.28941
                      -0.13855                       2.27348                      -1.48235
                      -0.15923                       2.55750                      -1.67474
                      -0.18067                       2.84132                      -1.86674
                      -0.20281                       3.12498                      -2.05842
                      -0.22551                       3.40851                      -2.24986
                      -0.24855                       3.69193                      -2.44111
                      -0.26779                       3.92807                      -2.60040
                      -0.28309                       4.11659                      -2.72835
                      -0.29846                       4.30254                      -2.86010
                      -0.30574                       4.39745                      -2.92310
        </DataArray>
        <DataArray type="Float32" Name="RotationalVelocity" NumberOfComponents="3" format="ascii">
                       0.08435                      -0.00014                      -0.00748
                       0.08434                      -0.00013                      -0.00748
                       0.08430                      -0.00012                      -0.00749
                       0.08424                      -0.00009                      -0.00750
                       0.08415                      -0.00004                      -0.00753
                       0.08404                       0.00004                      -0.00758
                       0.08392                       0.00015                      -0.00764
                       0.08379                       0.00027                      -0.00773
                       0.08368                       0.00041                      -0.00782
                       0.08357                       0.00057                      -0.00793
                       0.08347                       0.00072                      -0.00804
                       0.08338                       0.00087                      -0.00814
                       0.08331                       0.00100                      -0.00823
                       0.08325                       0.00110                      -0.00830
                       0.08320                       0.00115                      -0.00833
                       0.08318                       0.00114                      -0.00833
                       0.08317                       0.00109                      -0.00829
                       0.08317                       0.00100                      -0.00822
                       0.08318                       0.00093                      -0.00817
        </DataArray>
        <DataArray type="Float32" Name="TranslationalAcceleration" NumberOfComponents="3" format="ascii">
                      -0.12205                       0.01807                      -0.01062
                      -0.03353                       0.02015                      -0.00173
                      -0.08008                       0.05762                      -0.00287
                      -0.10459                       0.09178                      -0.00117
                      -0.11471                       0.13149                       0.00328
                      -0.10955                       0.17595                       0.00887
                      -0.09758                       0.21868                       0.01393
                      -0.08685                       0.26078                       0.01959
                      -0.08202                       0.30292                       0.02569
                      -0.08499                       0.34527                       0.03225
                      -0.09558                       0.38773                       0.03938
                      -0.11229                       0.43000                       0.04721
                      -0.13305                       0.47175                       0.05587
                      -0.15597                       0.51272                       0.06546
                      -0.18007                       0.55290                       0.07596
                      -0.20153                       0.58592                       0.08528
                      -0.22049                       0.61241                       0.09278
                      -0.24286                       0.63943                       0.09966
                      -0.25582                       0.65315                       0.10334
        </DataArray>
        <DataArray type="Float32" Name="OrientationX" NumberOfComponents="3" format="ascii">
                       0.95390                       0.16664                      -0.24961
                       0.95391                       0.16670                      -0.24953
                       0.95394                       0.16686                      -0.24930
                       0.95399                       0.16711                      -0.24897
                       0.95405                       0.16751                      -0.24844
                       0.96248                       0.14212                      -0.23115
                       0.96799                       0.12397                      -0.21824
                       0.97240                       0.10825                      -0.20670
                       0.97663                       0.09161                      -0.19441
                       0.98054                       0.07450                      -0.18165
                       0.98381                       0.05840                      -0.16941
                       0.98666                       0.04246                      -0.15717
                       0.98890                       0.02811                      -0.14589
                       0.99041                       0.01748                      -0.13705
                       0.99170                       0.00697                      -0.12839
                       0.99262                      -0.00191                      -0.12123
                       0.99322                      -0.00857                      -0.11596
                       0.99352                      -0.01201                      -0.11303
                       0.99354                      -0.01187                      -0.11290
        </DataArray>
        <DataArray type="Float32" Name="OrientationY" NumberOfComponents="3" format="ascii">
                       0.27660                      -0.81090                       0.51568
                       0.27659                      -0.81095                       0.51561
                       0.27657                      -0.81109                       0.51541
                       0.27655                      -0.81125                       0.51516
                       0.27653                      -0.81148                       0.51481
                       0.24596                      -0.81671                       0.52201
                       0.22378                      -0.82006                       0.52671
                       0.20435                      -0.82266                       0.53054
                       0.18377                      -0.82502                       0.53438
                       0.16253                      -0.82704                       0.53813
                       0.14242                      -0.82859                       0.54144
                       0.12244                      -0.82977                       0.54451
                       0.10433                      -0.83054                       0.54710
                       0.09062                      -0.83096                       0.54889
                       0.07712                      -0.83122                       0.55057
                       0.06580                      -0.83130                       0.55191
                       0.05738                      -0.83129                       0.55286
                       0.05290                      -0.83127                       0.55335
                       0.05294                      -0.83127                       0.55334
        </DataArray>
        <DataArray type="Float32" Name="OrientationZ" NumberOfComponents="3" format="ascii">
                      -0.11647                      -0.56095                      -0.81961
                      -0.11641                      -0.56086                      -0.81968
                      -0.11620                      -0.56062                      -0.81988
                      -0.11589                      -0.56031                      -0.82014
                      -0.11537                      -0.55986                      -0.82052
                      -0.11460                      -0.55928                      -0.82102
                      -0.11367                      -0.55869                      -0.82155
                      -0.11261                      -0.55813                      -0.82208
                      -0.11144                      -0.55762                      -0.82258
                      -0.11014                      -0.55718                      -0.82305
                      -0.10876                      -0.55680                      -0.82349
                      -0.10729                      -0.55649                      -0.82390
                      -0.10579                      -0.55624                      -0.82426
                      -0.10429                      -0.55605                      -0.82458
                      -0.10288                      -0.55590                      -0.82486
                      -0.10183                      -0.55582                      -0.82504
                      -0.10113                      -0.55577                      -0.82516
                      -0.10060                      -0.55574                      -0.82525
                      -0.10042                      -0.55574                      -0.82527
        </DataArray>
        <DataArray type="Float32" Name="Force" NumberOfComponents="3" format="ascii">
                     139.70432                     -12.01421                     -11.63016
                     124.44102                     -16.89590                      -6.10981
                     150.28348                     -23.31239                      -5.34712
                     119.79448                     -19.41749                      -3.64204
                     759.39461                     204.22592                    -246.57047
                     684.59017                     152.96489                    -200.27084
                     657.68836                     133.36175                    -182.30672
                     556.44811                      98.21633                    -143.48196
                     481.46416                      68.70546                    -112.28402
                     450.34788                      56.08889                     -98.69327
                     405.78683                      36.67075                     -78.72942
                     377.24788                      27.90771                     -68.26789
                     319.84272                      16.71215                     -52.52524
                     292.17365                      11.91238                     -45.14316
                     264.95467                       7.85480                     -38.45702
                     242.57190                       4.95613                     -33.36443
                     218.16302                       2.97184                     -28.80219
                     147.78229                       1.50132                     -19.06353
                     147.27680                       1.51437                     -18.97673
        </DataArray>
        <DataArray type="Float32" Name="Moment" NumberOfComponents="3" format="ascii">
                       0.00000                       0.00000                       0.00000
                       0.00000                       0.00000                       0.00000
                       0.00000                       0.00000                       0.00000
                       0.00000                       0.00000                       0.00000
                      72.69068                     353.65260                     516.79318
                      74.45946                     364.83884                     533.18668
                      67.57089                     333.90196                     488.02555
                      61.14036                     305.07194                     445.94096
                      52.87783                     266.72920                     389.94447
                      45.29572                     231.23659                     338.10449
                      35.39111                     183.03496                     267.66712
                      29.92177                     156.90289                     229.48897
                      24.73667                     131.59017                     192.49788
                      20.33130                     109.72764                     160.54229
                      16.46441                      90.09296                     131.83512
                      13.63117                      75.36721                     110.29920
                      10.93016                      60.85676                      89.07008
                       4.98186                      27.88573                      40.81597
                       4.93865                      27.69569                      40.53862
        </DataArray>
      </PointData>
      <Lines>
        <DataArray type="Int32" Name="connectivity" format="ascii">
      0      1
      1      2
      2      3
      3      4
      4      5
      5      6
      6      7
      7      8
      8      9
      9     10
     10     11
     11     12
     12     13
     13     14
     14     15
     15     16
     16     17
     17     18
        </DataArray>
        <DataArray type="Int32" Name="offsets" format="ascii">
      2
      4
      6
      8
     10
     12
     14
     16
     18
     20
     22
     24
     26
     28
     30
     32
     34
     36
        </DataArray>
      </Lines>
    </Piece>
  </PolyData>
</VTKFile>
