<?xml version="1.0"?>
<VTKFile type="PolyData" version="0.1" byte_order="LittleEndian">
  <PolyData>
    <Piece NumberOfPoints="     19" NumberOfVerts="  0" NumberOfLines="     18"
           NumberOfStrips="  0" NumberOfPolys="      0">
      <Points>
        <DataArray type="Float32" NumberOfComponents="3" format="ascii">
                      -5.12175                      -0.44225                      88.58489
                      -5.29721                      -0.84053                      87.28931
                      -5.67232                      -1.54598                      84.67327
                      -6.05833                      -2.20792                      82.04522
                      -6.54642                      -3.00882                      78.75268
                      -7.07347                      -4.10594                      74.83600
                      -7.57001                      -5.32609                      70.95330
                      -8.06484                      -6.54710                      67.07063
                      -8.55504                      -7.77081                      63.18817
                      -9.04101                      -8.99553                      59.30544
                      -9.52381                     -10.21791                      55.42158
                     -10.00239                     -11.43958                      51.53695
                     -10.47724                     -12.66075                      47.65170
                     -10.94905                     -13.88153                      43.76595
                     -11.41618                     -15.10197                      39.87953
                     -11.80194                     -16.11881                      36.64035
                     -12.10847                     -16.93970                      34.05110
                     -12.41281                     -17.81310                      31.47767
                     -12.56610                     -18.20984                      30.17894
        </DataArray>
      </Points>
      <PointData>
        <DataArray type="Float32" Name="TranslationalVelocity" NumberOfComponents="3" format="ascii">
                      -0.00405                       0.15650                      -0.04843
                      -0.00789                       0.30005                      -0.09204
                      -0.01469                       0.58998                      -0.16925
                      -0.02113                       0.88116                      -0.24165
                      -0.02905                       1.24571                      -0.32919
                      -0.04012                       1.67840                      -0.44896
                      -0.05272                       2.10656                      -0.58198
                      -0.06574                       2.53421                      -0.71487
                      -0.07925                       2.96132                      -0.84784
                      -0.09327                       3.38799                      -0.98072
                      -0.10780                       3.81439                      -1.11316
                      -0.12283                       4.24053                      -1.24536
                      -0.13833                       4.66647                      -1.37737
                      -0.15423                       5.09226                      -1.50923
                      -0.17042                       5.51795                      -1.64099
                      -0.18402                       5.87263                      -1.75072
                      -0.19496                       6.15608                      -1.83929
                      -0.20634                       6.43775                      -1.93355
                      -0.21159                       6.57988                      -1.97635
        </DataArray>
        <DataArray type="Float32" Name="RotationalVelocity" NumberOfComponents="3" format="ascii">
                       0.10950                      -0.00003                      -0.00971
                       0.10948                      -0.00003                      -0.00971
                       0.10943                      -0.00001                      -0.00970
                       0.10936                       0.00002                      -0.00970
                       0.10926                       0.00006                      -0.00971
                       0.10913                       0.00014                      -0.00972
                       0.10900                       0.00023                      -0.00974
                       0.10887                       0.00033                      -0.00976
                       0.10876                       0.00045                      -0.00980
                       0.10865                       0.00057                      -0.00983
                       0.10857                       0.00069                      -0.00987
                       0.10849                       0.00080                      -0.00991
                       0.10843                       0.00091                      -0.00994
                       0.10838                       0.00099                      -0.00997
                       0.10835                       0.00105                      -0.00999
                       0.10832                       0.00106                      -0.01000
                       0.10831                       0.00105                      -0.01000
                       0.10831                       0.00101                      -0.00999
                       0.10830                       0.00098                      -0.00998
        </DataArray>
        <DataArray type="Float32" Name="TranslationalAcceleration" NumberOfComponents="3" format="ascii">
                      -0.11435                       0.01823                      -0.00165
                      -0.02930                       0.02097                       0.01145
                      -0.06849                       0.05955                       0.03524
                      -0.08711                       0.09451                       0.06020
                      -0.09150                       0.13524                       0.09218
                      -0.08121                       0.18260                       0.12912
                      -0.06508                       0.22994                       0.16442
                      -0.05011                       0.27731                       0.19978
                      -0.03967                       0.32541                       0.23520
                      -0.03414                       0.37446                       0.27061
                      -0.03169                       0.42437                       0.30586
                      -0.02895                       0.47489                       0.34072
                      -0.02184                       0.52567                       0.37492
                      -0.00624                       0.57643                       0.40818
                       0.02122                       0.62705                       0.44023
                       0.05483                       0.66919                       0.46576
                       0.08856                       0.70321                       0.48520
                       0.12759                       0.73822                       0.50303
                       0.14887                       0.75567                       0.51204
        </DataArray>
        <DataArray type="Float32" Name="OrientationX" NumberOfComponents="3" format="ascii">
                       0.95886                       0.20752                      -0.19372
                       0.95887                       0.20754                      -0.19365
                       0.95890                       0.20762                      -0.19341
                       0.95894                       0.20773                      -0.19308
                       0.95901                       0.20792                      -0.19255
                       0.96670                       0.17834                      -0.18355
                       0.97167                       0.15703                      -0.17662
                       0.97562                       0.13846                      -0.17028
                       0.97937                       0.11881                      -0.16349
                       0.98277                       0.09857                      -0.15638
                       0.98557                       0.07947                      -0.14945
                       0.98795                       0.06053                      -0.14246
                       0.98977                       0.04343                      -0.13593
                       0.99096                       0.03061                      -0.13064
                       0.99193                       0.01797                      -0.12547
                       0.99260                       0.00735                      -0.12124
                       0.99300                      -0.00057                      -0.11815
                       0.99320                      -0.00474                      -0.11635
                       0.99322                      -0.00465                      -0.11619
        </DataArray>
        <DataArray type="Float32" Name="OrientationY" NumberOfComponents="3" format="ascii">
                       0.25350                      -0.93304                       0.25529
                       0.25350                      -0.93305                       0.25525
                       0.25349                      -0.93308                       0.25515
                       0.25349                      -0.93312                       0.25502
                       0.25349                      -0.93316                       0.25485
                       0.22279                      -0.93938                       0.26062
                       0.20053                      -0.94330                       0.26452
                       0.18104                      -0.94632                       0.26778
                       0.16039                      -0.94909                       0.27111
                       0.13910                      -0.95150                       0.27441
                       0.11894                      -0.95337                       0.27740
                       0.09891                      -0.95482                       0.28024
                       0.08076                      -0.95581                       0.28269
                       0.06704                      -0.95634                       0.28445
                       0.05352                      -0.95670                       0.28612
                       0.04220                      -0.95686                       0.28748
                       0.03377                      -0.95689                       0.28847
                       0.02929                      -0.95689                       0.28899
                       0.02933                      -0.95689                       0.28898
        </DataArray>
        <DataArray type="Float32" Name="OrientationZ" NumberOfComponents="3" format="ascii">
                      -0.12777                      -0.29389                      -0.94726
                      -0.12771                      -0.29384                      -0.94729
                      -0.12750                      -0.29369                      -0.94736
                      -0.12719                      -0.29349                      -0.94746
                      -0.12669                      -0.29321                      -0.94762
                      -0.12594                      -0.29283                      -0.94783
                      -0.12506                      -0.29245                      -0.94807
                      -0.12407                      -0.29208                      -0.94831
                      -0.12296                      -0.29174                      -0.94856
                      -0.12174                      -0.29143                      -0.94881
                      -0.12044                      -0.29117                      -0.94906
                      -0.11906                      -0.29095                      -0.94930
                      -0.11765                      -0.29077                      -0.94953
                      -0.11623                      -0.29063                      -0.94975
                      -0.11490                      -0.29053                      -0.94994
                      -0.11389                      -0.29047                      -0.95008
                      -0.11322                      -0.29044                      -0.95017
                      -0.11270                      -0.29043                      -0.95024
                      -0.11252                      -0.29043                      -0.95026
        </DataArray>
        <DataArray type="Float32" Name="Force" NumberOfComponents="3" format="ascii">
                     132.19187                      -8.42639                     -15.21668
                     117.20129                     -12.65979                     -11.87285
                     135.16790                     -19.99827                     -11.98709
                     106.47757                     -18.85850                      -8.44360
                     705.90934                     227.94991                    -165.09580
                     654.75482                     177.68180                    -142.12769
                     648.53498                     160.55767                    -135.36562
                     553.31090                     120.22182                    -109.68847
                     479.84451                      85.53513                     -88.73845
                     453.48531                      71.13275                     -80.25836
                     407.00859                      47.32365                     -66.33706
                     380.86140                      36.87693                     -59.21380
                     319.41606                      22.25184                     -46.48403
                     292.89906                      16.29871                     -40.90814
                     266.62912                      11.28875                     -35.75639
                     244.90544                       7.73427                     -31.76395
                     220.82509                       5.24735                     -27.94656
                     149.54937                       2.77586                     -18.60280
                     149.01097                       2.72197                     -18.49289
        </DataArray>
        <DataArray type="Float32" Name="Moment" NumberOfComponents="3" format="ascii">
                       0.00000                       0.00000                       0.00000
                       0.00000                       0.00000                       0.00000
                       0.00000                       0.00000                       0.00000
                       0.00000                       0.00000                       0.00000
                      71.35703                     165.56767                     533.70668
                      74.57909                     174.08642                     561.20669
                      69.25596                     162.81758                     524.92298
                      63.80921                     151.23932                     487.64102
                      55.90488                     133.71746                     431.19063
                      48.36629                     116.85272                     376.85117
                      37.94716                      92.68354                     298.94216
                      32.28155                      79.76565                     257.31010
                      26.81019                      67.05112                     216.32412
                      22.12195                      56.00307                     180.70428
                      17.97367                      46.03541                     148.56049
                      14.91364                      38.53568                     124.36985
                      11.97254                      31.12121                     100.44678
                       5.45227                      14.23767                      45.95572
                       5.39984                      14.12396                      45.58946
        </DataArray>
      </PointData>
      <Lines>
        <DataArray type="Int32" Name="connectivity" format="ascii">
      0      1
      1      2
      2      3
      3      4
      4      5
      5      6
      6      7
      7      8
      8      9
      9     10
     10     11
     11     12
     12     13
     13     14
     14     15
     15     16
     16     17
     17     18
        </DataArray>
        <DataArray type="Int32" Name="offsets" format="ascii">
      2
      4
      6
      8
     10
     12
     14
     16
     18
     20
     22
     24
     26
     28
     30
     32
     34
     36
        </DataArray>
      </Lines>
    </Piece>
  </PolyData>
</VTKFile>
