<?xml version="1.0"?>
<VTKFile type="PolyData" version="0.1" byte_order="LittleEndian">
  <PolyData>
    <Piece NumberOfPoints="     19" NumberOfVerts="  0" NumberOfLines="     18"
           NumberOfStrips="  0" NumberOfPolys="      0">
      <Points>
        <DataArray type="Float32" NumberOfComponents="3" format="ascii">
                      -4.89200                      -1.06352                      91.06486
                      -4.86718                      -2.03428                      92.02656
                      -4.84475                      -4.04242                      93.88360
                      -4.83406                      -6.08277                      95.70845
                      -4.82574                      -8.65353                      97.96904
                      -4.74854                     -11.64189                     100.77668
                      -4.63144                     -14.54277                     103.67130
                      -4.50648                     -17.44529                     106.56401
                      -4.36891                     -20.34821                     109.45585
                      -4.21740                     -23.25273                     112.34547
                      -4.05133                     -26.16113                     115.23043
                      -3.86795                     -29.07206                     118.11185
                      -3.66630                     -31.98512                     120.98995
                      -3.44597                     -34.89993                     123.86498
                      -3.20469                     -37.81617                     126.73695
                      -2.98726                     -40.24718                     129.12806
                      -2.80319                     -42.18677                     131.04528
                      -2.60819                     -44.08819                     133.00078
                      -2.51097                     -45.06797                     133.94839
        </DataArray>
      </Points>
      <PointData>
        <DataArray type="Float32" Name="TranslationalVelocity" NumberOfComponents="3" format="ascii">
                      -0.01424                      -0.44023                      -0.44034
                      -0.04972                      -0.84168                      -0.84464
                      -0.12291                      -1.61618                      -1.68126
                      -0.19693                      -2.37721                      -2.53174
                      -0.28950                      -3.32041                      -3.60407
                      -0.39561                      -4.49534                      -4.85189
                      -0.49643                      -5.70933                      -6.06461
                      -0.59463                      -6.92418                      -7.27948
                      -0.68946                      -8.14044                      -8.49602
                      -0.78028                      -9.35754                      -9.71472
                      -0.86652                     -10.57433                     -10.93651
                      -0.94753                     -11.79123                     -12.16076
                      -1.02286                     -13.00820                     -13.38724
                      -1.09219                     -14.22516                     -14.61569
                      -1.15542                     -15.44199                     -15.84590
                      -1.20345                     -16.45585                     -16.87226
                      -1.23894                     -17.26916                     -17.69165
                      -1.27074                     -18.09896                     -18.49540
                      -1.28694                     -18.50115                     -18.90965
        </DataArray>
        <DataArray type="Float32" Name="RotationalVelocity" NumberOfComponents="3" format="ascii">
                       0.41641                       0.00044                      -0.03699
                       0.41648                       0.00046                      -0.03697
                       0.41665                       0.00054                      -0.03690
                       0.41687                       0.00066                      -0.03680
                       0.41720                       0.00086                      -0.03662
                       0.41765                       0.00120                      -0.03634
                       0.41812                       0.00164                      -0.03597
                       0.41859                       0.00218                      -0.03550
                       0.41905                       0.00284                      -0.03492
                       0.41950                       0.00361                      -0.03421
                       0.41991                       0.00447                      -0.03337
                       0.42029                       0.00542                      -0.03240
                       0.42064                       0.00642                      -0.03132
                       0.42095                       0.00742                      -0.03017
                       0.42122                       0.00837                      -0.02901
                       0.42140                       0.00906                      -0.02810
                       0.42150                       0.00951                      -0.02745
                       0.42157                       0.00983                      -0.02692
                       0.42158                       0.00993                      -0.02671
        </DataArray>
        <DataArray type="Float32" Name="TranslationalAcceleration" NumberOfComponents="3" format="ascii">
                      -0.00257                       0.15555                      -0.20945
                      -0.01773                       0.19138                      -0.25438
                      -0.05215                       0.56028                      -0.71875
                      -0.08594                       0.90923                      -1.14075
                      -0.12773                       1.32401                      -1.63022
                      -0.17875                       1.77909                      -2.19936
                      -0.23091                       2.20593                      -2.76627
                      -0.28371                       2.63371                      -3.33140
                      -0.33783                       3.06770                      -3.90227
                      -0.39395                       3.50974                      -4.48098
                      -0.45277                       3.95910                      -5.06580
                      -0.51509                       4.41269                      -5.65343
                      -0.58172                       4.86712                      -6.23971
                      -0.65353                       5.31960                      -6.82120
                      -0.73143                       5.76900                      -7.39656
                      -0.80183                       6.14226                      -7.87264
                      -0.86211                       6.44051                      -8.25480
                      -0.92751                       6.73429                      -8.64697
                      -0.96094                       6.88929                      -8.84131
        </DataArray>
        <DataArray type="Float32" Name="OrientationX" NumberOfComponents="3" format="ascii">
                       0.95662                      -0.19240                      -0.21879
                       0.95661                      -0.19228                      -0.21891
                       0.95660                      -0.19190                      -0.21930
                       0.95658                      -0.19135                      -0.21987
                       0.95654                      -0.19046                      -0.22080
                       0.96527                      -0.16740                      -0.20059
                       0.97091                      -0.15002                      -0.18660
                       0.97539                      -0.13428                      -0.17487
                       0.97968                      -0.11738                      -0.16264
                       0.98361                      -0.09966                      -0.15027
                       0.98686                      -0.08234                      -0.13902
                       0.98964                      -0.06476                      -0.12815
                       0.99175                      -0.04820                      -0.11881
                       0.99303                      -0.03457                      -0.11272
                       0.99407                      -0.02110                      -0.10666
                       0.99480                      -0.01002                      -0.10131
                       0.99527                      -0.00187                      -0.09716
                       0.99543                       0.00312                      -0.09544
                       0.99537                       0.00382                      -0.09602
        </DataArray>
        <DataArray type="Float32" Name="OrientationY" NumberOfComponents="3" format="ascii">
                       0.29074                       0.67904                       0.67407
                       0.29075                       0.67897                       0.67414
                       0.29076                       0.67876                       0.67434
                       0.29078                       0.67851                       0.67459
                       0.29083                       0.67816                       0.67493
                       0.26026                       0.68340                       0.68208
                       0.23812                       0.68657                       0.68697
                       0.21874                       0.68896                       0.69101
                       0.19819                       0.69120                       0.69495
                       0.17697                       0.69319                       0.69869
                       0.15685                       0.69474                       0.70195
                       0.13682                       0.69596                       0.70492
                       0.11862                       0.69675                       0.70744
                       0.10478                       0.69711                       0.70927
                       0.09108                       0.69731                       0.71096
                       0.07956                       0.69736                       0.71229
                       0.07094                       0.69735                       0.71321
                       0.06624                       0.69733                       0.71368
                       0.06617                       0.69734                       0.71368
        </DataArray>
        <DataArray type="Float32" Name="OrientationZ" NumberOfComponents="3" format="ascii">
                       0.01888                      -0.70844                       0.70552
                       0.01901                      -0.70854                       0.70541
                       0.01945                      -0.70884                       0.70510
                       0.02010                      -0.70923                       0.70469
                       0.02119                      -0.70981                       0.70408
                       0.02290                      -0.71059                       0.70323
                       0.02506                      -0.71142                       0.70232
                       0.02769                      -0.71226                       0.70137
                       0.03084                      -0.71306                       0.70042
                       0.03454                      -0.71383                       0.69947
                       0.03878                      -0.71453                       0.69853
                       0.04353                      -0.71515                       0.69761
                       0.04868                      -0.71569                       0.69672
                       0.05406                      -0.71613                       0.69587
                       0.05938                      -0.71646                       0.69509
                       0.06352                      -0.71665                       0.69454
                       0.06642                      -0.71673                       0.69418
                       0.06877                      -0.71674                       0.69394
                       0.06968                      -0.71673                       0.69386
        </DataArray>
        <DataArray type="Float32" Name="Force" NumberOfComponents="3" format="ascii">
                       0.12902                       1.45004                       1.45258
                     159.58577                      13.24883                       9.00210
                     179.44284                      26.63860                      21.79585
                     141.29803                      30.06913                      26.15861
                    1075.15851                    -302.52478                    -336.34720
                    1033.41777                    -250.25819                    -285.24664
                    1123.51513                    -250.60632                    -292.16511
                    1006.97925                    -198.36971                    -239.42084
                     924.16481                    -152.49793                    -194.30643
                     972.77731                    -142.88501                    -192.06556
                     931.93788                    -109.90724                    -162.62860
                     992.30375                    -111.65365                    -174.61676
                    1031.84701                    -137.11543                    -210.48833
                    1126.18582                    -149.78984                    -238.68808
                    1208.67606                    -156.08549                    -260.82268
                    1265.77543                    -156.76976                    -274.02357
                    1267.65525                    -151.79629                    -274.53499
                     981.94416                    -122.06912                    -220.55140
                     271.55083                       3.92300                     -23.26740
        </DataArray>
        <DataArray type="Float32" Name="Moment" NumberOfComponents="3" format="ascii">
                       0.00000                       0.00000                       0.00000
                       0.00000                       0.00000                       0.00000
                       0.00000                       0.00000                       0.00000
                       0.00000                       0.00000                       0.00000
                     -13.28858                     441.83956                    -439.88697
                     -15.91226                     488.46695                    -486.19983
                     -17.22816                     482.43807                    -480.06461
                     -19.31008                     488.65849                    -486.08924
                     -20.82368                     472.73746                    -470.06160
                     -22.32069                     452.32699                    -449.55385
                     -21.15506                     381.80567                    -379.25932
                     -22.34886                     359.46753                    -356.85420
                     -23.39347                     336.63227                    -333.96607
                     -23.78589                     308.44570                    -305.79391
                     -23.51194                     277.73913                    -275.16535
                     -22.63301                     250.04673                    -247.59942
                     -20.11348                     212.56057                    -210.40256
                      -9.14239                      93.34056                     -92.36538
                      -6.50466                      65.55454                     -64.86222
        </DataArray>
      </PointData>
      <Lines>
        <DataArray type="Int32" Name="connectivity" format="ascii">
      0      1
      1      2
      2      3
      3      4
      4      5
      5      6
      6      7
      7      8
      8      9
      9     10
     10     11
     11     12
     12     13
     13     14
     14     15
     15     16
     16     17
     17     18
        </DataArray>
        <DataArray type="Int32" Name="offsets" format="ascii">
      2
      4
      6
      8
     10
     12
     14
     16
     18
     20
     22
     24
     26
     28
     30
     32
     34
     36
        </DataArray>
      </Lines>
    </Piece>
  </PolyData>
</VTKFile>
