<?xml version="1.0"?>
<VTKFile type="PolyData" version="0.1" byte_order="LittleEndian">
  <PolyData>
    <Piece NumberOfPoints="     19" NumberOfVerts="  0" NumberOfLines="     18"
           NumberOfStrips="  0" NumberOfPolys="      0">
      <Points>
        <DataArray type="Float32" NumberOfComponents="3" format="ascii">
                      -4.96797                      -1.46850                      90.31657
                      -5.00378                      -2.80582                      90.59615
                      -5.10529                      -5.49895                      91.06357
                      -5.22024                      -8.20104                      91.48626
                      -5.37069                     -11.58429                      91.98591
                      -5.48272                     -15.61818                      92.71596
                      -5.55476                     -19.62810                      93.56538
                      -5.62292                     -23.63877                      94.41183
                      -5.68357                     -27.64992                      95.25710
                      -5.73672                     -31.66182                      96.09978
                      -5.78313                     -35.67503                      96.93691
                      -5.82120                     -39.68914                      97.77045
                      -5.85106                     -43.70397                      98.60106
                      -5.87316                     -47.71939                      99.42930
                      -5.88579                     -51.73533                     100.25536
                      -5.88909                     -55.08233                     100.94227
                      -5.88701                     -57.75852                     101.49866
                      -5.87749                     -60.42426                     102.10808
                      -5.87581                     -61.76517                     102.37178
        </DataArray>
      </Points>
      <PointData>
        <DataArray type="Float32" Name="TranslationalVelocity" NumberOfComponents="3" format="ascii">
                      -0.02675                      -0.07710                      -0.36493
                      -0.05626                      -0.14596                      -0.69808
                      -0.11568                      -0.26019                      -1.36903
                      -0.17528                      -0.36298                      -2.04232
                      -0.24988                      -0.48420                      -2.88552
                      -0.33873                      -0.66373                      -3.89114
                      -0.42694                      -0.87396                      -4.89110
                      -0.51505                      -1.08361                      -5.89156
                      -0.60304                      -1.29319                      -6.89242
                      -0.69091                      -1.50237                      -7.89373
                      -0.77867                      -1.71035                      -8.89560
                      -0.86631                      -1.91768                      -9.89789
                      -0.95381                      -2.12449                     -10.90052
                      -1.04119                      -2.33090                     -11.90342
                      -1.12843                      -2.53700                     -12.90655
                      -1.20104                      -2.70855                     -13.74266
                      -1.25902                      -2.84760                     -14.41124
                      -1.31672                      -3.00007                     -15.07724
                      -1.34572                      -3.06600                     -15.41227
        </DataArray>
        <DataArray type="Float32" Name="RotationalVelocity" NumberOfComponents="3" format="ascii">
                       0.24910                       0.00010                      -0.02209
                       0.24912                       0.00010                      -0.02208
                       0.24915                       0.00010                      -0.02208
                       0.24919                       0.00010                      -0.02207
                       0.24924                       0.00010                      -0.02206
                       0.24932                       0.00011                      -0.02204
                       0.24940                       0.00012                      -0.02201
                       0.24947                       0.00012                      -0.02198
                       0.24954                       0.00013                      -0.02195
                       0.24959                       0.00014                      -0.02192
                       0.24965                       0.00015                      -0.02188
                       0.24969                       0.00015                      -0.02185
                       0.24973                       0.00016                      -0.02181
                       0.24976                       0.00016                      -0.02177
                       0.24978                       0.00016                      -0.02174
                       0.24980                       0.00015                      -0.02171
                       0.24981                       0.00014                      -0.02169
                       0.24982                       0.00014                      -0.02167
                       0.24982                       0.00013                      -0.02166
        </DataArray>
        <DataArray type="Float32" Name="TranslationalAcceleration" NumberOfComponents="3" format="ascii">
                      -0.06717                       0.08950                      -0.03964
                      -0.02312                       0.10748                      -0.04263
                      -0.05765                       0.30928                      -0.11618
                      -0.07969                       0.49647                      -0.17964
                      -0.09568                       0.71615                      -0.25052
                      -0.10563                       0.96262                      -0.33709
                      -0.11189                       1.19950                      -0.42779
                      -0.11798                       1.43591                      -0.51768
                      -0.12622                       1.67498                      -0.60828
                      -0.13739                       1.91771                      -0.69999
                      -0.15114                       2.16354                      -0.79244
                      -0.16647                       2.41091                      -0.88519
                      -0.18214                       2.65800                      -0.97754
                      -0.19708                       2.90332                      -1.06893
                      -0.21087                       3.14635                      -1.15913
                      -0.22187                       3.34781                      -1.23361
                      -0.23112                       3.50915                      -1.29377
                      -0.24216                       3.67117                      -1.35796
                      -0.24838                       3.75437                      -1.38813
        </DataArray>
        <DataArray type="Float32" Name="OrientationX" NumberOfComponents="3" format="ascii">
                       0.94929                      -0.08858                      -0.30167
                       0.94929                      -0.08845                      -0.30170
                       0.94930                      -0.08804                      -0.30180
                       0.94931                      -0.08745                      -0.30195
                       0.94932                      -0.08651                      -0.30219
                       0.95884                      -0.07913                      -0.27271
                       0.96510                      -0.07320                      -0.25146
                       0.97014                      -0.06761                      -0.23293
                       0.97504                      -0.06162                      -0.21331
                       0.97962                      -0.05532                      -0.19308
                       0.98353                      -0.04908                      -0.17398
                       0.98699                      -0.04272                      -0.15503
                       0.98977                      -0.03663                      -0.13792
                       0.99164                      -0.03139                      -0.12514
                       0.99330                      -0.02630                      -0.11251
                       0.99455                      -0.02224                      -0.10187
                       0.99539                      -0.01933                      -0.09390
                       0.99581                      -0.01746                      -0.08973
                       0.99581                      -0.01710                      -0.08984
        </DataArray>
        <DataArray type="Float32" Name="OrientationY" NumberOfComponents="3" format="ascii">
                       0.31338                       0.18900                       0.93063
                       0.31338                       0.18884                       0.93066
                       0.31338                       0.18841                       0.93075
                       0.31338                       0.18787                       0.93086
                       0.31341                       0.18711                       0.93100
                       0.28303                       0.18878                       0.94035
                       0.26100                       0.18955                       0.94655
                       0.24171                       0.19004                       0.95156
                       0.22127                       0.19058                       0.95641
                       0.20019                       0.19113                       0.96093
                       0.18022                       0.19159                       0.96479
                       0.16039                       0.19201                       0.96820
                       0.14242                       0.19232                       0.97094
                       0.12886                       0.19244                       0.97281
                       0.11548                       0.19255                       0.97447
                       0.10424                       0.19264                       0.97572
                       0.09586                       0.19271                       0.97656
                       0.09141                       0.19272                       0.97699
                       0.09145                       0.19271                       0.97698
        </DataArray>
        <DataArray type="Float32" Name="OrientationZ" NumberOfComponents="3" format="ascii">
                      -0.02542                      -0.97797                       0.20718
                      -0.02535                      -0.97802                       0.20698
                      -0.02509                      -0.97814                       0.20645
                      -0.02468                      -0.97829                       0.20575
                      -0.02399                      -0.97852                       0.20474
                      -0.02293                      -0.97883                       0.20341
                      -0.02162                      -0.97914                       0.20204
                      -0.02007                      -0.97945                       0.20071
                      -0.01828                      -0.97974                       0.19945
                      -0.01626                      -0.98000                       0.19831
                      -0.01402                      -0.98025                       0.19728
                      -0.01159                      -0.98046                       0.19637
                      -0.00904                      -0.98065                       0.19557
                      -0.00646                      -0.98081                       0.19488
                      -0.00397                      -0.98093                       0.19430
                      -0.00207                      -0.98102                       0.19391
                      -0.00078                      -0.98107                       0.19367
                       0.00023                      -0.98110                       0.19351
                       0.00061                      -0.98111                       0.19347
        </DataArray>
        <DataArray type="Float32" Name="Force" NumberOfComponents="3" format="ascii">
                      87.61454                      -0.88837                       6.55578
                     158.20908                      -1.98351                       9.97982
                     175.06038                      -0.12289                      20.56703
                     135.09948                       1.50587                      23.13087
                     932.61293                    -108.21389                    -404.01755
                     872.73047                     -90.21986                    -331.01722
                     902.67349                     -87.22354                    -319.99059
                     789.34834                     -69.50175                    -254.30560
                     702.35281                     -54.10855                    -196.25486
                     709.40212                     -49.81848                    -182.74467
                     658.89876                     -38.58314                    -140.81627
                     659.89761                     -34.05872                    -127.37646
                     566.70332                     -23.84732                     -90.98662
                     558.13801                     -20.51327                     -82.68840
                     544.45329                     -17.02572                     -73.21864
                     529.84459                     -14.31662                     -65.50664
                     500.22172                     -12.02752                     -57.95852
                     354.99762                      -7.90626                     -39.91211
                     337.58200                     -14.27387                     -70.84228
        </DataArray>
        <DataArray type="Float32" Name="Moment" NumberOfComponents="3" format="ascii">
                       0.00000                       0.00000                       0.00000
                       0.00000                       0.00000                       0.00000
                       0.00000                       0.00000                       0.00000
                       0.00000                       0.00000                       0.00000
                      15.50044                     637.25025                    -134.90359
                      15.48610                     669.73339                    -141.70883
                      13.77573                     635.79852                    -134.44648
                      12.23268                     612.51281                    -129.43038
                      10.21081                     565.96598                    -119.49771
                       8.28684                     521.67849                    -110.04713
                       5.83081                     431.30081                     -90.89165
                       4.33244                     394.65063                     -83.07913
                       2.93851                     353.19327                     -74.26857
                       1.77500                     314.96188                     -66.15442
                       0.84502                     276.54036                     -58.02113
                       0.26987                     244.85897                     -51.33162
                      -0.04794                     206.90025                     -43.34958
                      -0.12614                      98.98378                     -20.72985
                      -0.11606                      69.96432                     -14.65002
        </DataArray>
      </PointData>
      <Lines>
        <DataArray type="Int32" Name="connectivity" format="ascii">
      0      1
      1      2
      2      3
      3      4
      4      5
      5      6
      6      7
      7      8
      8      9
      9     10
     10     11
     11     12
     12     13
     13     14
     14     15
     15     16
     16     17
     17     18
        </DataArray>
        <DataArray type="Int32" Name="offsets" format="ascii">
      2
      4
      6
      8
     10
     12
     14
     16
     18
     20
     22
     24
     26
     28
     30
     32
     34
     36
        </DataArray>
      </Lines>
    </Piece>
  </PolyData>
</VTKFile>
