<?xml version="1.0"?>
<VTKFile type="PolyData" version="0.1" byte_order="LittleEndian">
  <PolyData>
    <Piece NumberOfPoints="     19" NumberOfVerts="  0" NumberOfLines="     18"
           NumberOfStrips="  0" NumberOfPolys="      0">
      <Points>
        <DataArray type="Float32" NumberOfComponents="3" format="ascii">
                      -4.89169                       0.20808                      91.48741
                      -4.83303                       0.39470                      92.84003
                      -4.73641                       0.67420                      95.55924
                      -4.64902                       0.90944                      98.28512
                      -4.54438                       1.17723                     101.69651
                      -4.36522                       1.64098                     105.76774
                      -4.16022                       2.23400                     109.81957
                      -3.95336                       2.82988                     113.87088
                      -3.74149                       3.43030                     117.92126
                      -3.52467                       4.03330                     121.97098
                      -3.30350                       4.63513                     126.02061
                      -3.07665                       5.23720                     130.06986
                      -2.84428                       5.83946                     134.11876
                      -2.60677                       6.44184                     138.16733
                      -2.36223                       7.04422                     142.21549
                      -2.15294                       7.54625                     145.58865
                      -1.98244                       7.95574                     148.28583
                      -1.81063                       8.41981                     150.97523
                      -1.72387                       8.61062                     152.32565
        </DataArray>
      </Points>
      <PointData>
        <DataArray type="Float32" Name="TranslationalVelocity" NumberOfComponents="3" format="ascii">
                       0.04609                      -0.26982                       0.04137
                       0.05007                      -0.51586                       0.07514
                       0.05661                      -1.01034                       0.12573
                       0.06256                      -1.50619                       0.16832
                       0.06982                      -2.12718                       0.21680
                       0.08123                      -2.86995                       0.30081
                       0.09530                      -3.61049                       0.40837
                       0.11012                      -4.35185                       0.51656
                       0.12582                      -5.09394                       0.62566
                       0.14244                      -5.83671                       0.73530
                       0.15997                      -6.58015                       0.84477
                       0.17846                      -7.32412                       0.95431
                       0.19789                      -8.06849                       1.06389
                       0.21822                      -8.81318                       1.17347
                       0.23938                      -9.55811                       1.28302
                       0.25757                     -10.17906                       1.37430
                       0.27252                     -10.67570                       1.44875
                       0.28854                     -11.17102                       1.53318
                       0.29594                     -11.41979                       1.56785
        </DataArray>
        <DataArray type="Float32" Name="RotationalVelocity" NumberOfComponents="3" format="ascii">
                       0.18117                       0.00073                      -0.01598
                       0.18120                       0.00074                      -0.01598
                       0.18130                       0.00077                      -0.01599
                       0.18141                       0.00082                      -0.01600
                       0.18158                       0.00091                      -0.01602
                       0.18180                       0.00104                      -0.01605
                       0.18201                       0.00119                      -0.01609
                       0.18221                       0.00137                      -0.01613
                       0.18240                       0.00157                      -0.01617
                       0.18256                       0.00178                      -0.01621
                       0.18269                       0.00201                      -0.01626
                       0.18280                       0.00224                      -0.01631
                       0.18289                       0.00246                      -0.01635
                       0.18295                       0.00267                      -0.01639
                       0.18301                       0.00286                      -0.01642
                       0.18304                       0.00299                      -0.01645
                       0.18306                       0.00306                      -0.01646
                       0.18307                       0.00310                      -0.01646
                       0.18308                       0.00311                      -0.01646
        </DataArray>
        <DataArray type="Float32" Name="TranslationalAcceleration" NumberOfComponents="3" format="ascii">
                       0.01531                      -0.02346                      -0.04553
                       0.00124                      -0.02543                      -0.05647
                       0.00112                      -0.06990                      -0.16284
                      -0.00181                      -0.10855                      -0.26212
                      -0.00797                      -0.15213                      -0.37922
                      -0.01715                      -0.20502                      -0.51073
                      -0.02675                      -0.26018                      -0.63709
                      -0.03587                      -0.31502                      -0.76340
                      -0.04393                      -0.37041                      -0.89133
                      -0.05066                      -0.42656                      -1.02139
                      -0.05610                      -0.48324                      -1.15327
                      -0.06045                      -0.54014                      -1.28612
                      -0.06400                      -0.59682                      -1.41896
                      -0.06708                      -0.65291                      -1.55101
                      -0.06991                      -0.70826                      -1.68198
                      -0.07212                      -0.75393                      -1.79064
                      -0.07374                      -0.79077                      -1.87769
                      -0.07502                      -0.82986                      -1.96503
                      -0.07555                      -0.84838                      -2.00992
        </DataArray>
        <DataArray type="Float32" Name="OrientationX" NumberOfComponents="3" format="ascii">
                       0.97497                      -0.22204                      -0.01161
                       0.97497                      -0.22205                      -0.01168
                       0.97496                      -0.22208                      -0.01187
                       0.97494                      -0.22213                      -0.01216
                       0.97491                      -0.22223                      -0.01262
                       0.98133                      -0.19148                      -0.01798
                       0.98532                      -0.16928                      -0.02220
                       0.98835                      -0.14991                      -0.02615
                       0.99112                      -0.12942                      -0.03043
                       0.99350                      -0.10834                      -0.03497
                       0.99530                      -0.08845                      -0.03950
                       0.99666                      -0.06877                      -0.04415
                       0.99751                      -0.05101                      -0.04863
                       0.99791                      -0.03771                      -0.05252
                       0.99811                      -0.02463                      -0.05634
                       0.99814                      -0.01366                      -0.05941
                       0.99808                      -0.00549                      -0.06162
                       0.99801                      -0.00122                      -0.06307
                       0.99799                      -0.00134                      -0.06339
        </DataArray>
        <DataArray type="Float32" Name="OrientationY" NumberOfComponents="3" format="ascii">
                       0.21805                       0.96508                      -0.14520
                       0.21805                       0.96507                      -0.14524
                       0.21806                       0.96505                      -0.14535
                       0.21806                       0.96503                      -0.14549
                       0.21808                       0.96500                      -0.14569
                       0.18691                       0.97155                      -0.14545
                       0.16435                       0.97565                      -0.14524
                       0.14462                       0.97881                      -0.14499
                       0.12375                       0.98172                      -0.14460
                       0.10226                       0.98427                      -0.14407
                       0.08196                       0.98626                      -0.14347
                       0.06184                       0.98783                      -0.14274
                       0.04365                       0.98891                      -0.14199
                       0.02995                       0.98950                      -0.14137
                       0.01648                       0.98992                      -0.14068
                       0.00521                       0.99013                      -0.14006
                      -0.00317                       0.99021                      -0.13958
                      -0.00759                       0.99022                      -0.13933
                      -0.00752                       0.99021                      -0.13935
        </DataArray>
        <DataArray type="Float32" Name="OrientationZ" NumberOfComponents="3" format="ascii">
                       0.04345                       0.13903                       0.98933
                       0.04352                       0.13906                       0.98933
                       0.04374                       0.13912                       0.98931
                       0.04405                       0.13919                       0.98929
                       0.04456                       0.13928                       0.98925
                       0.04532                       0.13938                       0.98920
                       0.04624                       0.13946                       0.98915
                       0.04733                       0.13952                       0.98909
                       0.04859                       0.13955                       0.98902
                       0.05003                       0.13956                       0.98895
                       0.05165                       0.13955                       0.98887
                       0.05342                       0.13954                       0.98877
                       0.05533                       0.13952                       0.98867
                       0.05730                       0.13950                       0.98856
                       0.05923                       0.13949                       0.98845
                       0.06073                       0.13949                       0.98836
                       0.06178                       0.13951                       0.98829
                       0.06263                       0.13953                       0.98824
                       0.06295                       0.13955                       0.98821
        </DataArray>
        <DataArray type="Float32" Name="Force" NumberOfComponents="3" format="ascii">
                     155.63099                       2.57206                      -7.19625
                     156.55151                       5.78424                      -7.69936
                     172.56166                      13.36763                      -9.50778
                     132.48112                      15.57810                      -8.08869
                     853.60335                    -286.11593                       1.76310
                     809.44976                    -229.14646                      -4.87728
                     823.95233                    -213.61448                      -8.49337
                     725.97876                    -166.10015                     -11.38965
                     651.52634                    -123.06814                     -14.70650
                     643.09656                    -107.42204                     -17.42851
                     597.46627                     -74.85460                     -20.67756
                     586.13731                     -61.84601                     -22.97137
                     508.47625                     -38.78537                     -23.00029
                     489.77016                     -30.22978                     -24.13417
                     468.89217                     -22.53742                     -24.92695
                     449.49100                     -16.64223                     -25.27771
                     419.60298                     -12.17523                     -24.51668
                     294.65493                      -7.19583                     -17.66015
                     298.87270                      -7.19805                     -18.02604
        </DataArray>
        <DataArray type="Float32" Name="Moment" NumberOfComponents="3" format="ascii">
                       0.00000                       0.00000                       0.00000
                       0.00000                       0.00000                       0.00000
                       0.00000                       0.00000                       0.00000
                       0.00000                       0.00000                       0.00000
                     -31.23340                     -97.45525                    -693.41705
                     -33.06857                    -101.45023                    -721.79334
                     -31.71022                     -95.34346                    -678.28946
                     -30.75005                     -90.33614                    -642.60437
                     -28.76060                     -82.30431                    -585.40438
                     -26.84563                     -74.61797                    -530.66590
                     -22.82163                     -61.45077                    -436.96089
                     -21.24175                     -55.29569                    -393.13141
                     -19.37984                     -48.71534                    -346.28892
                     -17.60235                     -42.73048                    -303.69281
                     -15.73927                     -36.96164                    -262.64740
                     -14.11489                     -32.33034                    -229.70702
                     -12.02231                     -27.07057                    -192.31838
                      -5.78579                     -12.85196                     -91.29775
                      -5.87829                     -12.98995                     -92.27529
        </DataArray>
      </PointData>
      <Lines>
        <DataArray type="Int32" Name="connectivity" format="ascii">
      0      1
      1      2
      2      3
      3      4
      4      5
      5      6
      6      7
      7      8
      8      9
      9     10
     10     11
     11     12
     12     13
     13     14
     14     15
     15     16
     16     17
     17     18
        </DataArray>
        <DataArray type="Int32" Name="offsets" format="ascii">
      2
      4
      6
      8
     10
     12
     14
     16
     18
     20
     22
     24
     26
     28
     30
     32
     34
     36
        </DataArray>
      </Lines>
    </Piece>
  </PolyData>
</VTKFile>
