<?xml version="1.0"?>
<VTKFile type="PolyData" version="0.1" byte_order="LittleEndian">
  <PolyData>
    <Piece NumberOfPoints="     22" NumberOfVerts="  0" NumberOfLines="     21"
           NumberOfStrips="  0" NumberOfPolys="      0">
      <Points>
        <DataArray type="Float32" NumberOfComponents="3" format="ascii">
                       0.00002                      -0.00000                       2.19000
                       0.00019                      -0.00001                       6.57000
                       0.00055                      -0.00001                      10.95000
                       0.00111                      -0.00003                      15.33000
                       0.00188                      -0.00004                      19.71000
                       0.00283                      -0.00007                      24.09000
                       0.00396                      -0.00009                      28.47000
                       0.00525                      -0.00012                      32.85000
                       0.00668                      -0.00016                      37.23000
                       0.00824                      -0.00020                      41.61000
                       0.00993                      -0.00025                      45.99000
                       0.01173                      -0.00031                      50.37000
                       0.01366                      -0.00037                      54.75000
                       0.01571                      -0.00045                      59.13000
                       0.01787                      -0.00053                      63.51000
                       0.02015                      -0.00062                      67.89000
                       0.02252                      -0.00072                      72.27000
                       0.02495                      -0.00082                      76.64999
                       0.02738                      -0.00093                      81.02999
                       0.02972                      -0.00105                      85.40999
                       0.03082                      -0.00110                      87.59999
                       0.00000                       0.00000                       0.00000
        </DataArray>
      </Points>
      <PointData>
        <DataArray type="Float32" Name="TranslationalVelocity" NumberOfComponents="3" format="ascii">
                      -0.00000                       0.00000                       0.00000
                      -0.00000                       0.00001                       0.00000
                      -0.00000                       0.00002                       0.00000
                      -0.00001                       0.00005                       0.00000
                      -0.00002                       0.00007                       0.00000
                      -0.00003                       0.00011                       0.00000
                      -0.00005                       0.00014                       0.00000
                      -0.00007                       0.00019                       0.00000
                      -0.00009                       0.00024                       0.00000
                      -0.00012                       0.00030                       0.00000
                      -0.00016                       0.00036                       0.00000
                      -0.00020                       0.00043                       0.00000
                      -0.00025                       0.00051                       0.00000
                      -0.00031                       0.00059                       0.00000
                      -0.00037                       0.00068                       0.00000
                      -0.00045                       0.00078                       0.00000
                      -0.00053                       0.00088                       0.00000
                      -0.00062                       0.00098                       0.00000
                      -0.00072                       0.00109                       0.00000
                      -0.00081                       0.00120                       0.00000
                      -0.00086                       0.00126                       0.00000
                       0.00000                      -0.00000                       0.00000
        </DataArray>
        <DataArray type="Float32" Name="RotationalVelocity" NumberOfComponents="3" format="ascii">
                      -0.00000                      -0.00000                       0.00000
                      -0.00000                      -0.00000                       0.00000
                      -0.00000                      -0.00000                       0.00000
                      -0.00001                      -0.00000                       0.00000
                      -0.00001                      -0.00000                       0.00000
                      -0.00001                      -0.00000                       0.00000
                      -0.00001                      -0.00000                       0.00000
                      -0.00001                      -0.00000                       0.00000
                      -0.00001                      -0.00001                       0.00000
                      -0.00001                      -0.00001                       0.00000
                      -0.00002                      -0.00001                       0.00000
                      -0.00002                      -0.00001                       0.00000
                      -0.00002                      -0.00001                       0.00000
                      -0.00002                      -0.00001                       0.00000
                      -0.00002                      -0.00002                       0.00000
                      -0.00002                      -0.00002                       0.00000
                      -0.00002                      -0.00002                       0.00000
                      -0.00002                      -0.00002                       0.00000
                      -0.00003                      -0.00002                       0.00000
                      -0.00003                      -0.00002                       0.00000
                      -0.00003                      -0.00002                       0.00000
                       0.00000                      -0.00000                       0.00000
        </DataArray>
        <DataArray type="Float32" Name="TranslationalAcceleration" NumberOfComponents="3" format="ascii">
                       0.00004                       0.00000                      -0.00000
                       0.00038                       0.00000                      -0.00000
                       0.00113                       0.00001                      -0.00000
                       0.00232                       0.00001                      -0.00000
                       0.00395                       0.00002                      -0.00000
                       0.00601                       0.00003                      -0.00000
                       0.00846                       0.00004                      -0.00000
                       0.01130                       0.00005                      -0.00000
                       0.01450                       0.00006                      -0.00000
                       0.01806                       0.00007                      -0.00000
                       0.02197                       0.00008                      -0.00001
                       0.02624                       0.00010                      -0.00001
                       0.03089                       0.00011                      -0.00001
                       0.03593                       0.00012                      -0.00001
                       0.04136                       0.00013                      -0.00002
                       0.04717                       0.00014                      -0.00002
                       0.05332                       0.00016                      -0.00002
                       0.05971                       0.00017                      -0.00003
                       0.06619                       0.00017                      -0.00003
                       0.07254                       0.00018                      -0.00003
                       0.07556                       0.00019                      -0.00003
                       0.00000                      -0.00000                       0.00000
        </DataArray>
        <DataArray type="Float32" Name="RotationalAcceleration" NumberOfComponents="3" format="ascii">
                      -0.00000                       0.00004                       0.00000
                      -0.00000                       0.00012                       0.00000
                      -0.00000                       0.00022                       0.00000
                      -0.00000                       0.00032                       0.00000
                      -0.00000                       0.00042                       0.00000
                      -0.00000                       0.00052                       0.00000
                      -0.00000                       0.00061                       0.00000
                      -0.00000                       0.00069                       0.00000
                      -0.00000                       0.00077                       0.00000
                      -0.00000                       0.00085                       0.00000
                      -0.00000                       0.00093                       0.00000
                      -0.00000                       0.00102                       0.00000
                      -0.00000                       0.00111                       0.00000
                      -0.00000                       0.00120                       0.00000
                      -0.00000                       0.00128                       0.00000
                      -0.00000                       0.00137                       0.00000
                      -0.00000                       0.00144                       0.00000
                      -0.00000                       0.00148                       0.00000
                      -0.00000                       0.00148                       0.00000
                      -0.00000                       0.00141                       0.00000
                      -0.00000                       0.00135                       0.00000
                       0.00000                      -0.00000                       0.00000
        </DataArray>
        <DataArray type="Float32" Name="OrientationX" NumberOfComponents="3" format="ascii">
                       1.00000                       0.00000                      -0.00002
                       1.00000                       0.00000                      -0.00006
                       1.00000                       0.00000                      -0.00011
                       1.00000                       0.00000                      -0.00015
                       1.00000                       0.00000                      -0.00020
                       1.00000                       0.00000                      -0.00024
                       1.00000                       0.00000                      -0.00028
                       1.00000                       0.00000                      -0.00031
                       1.00000                       0.00000                      -0.00034
                       1.00000                       0.00000                      -0.00037
                       1.00000                       0.00000                      -0.00040
                       1.00000                       0.00000                      -0.00043
                       1.00000                       0.00000                      -0.00045
                       1.00000                       0.00000                      -0.00048
                       1.00000                       0.00000                      -0.00051
                       1.00000                       0.00000                      -0.00053
                       1.00000                       0.00000                      -0.00055
                       1.00000                       0.00000                      -0.00056
                       1.00000                       0.00000                      -0.00055
                       1.00000                       0.00000                      -0.00052
                       1.00000                       0.00000                      -0.00049
                       1.00000                      -0.00000                       0.00000
        </DataArray>
        <DataArray type="Float32" Name="OrientationY" NumberOfComponents="3" format="ascii">
                       0.00000                       1.00000                       0.00000
                       0.00000                       1.00000                       0.00000
                       0.00000                       1.00000                       0.00000
                       0.00000                       1.00000                       0.00000
                       0.00000                       1.00000                       0.00000
                       0.00000                       1.00000                       0.00001
                       0.00000                       1.00000                       0.00001
                       0.00000                       1.00000                       0.00001
                       0.00000                       1.00000                       0.00001
                       0.00000                       1.00000                       0.00001
                       0.00000                       1.00000                       0.00001
                       0.00000                       1.00000                       0.00001
                       0.00000                       1.00000                       0.00002
                       0.00000                       1.00000                       0.00002
                       0.00000                       1.00000                       0.00002
                       0.00000                       1.00000                       0.00002
                       0.00000                       1.00000                       0.00002
                       0.00000                       1.00000                       0.00002
                       0.00000                       1.00000                       0.00003
                       0.00000                       1.00000                       0.00003
                       0.00000                       1.00000                       0.00003
                      -0.00000                       1.00000                      -0.00000
        </DataArray>
        <DataArray type="Float32" Name="OrientationZ" NumberOfComponents="3" format="ascii">
                       0.00002                      -0.00000                       1.00000
                       0.00006                      -0.00000                       1.00000
                       0.00011                      -0.00000                       1.00000
                       0.00015                      -0.00000                       1.00000
                       0.00020                      -0.00000                       1.00000
                       0.00024                      -0.00001                       1.00000
                       0.00028                      -0.00001                       1.00000
                       0.00031                      -0.00001                       1.00000
                       0.00034                      -0.00001                       1.00000
                       0.00037                      -0.00001                       1.00000
                       0.00040                      -0.00001                       1.00000
                       0.00043                      -0.00001                       1.00000
                       0.00045                      -0.00002                       1.00000
                       0.00048                      -0.00002                       1.00000
                       0.00051                      -0.00002                       1.00000
                       0.00053                      -0.00002                       1.00000
                       0.00055                      -0.00002                       1.00000
                       0.00056                      -0.00002                       1.00000
                       0.00055                      -0.00003                       1.00000
                       0.00052                      -0.00003                       1.00000
                       0.00049                      -0.00003                       1.00000
                       0.00000                      -0.00000                       1.00000
        </DataArray>
      </PointData>
      <Lines>
        <DataArray type="Int32" Name="connectivity" format="ascii">
      0      1
      1      2
      2      3
      3      4
      4      5
      5      6
      6      7
      7      8
      8      9
      9     10
     10     11
     11     12
     12     13
     13     14
     14     15
     15     16
     16     17
     17     18
     18     19
     19     20
     21      0
        </DataArray>
        <DataArray type="Int32" Name="offsets" format="ascii">
      2
      4
      6
      8
     10
     12
     14
     16
     18
     20
     22
     24
     26
     28
     30
     32
     34
     36
     38
     40
     42
        </DataArray>
      </Lines>
    </Piece>
  </PolyData>
</VTKFile>
