<?xml version="1.0"?>
<VTKFile type="PolyData" version="0.1" byte_order="LittleEndian">
  <PolyData>
    <Piece NumberOfPoints="     22" NumberOfVerts="  0" NumberOfLines="     21"
           NumberOfStrips="  0" NumberOfPolys="      0">
      <Points>
        <DataArray type="Float32" NumberOfComponents="3" format="ascii">
                       0.00007                       0.00000                       2.19000
                       0.00068                       0.00000                       6.57000
                       0.00202                       0.00001                      10.95000
                       0.00416                       0.00001                      15.33000
                       0.00709                       0.00001                      19.71000
                       0.01080                       0.00001                      24.09000
                       0.01524                       0.00000                      28.46999
                       0.02038                      -0.00001                      32.84999
                       0.02620                      -0.00003                      37.22999
                       0.03269                      -0.00006                      41.60998
                       0.03986                      -0.00011                      45.98998
                       0.04772                      -0.00018                      50.36997
                       0.05631                      -0.00027                      54.74996
                       0.06566                      -0.00037                      59.12995
                       0.07577                      -0.00050                      63.50994
                       0.08663                      -0.00066                      67.88993
                       0.09814                      -0.00084                      72.26991
                       0.11014                      -0.00104                      76.64989
                       0.12234                      -0.00126                      81.02988
                       0.13433                      -0.00150                      85.40986
                       0.14005                      -0.00163                      87.59985
                       0.00000                       0.00000                       0.00000
        </DataArray>
      </Points>
      <PointData>
        <DataArray type="Float32" Name="TranslationalVelocity" NumberOfComponents="3" format="ascii">
                       0.00003                      -0.00000                      -0.00000
                       0.00026                      -0.00003                      -0.00000
                       0.00076                      -0.00007                      -0.00000
                       0.00156                      -0.00013                      -0.00000
                       0.00264                      -0.00020                      -0.00000
                       0.00399                      -0.00030                      -0.00000
                       0.00560                      -0.00040                      -0.00000
                       0.00743                      -0.00053                      -0.00001
                       0.00949                      -0.00067                      -0.00001
                       0.01174                      -0.00083                      -0.00001
                       0.01419                      -0.00101                      -0.00002
                       0.01684                      -0.00121                      -0.00002
                       0.01968                      -0.00143                      -0.00003
                       0.02272                      -0.00167                      -0.00003
                       0.02597                      -0.00193                      -0.00004
                       0.02940                      -0.00220                      -0.00005
                       0.03299                      -0.00249                      -0.00006
                       0.03670                      -0.00280                      -0.00007
                       0.04042                      -0.00311                      -0.00008
                       0.04404                      -0.00343                      -0.00009
                       0.04575                      -0.00360                      -0.00009
                       0.00000                      -0.00000                       0.00000
        </DataArray>
        <DataArray type="Float32" Name="RotationalVelocity" NumberOfComponents="3" format="ascii">
                       0.00000                       0.00002                       0.00000
                       0.00001                       0.00008                       0.00000
                       0.00001                       0.00015                       0.00000
                       0.00002                       0.00021                       0.00000
                       0.00002                       0.00028                       0.00000
                       0.00002                       0.00034                       0.00000
                       0.00003                       0.00039                       0.00000
                       0.00003                       0.00044                       0.00000
                       0.00003                       0.00049                       0.00000
                       0.00004                       0.00054                       0.00000
                       0.00004                       0.00058                       0.00000
                       0.00005                       0.00063                       0.00000
                       0.00005                       0.00067                       0.00000
                       0.00006                       0.00072                       0.00000
                       0.00006                       0.00076                       0.00000
                       0.00006                       0.00080                       0.00000
                       0.00007                       0.00084                       0.00000
                       0.00007                       0.00085                       0.00000
                       0.00007                       0.00084                       0.00000
                       0.00007                       0.00080                       0.00000
                       0.00008                       0.00076                       0.00000
                       0.00000                      -0.00000                       0.00000
        </DataArray>
        <DataArray type="Float32" Name="TranslationalAcceleration" NumberOfComponents="3" format="ascii">
                       0.00002                      -0.00001                      -0.00000
                       0.00018                      -0.00008                      -0.00000
                       0.00049                      -0.00020                      -0.00000
                       0.00095                      -0.00038                      -0.00000
                       0.00152                      -0.00060                      -0.00000
                       0.00216                      -0.00087                      -0.00000
                       0.00284                      -0.00119                      -0.00000
                       0.00350                      -0.00155                      -0.00001
                       0.00409                      -0.00195                      -0.00001
                       0.00455                      -0.00241                      -0.00001
                       0.00483                      -0.00291                      -0.00001
                       0.00488                      -0.00346                      -0.00001
                       0.00466                      -0.00406                      -0.00001
                       0.00413                      -0.00471                      -0.00001
                       0.00326                      -0.00539                      -0.00001
                       0.00204                      -0.00612                      -0.00001
                       0.00049                      -0.00688                      -0.00001
                      -0.00139                      -0.00767                      -0.00001
                      -0.00354                      -0.00848                      -0.00001
                      -0.00589                      -0.00931                      -0.00001
                      -0.00712                      -0.00973                      -0.00000
                       0.00000                      -0.00000                       0.00000
        </DataArray>
        <DataArray type="Float32" Name="RotationalAcceleration" NumberOfComponents="3" format="ascii">
                       0.00001                       0.00002                       0.00000
                       0.00002                       0.00005                       0.00000
                       0.00003                       0.00009                       0.00000
                       0.00005                       0.00012                       0.00000
                       0.00006                       0.00014                       0.00000
                       0.00007                       0.00015                       0.00000
                       0.00008                       0.00015                       0.00000
                       0.00009                       0.00014                       0.00000
                       0.00010                       0.00012                       0.00000
                       0.00011                       0.00009                       0.00000
                       0.00012                       0.00004                       0.00000
                       0.00013                      -0.00002                       0.00000
                       0.00014                      -0.00009                       0.00000
                       0.00015                      -0.00016                       0.00000
                       0.00016                      -0.00024                       0.00000
                       0.00017                      -0.00032                       0.00000
                       0.00018                      -0.00039                       0.00000
                       0.00018                      -0.00046                       0.00000
                       0.00019                      -0.00052                       0.00000
                       0.00019                      -0.00055                       0.00000
                       0.00019                      -0.00056                       0.00000
                       0.00000                      -0.00000                       0.00000
        </DataArray>
        <DataArray type="Float32" Name="OrientationX" NumberOfComponents="3" format="ascii">
                       1.00000                      -0.00000                      -0.00006
                       1.00000                      -0.00000                      -0.00022
                       1.00000                      -0.00000                      -0.00040
                       1.00000                      -0.00000                      -0.00058
                       1.00000                      -0.00000                      -0.00076
                       1.00000                       0.00000                      -0.00093
                       1.00000                       0.00000                      -0.00110
                       1.00000                       0.00000                      -0.00125
                       1.00000                       0.00000                      -0.00141
                       1.00000                       0.00000                      -0.00156
                       1.00000                       0.00000                      -0.00171
                       1.00000                       0.00000                      -0.00188
                       1.00000                       0.00000                      -0.00205
                       1.00000                       0.00000                      -0.00222
                       1.00000                       0.00000                      -0.00240
                       1.00000                       0.00000                      -0.00256
                       1.00000                       0.00000                      -0.00269
                       1.00000                       0.00000                      -0.00278
                       1.00000                       0.00000                      -0.00278
                       1.00000                       0.00000                      -0.00267
                       1.00000                       0.00000                      -0.00255
                       1.00000                      -0.00000                       0.00000
        </DataArray>
        <DataArray type="Float32" Name="OrientationY" NumberOfComponents="3" format="ascii">
                      -0.00000                       1.00000                      -0.00000
                      -0.00000                       1.00000                      -0.00000
                      -0.00000                       1.00000                      -0.00000
                      -0.00000                       1.00000                      -0.00000
                      -0.00000                       1.00000                      -0.00000
                       0.00000                       1.00000                       0.00000
                       0.00000                       1.00000                       0.00000
                       0.00000                       1.00000                       0.00000
                       0.00000                       1.00000                       0.00001
                       0.00000                       1.00000                       0.00001
                       0.00000                       1.00000                       0.00001
                       0.00000                       1.00000                       0.00002
                       0.00000                       1.00000                       0.00002
                       0.00000                       1.00000                       0.00003
                       0.00000                       1.00000                       0.00003
                       0.00000                       1.00000                       0.00004
                       0.00000                       1.00000                       0.00004
                       0.00000                       1.00000                       0.00005
                       0.00000                       1.00000                       0.00005
                       0.00000                       1.00000                       0.00006
                       0.00000                       1.00000                       0.00006
                      -0.00000                       1.00000                      -0.00000
        </DataArray>
        <DataArray type="Float32" Name="OrientationZ" NumberOfComponents="3" format="ascii">
                       0.00006                       0.00000                       1.00000
                       0.00022                       0.00000                       1.00000
                       0.00040                       0.00000                       1.00000
                       0.00058                       0.00000                       1.00000
                       0.00076                       0.00000                       1.00000
                       0.00093                      -0.00000                       1.00000
                       0.00110                      -0.00000                       1.00000
                       0.00125                      -0.00000                       1.00000
                       0.00141                      -0.00001                       1.00000
                       0.00156                      -0.00001                       1.00000
                       0.00171                      -0.00001                       1.00000
                       0.00188                      -0.00002                       1.00000
                       0.00205                      -0.00002                       1.00000
                       0.00222                      -0.00003                       1.00000
                       0.00240                      -0.00003                       1.00000
                       0.00256                      -0.00004                       1.00000
                       0.00269                      -0.00004                       1.00000
                       0.00278                      -0.00005                       1.00000
                       0.00278                      -0.00005                       1.00000
                       0.00267                      -0.00006                       1.00000
                       0.00255                      -0.00006                       1.00000
                       0.00000                      -0.00000                       1.00000
        </DataArray>
      </PointData>
      <Lines>
        <DataArray type="Int32" Name="connectivity" format="ascii">
      0      1
      1      2
      2      3
      3      4
      4      5
      5      6
      6      7
      7      8
      8      9
      9     10
     10     11
     11     12
     12     13
     13     14
     14     15
     15     16
     16     17
     17     18
     18     19
     19     20
     21      0
        </DataArray>
        <DataArray type="Int32" Name="offsets" format="ascii">
      2
      4
      6
      8
     10
     12
     14
     16
     18
     20
     22
     24
     26
     28
     30
     32
     34
     36
     38
     40
     42
        </DataArray>
      </Lines>
    </Piece>
  </PolyData>
</VTKFile>
