<?xml version="1.0"?>
<VTKFile type="PolyData" version="0.1" byte_order="LittleEndian">
  <PolyData>
    <Piece NumberOfPoints="     19" NumberOfVerts="  0" NumberOfLines="     18"
           NumberOfStrips="  0" NumberOfPolys="      0">
      <Points>
        <DataArray type="Float32" NumberOfComponents="3" format="ascii">
                      -4.91814                      -0.93178                      91.17891
                      -4.88449                      -1.78295                      92.24766
                      -4.84425                      -3.55936                      94.32716
                      -4.81629                      -5.37146                      96.37864
                      -4.78769                      -7.65883                      98.92540
                      -4.69014                     -10.29533                     102.06514
                      -4.55790                     -12.83348                     105.28188
                      -4.42341                     -15.37236                     108.49799
                      -4.28344                     -17.91049                     111.71455
                      -4.13823                     -20.44912                     114.93055
                      -3.98874                     -22.99079                     118.14400
                      -3.83365                     -25.53401                     121.35599
                      -3.67328                     -28.07845                     124.56679
                      -3.50818                     -30.62383                     127.77664
                      -3.33667                     -33.17003                     130.98555
                      -3.18884                     -35.29242                     133.65901
                      -3.06745                     -36.98446                     135.80229
                      -2.94150                     -38.63393                     137.97966
                      -2.88069                     -39.49122                     139.04218
        </DataArray>
      </Points>
      <PointData>
        <DataArray type="Float32" Name="TranslationalVelocity" NumberOfComponents="3" format="ascii">
                       0.05014                      -0.12275                      -0.09124
                       0.04348                      -0.23362                      -0.17932
                       0.02954                      -0.44918                      -0.36319
                       0.01540                      -0.66185                      -0.55086
                      -0.00219                      -0.92601                      -0.78793
                      -0.02168                      -1.25257                      -1.06159
                      -0.03943                      -1.58783                      -1.32543
                      -0.05624                      -1.92346                      -1.58973
                      -0.07193                      -2.25959                      -1.85431
                      -0.08633                      -2.59609                      -2.11931
                      -0.09932                      -2.93271                      -2.38496
                      -0.11076                      -3.26952                      -2.65110
                      -0.12055                      -3.60649                      -2.91766
                      -0.12863                      -3.94361                      -3.18457
                      -0.13500                      -4.28084                      -3.45181
                      -0.13901                      -4.56193                      -3.67473
                      -0.14140                      -4.78735                      -3.85255
                      -0.14271                      -5.01641                      -4.02601
                      -0.14348                      -5.12819                      -4.11616
        </DataArray>
        <DataArray type="Float32" Name="RotationalVelocity" NumberOfComponents="3" format="ascii">
                       0.10343                       0.00103                      -0.00912
                       0.10345                       0.00104                      -0.00911
                       0.10349                       0.00107                      -0.00909
                       0.10356                       0.00113                      -0.00905
                       0.10365                       0.00122                      -0.00898
                       0.10378                       0.00135                      -0.00889
                       0.10391                       0.00152                      -0.00877
                       0.10404                       0.00172                      -0.00862
                       0.10417                       0.00196                      -0.00846
                       0.10428                       0.00222                      -0.00827
                       0.10439                       0.00252                      -0.00805
                       0.10449                       0.00284                      -0.00782
                       0.10458                       0.00318                      -0.00757
                       0.10465                       0.00352                      -0.00731
                       0.10471                       0.00385                      -0.00706
                       0.10475                       0.00410                      -0.00687
                       0.10478                       0.00427                      -0.00673
                       0.10479                       0.00441                      -0.00663
                       0.10480                       0.00446                      -0.00659
        </DataArray>
        <DataArray type="Float32" Name="TranslationalAcceleration" NumberOfComponents="3" format="ascii">
                      -0.01941                      -0.00131                      -0.02798
                      -0.00911                      -0.00004                      -0.02673
                      -0.02424                       0.00085                      -0.07576
                      -0.03551                       0.00291                      -0.12006
                      -0.04528                       0.00599                      -0.17114
                      -0.05201                       0.00765                      -0.22794
                      -0.05484                       0.00732                      -0.28259
                      -0.05509                       0.00727                      -0.33700
                      -0.05425                       0.00783                      -0.39197
                      -0.05397                       0.00936                      -0.44749
                      -0.05614                       0.01220                      -0.50299
                      -0.06307                       0.01660                      -0.55761
                      -0.07757                       0.02276                      -0.61038
                      -0.10306                       0.03082                      -0.66051
                      -0.14374                       0.04080                      -0.70755
                      -0.19323                       0.05055                      -0.74438
                      -0.24499                       0.05897                      -0.77274
                      -0.30988                       0.06723                      -0.80073
                      -0.34785                       0.07197                      -0.81462
        </DataArray>
        <DataArray type="Float32" Name="OrientationX" NumberOfComponents="3" format="ascii">
                       0.95882                      -0.20673                      -0.19475
                       0.95882                      -0.20668                      -0.19482
                       0.95881                      -0.20650                      -0.19506
                       0.95879                      -0.20625                      -0.19541
                       0.95876                      -0.20585                      -0.19597
                       0.96725                      -0.18109                      -0.17784
                       0.97274                      -0.16290                      -0.16503
                       0.97710                      -0.14682                      -0.15402
                       0.98127                      -0.12976                      -0.14237
                       0.98510                      -0.11212                      -0.13042
                       0.98828                      -0.09532                      -0.11924
                       0.99102                      -0.07858                      -0.10822
                       0.99313                      -0.06327                      -0.09841
                       0.99449                      -0.05145                      -0.09135
                       0.99564                      -0.03983                      -0.08436
                       0.99647                      -0.03019                      -0.07836
                       0.99700                      -0.02307                      -0.07383
                       0.99725                      -0.01916                      -0.07160
                       0.99723                      -0.01904                      -0.07184
        </DataArray>
        <DataArray type="Float32" Name="OrientationY" NumberOfComponents="3" format="ascii">
                       0.28289                       0.75627                       0.58994
                       0.28289                       0.75621                       0.59002
                       0.28291                       0.75603                       0.59024
                       0.28294                       0.75582                       0.59050
                       0.28299                       0.75551                       0.59087
                       0.25235                       0.76128                       0.59730
                       0.23017                       0.76483                       0.60171
                       0.21075                       0.76755                       0.60535
                       0.19018                       0.77013                       0.60887
                       0.16897                       0.77246                       0.61217
                       0.14889                       0.77433                       0.61502
                       0.12896                       0.77588                       0.61756
                       0.11090                       0.77700                       0.61965
                       0.09729                       0.77765                       0.62112
                       0.08387                       0.77816                       0.62245
                       0.07262                       0.77848                       0.62346
                       0.06424                       0.77866                       0.62415
                       0.05980                       0.77872                       0.62451
                       0.05986                       0.77872                       0.62451
        </DataArray>
        <DataArray type="Float32" Name="OrientationZ" NumberOfComponents="3" format="ascii">
                       0.02532                      -0.62074                       0.78361
                       0.02538                      -0.62084                       0.78353
                       0.02559                      -0.62111                       0.78331
                       0.02590                      -0.62145                       0.78302
                       0.02642                      -0.62196                       0.78260
                       0.02722                      -0.62262                       0.78205
                       0.02820                      -0.62330                       0.78148
                       0.02934                      -0.62395                       0.78092
                       0.03064                      -0.62455                       0.78039
                       0.03210                      -0.62509                       0.77989
                       0.03371                      -0.62556                       0.77945
                       0.03544                      -0.62597                       0.77904
                       0.03726                      -0.62631                       0.77869
                       0.03909                      -0.62659                       0.77837
                       0.04085                      -0.62681                       0.77810
                       0.04218                      -0.62695                       0.77792
                       0.04309                      -0.62703                       0.77781
                       0.04379                      -0.62707                       0.77773
                       0.04405                      -0.62708                       0.77771
        </DataArray>
        <DataArray type="Float32" Name="Force" NumberOfComponents="3" format="ascii">
                     155.57732                       4.00394                      -1.85573
                     156.51388                       5.47654                      -0.73262
                     172.36320                       9.20445                       1.65778
                     132.05811                       9.46761                       3.12697
                     814.31770                    -246.94436                    -223.18993
                     757.35265                    -196.44924                    -182.09057
                     753.18997                    -179.94017                    -169.86330
                     658.96986                    -140.17437                    -135.95253
                     588.53116                    -105.60562                    -106.92247
                     569.66213                     -91.53833                     -96.13129
                     528.83462                     -66.93268                     -76.05483
                     507.54677                     -55.34496                     -67.09190
                     442.52197                     -38.04309                     -51.44399
                     417.84223                     -30.71749                     -45.44218
                     391.67047                     -24.06570                     -39.73930
                     368.64860                     -18.99807                     -35.14024
                     339.02431                     -15.00557                     -30.75706
                     234.83202                      -9.46492                     -20.78126
                     236.74843                      -9.52744                     -21.01811
        </DataArray>
        <DataArray type="Float32" Name="Moment" NumberOfComponents="3" format="ascii">
                       0.00000                       0.00000                       0.00000
                       0.00000                       0.00000                       0.00000
                       0.00000                       0.00000                       0.00000
                       0.00000                       0.00000                       0.00000
                     -18.31999                     429.06508                    -541.57236
                     -19.66904                     446.44947                    -563.46168
                     -19.10686                     418.11623                    -527.64193
                     -18.72869                     393.44514                    -496.44216
                     -17.67111                     355.10761                    -448.00087
                     -16.59673                     318.12320                    -401.27407
                     -14.25083                     260.02024                    -327.92375
                     -13.27813                     230.39396                    -290.50324
                     -12.09983                     199.72453                    -251.78025
                     -10.94876                     172.26738                    -217.12156
                      -9.71976                     146.36054                    -184.43238
                      -8.64113                     126.02883                    -158.78796
                      -7.29616                     104.18432                    -131.25185
                      -3.47942                      48.88797                     -61.58436
                      -3.51899                      49.15606                     -61.92026
        </DataArray>
      </PointData>
      <Lines>
        <DataArray type="Int32" Name="connectivity" format="ascii">
      0      1
      1      2
      2      3
      3      4
      4      5
      5      6
      6      7
      7      8
      8      9
      9     10
     10     11
     11     12
     12     13
     13     14
     14     15
     15     16
     16     17
     17     18
        </DataArray>
        <DataArray type="Int32" Name="offsets" format="ascii">
      2
      4
      6
      8
     10
     12
     14
     16
     18
     20
     22
     24
     26
     28
     30
     32
     34
     36
        </DataArray>
      </Lines>
    </Piece>
  </PolyData>
</VTKFile>
