<?xml version="1.0"?>
<VTKFile type="PolyData" version="0.1" byte_order="LittleEndian">
  <PolyData>
    <Piece NumberOfPoints="     19" NumberOfVerts="  0" NumberOfLines="     18"
           NumberOfStrips="  0" NumberOfPolys="      0">
      <Points>
        <DataArray type="Float32" NumberOfComponents="3" format="ascii">
                      -4.88390                       0.25716                      91.48039
                      -4.82565                       0.48884                      92.82603
                      -4.72945                       0.85894                      95.53443
                      -4.64220                       1.18506                      98.25095
                      -4.53737                       1.56668                     101.65150
                      -4.35787                       2.16646                     105.70496
                      -4.15220                       2.89497                     109.73466
                      -3.94373                       3.62641                     113.76366
                      -3.72910                       4.36244                     117.79152
                      -3.50815                       5.10106                     121.81854
                      -3.28121                       5.83853                     125.84540
                      -3.04677                       6.57623                     129.87176
                      -2.80481                       7.31408                     133.89764
                      -2.55557                       8.05199                     137.92305
                      -2.29708                       8.78987                     141.94788
                      -2.07441                       9.40480                     145.30147
                      -1.89217                       9.90456                     147.98263
                      -1.70785                      10.45863                     150.65411
                      -1.61439                      10.69467                     151.99691
        </DataArray>
      </Points>
      <PointData>
        <DataArray type="Float32" Name="TranslationalVelocity" NumberOfComponents="3" format="ascii">
                       0.03439                      -0.40314                       0.07255
                       0.04061                      -0.77065                       0.13556
                       0.05090                      -1.51017                       0.23624
                       0.06027                      -2.25216                       0.32500
                       0.07159                      -3.18169                       0.42888
                       0.08905                      -4.29224                       0.59228
                       0.11024                      -5.39834                       0.79098
                       0.13229                      -6.50570                       0.99071
                       0.15536                      -7.61417                       1.19190
                       0.17950                      -8.72371                       1.39397
                       0.20472                      -9.83435                       1.59585
                       0.23111                     -10.94584                       1.79788
                       0.25872                     -12.05802                       2.00000
                       0.28756                     -13.17074                       2.20215
                       0.31762                     -14.28390                       2.40427
                       0.34359                     -15.21183                       2.57267
                       0.36510                     -15.95396                       2.70953
                       0.38837                     -16.69362                       2.86131
                       0.39917                     -17.06550                       2.92592
        </DataArray>
        <DataArray type="Float32" Name="RotationalVelocity" NumberOfComponents="3" format="ascii">
                       0.27202                       0.00049                      -0.02403
                       0.27207                       0.00049                      -0.02403
                       0.27222                       0.00053                      -0.02404
                       0.27240                       0.00058                      -0.02406
                       0.27266                       0.00067                      -0.02409
                       0.27300                       0.00080                      -0.02414
                       0.27334                       0.00097                      -0.02419
                       0.27366                       0.00117                      -0.02425
                       0.27395                       0.00139                      -0.02432
                       0.27420                       0.00164                      -0.02440
                       0.27442                       0.00190                      -0.02447
                       0.27459                       0.00219                      -0.02455
                       0.27474                       0.00248                      -0.02462
                       0.27486                       0.00278                      -0.02469
                       0.27495                       0.00306                      -0.02474
                       0.27501                       0.00328                      -0.02476
                       0.27505                       0.00344                      -0.02477
                       0.27507                       0.00357                      -0.02476
                       0.27508                       0.00362                      -0.02474
        </DataArray>
        <DataArray type="Float32" Name="TranslationalAcceleration" NumberOfComponents="3" format="ascii">
                       0.01765                      -0.03739                      -0.10450
                      -0.00266                      -0.04316                      -0.12862
                      -0.01103                      -0.11716                      -0.37033
                      -0.02271                      -0.18116                      -0.59493
                      -0.04034                      -0.25329                      -0.85911
                      -0.06375                      -0.34451                      -1.15694
                      -0.08794                      -0.44283                      -1.44430
                      -0.11204                      -0.54145                      -1.73143
                      -0.13538                      -0.64182                      -2.02192
                      -0.15764                      -0.74418                      -2.31693
                      -0.17875                      -0.84804                      -2.61578
                      -0.19879                      -0.95287                      -2.91664
                      -0.21783                      -1.05790                      -3.21738
                      -0.23591                      -1.16246                      -3.51627
                      -0.25284                      -1.26626                      -3.81271
                      -0.26569                      -1.35231                      -4.05867
                      -0.27485                      -1.42195                      -4.25578
                      -0.28246                      -1.49644                      -4.45384
                      -0.28570                      -1.53120                      -4.55546
        </DataArray>
        <DataArray type="Float32" Name="OrientationX" NumberOfComponents="3" format="ascii">
                       0.97562                      -0.21944                      -0.00442
                       0.97561                      -0.21945                      -0.00449
                       0.97560                      -0.21950                      -0.00473
                       0.97558                      -0.21957                      -0.00507
                       0.97555                      -0.21969                      -0.00562
                       0.98188                      -0.18914                      -0.01215
                       0.98579                      -0.16710                      -0.01730
                       0.98876                      -0.14788                      -0.02215
                       0.99145                      -0.12758                      -0.02741
                       0.99374                      -0.10671                      -0.03300
                       0.99546                      -0.08704                      -0.03861
                       0.99673                      -0.06759                      -0.04437
                       0.99750                      -0.05008                      -0.04996
                       0.99781                      -0.03701                      -0.05483
                       0.99793                      -0.02416                      -0.05962
                       0.99789                      -0.01337                      -0.06347
                       0.99779                      -0.00533                      -0.06626
                       0.99768                      -0.00114                      -0.06811
                       0.99765                      -0.00127                      -0.06852
        </DataArray>
        <DataArray type="Float32" Name="OrientationY" NumberOfComponents="3" format="ascii">
                       0.21520                       0.96035                      -0.17725
                       0.21520                       0.96034                      -0.17730
                       0.21520                       0.96032                      -0.17744
                       0.21520                       0.96028                      -0.17761
                       0.21521                       0.96024                      -0.17785
                       0.18401                       0.96669                      -0.17788
                       0.16142                       0.97073                      -0.17785
                       0.14167                       0.97383                      -0.17774
                       0.12077                       0.97669                      -0.17747
                       0.09926                       0.97918                      -0.17705
                       0.07894                       0.98113                      -0.17650
                       0.05881                       0.98266                      -0.17582
                       0.04062                       0.98372                      -0.17507
                       0.02692                       0.98430                      -0.17443
                       0.01346                       0.98470                      -0.17372
                       0.00219                       0.98491                      -0.17307
                      -0.00620                       0.98498                      -0.17255
                      -0.01064                       0.98499                      -0.17228
                      -0.01058                       0.98499                      -0.17231
        </DataArray>
        <DataArray type="Float32" Name="OrientationZ" NumberOfComponents="3" format="ascii">
                       0.04314                       0.17198                       0.98416
                       0.04322                       0.17201                       0.98415
                       0.04349                       0.17209                       0.98412
                       0.04386                       0.17218                       0.98409
                       0.04447                       0.17229                       0.98404
                       0.04539                       0.17242                       0.98398
                       0.04651                       0.17253                       0.98391
                       0.04785                       0.17260                       0.98383
                       0.04941                       0.17265                       0.98374
                       0.05121                       0.17266                       0.98365
                       0.05324                       0.17265                       0.98354
                       0.05549                       0.17263                       0.98342
                       0.05791                       0.17260                       0.98329
                       0.06042                       0.17258                       0.98314
                       0.06290                       0.17256                       0.98299
                       0.06483                       0.17257                       0.98286
                       0.06618                       0.17258                       0.98277
                       0.06728                       0.17261                       0.98269
                       0.06771                       0.17263                       0.98266
        </DataArray>
        <DataArray type="Float32" Name="Force" NumberOfComponents="3" format="ascii">
                      51.62893                       2.06871                      -2.62459
                     156.97645                       8.90430                      -8.45049
                     173.45958                      20.33676                     -11.21884
                     133.76064                      23.70402                     -10.10461
                     940.89070                    -313.03785                      12.18715
                     892.83330                    -251.79454                       2.82100
                     933.15400                    -241.53986                      -1.89729
                     824.72518                    -187.79116                      -7.28487
                     743.01276                    -139.32527                     -12.96161
                     753.83229                    -125.01306                     -17.38420
                     704.60687                     -86.81626                     -22.95784
                     710.89769                     -74.07932                     -27.15358
                     613.94103                     -43.90508                     -28.47520
                     606.31589                     -35.09806                     -31.11950
                     594.74751                     -27.07111                     -33.31830
                     580.36034                     -20.01472                     -34.77560
                     548.63670                     -14.34885                     -34.43473
                     389.92098                      -8.61330                     -25.18920
                     387.34988                     -65.05065                     -15.29816
        </DataArray>
        <DataArray type="Float32" Name="Moment" NumberOfComponents="3" format="ascii">
                       0.00000                       0.00000                       0.00000
                       0.00000                       0.00000                       0.00000
                       0.00000                       0.00000                       0.00000
                       0.00000                       0.00000                       0.00000
                     -30.23037                    -116.90468                    -668.91059
                     -32.54273                    -123.29588                    -705.42179
                     -31.77419                    -117.47596                    -672.05600
                     -31.61466                    -113.62871                    -649.96885
                     -30.34752                    -105.63542                    -604.16185
                     -29.13385                     -97.86012                    -559.60236
                     -25.24851                     -81.57897                    -466.41544
                     -24.22515                     -75.10690                    -429.32581
                     -22.74232                     -67.56904                    -386.15414
                     -21.25688                     -60.53595                    -345.88245
                     -19.54035                     -53.45747                    -305.37041
                     -17.89595                     -47.50483                    -271.31961
                     -15.47169                     -40.22988                    -229.74139
                      -7.53967                     -19.28450                    -110.11744
                      -3.88383                      -9.87125                     -56.36420
        </DataArray>
      </PointData>
      <Lines>
        <DataArray type="Int32" Name="connectivity" format="ascii">
      0      1
      1      2
      2      3
      3      4
      4      5
      5      6
      6      7
      7      8
      8      9
      9     10
     10     11
     11     12
     12     13
     13     14
     14     15
     15     16
     16     17
     17     18
        </DataArray>
        <DataArray type="Int32" Name="offsets" format="ascii">
      2
      4
      6
      8
     10
     12
     14
     16
     18
     20
     22
     24
     26
     28
     30
     32
     34
     36
        </DataArray>
      </Lines>
    </Piece>
  </PolyData>
</VTKFile>
