<?xml version="1.0"?>
<VTKFile type="PolyData" version="0.1" byte_order="LittleEndian">
  <PolyData>
    <Piece NumberOfPoints="     19" NumberOfVerts="  0" NumberOfLines="     18"
           NumberOfStrips="  0" NumberOfPolys="      0">
      <Points>
        <DataArray type="Float32" NumberOfComponents="3" format="ascii">
                      -5.15957                      -0.71313                      88.69364
                      -5.32491                      -1.35881                      87.50045
                      -5.68125                      -2.56586                      85.07186
                      -6.04921                      -3.73248                      82.62293
                      -6.51516                      -5.16579                      79.54906
                      -7.01339                      -7.01078                      75.92019
                      -7.47904                      -8.96852                      72.34808
                      -7.94290                     -10.92631                      68.77571
                      -8.40194                     -12.88591                      65.20364
                      -8.85660                     -14.84584                      61.63113
                      -9.30795                     -16.80312                      58.05671
                      -9.75491                     -18.75936                      54.48113
                     -10.19793                     -20.71481                      50.90462
                     -10.63770                     -22.66969                      47.32737
                     -11.07262                     -24.62410                      43.74927
                     -11.43138                     -26.25250                      40.76690
                     -11.71611                     -27.56197                      38.38443
                     -11.99773                     -28.91980                      36.02754
                     -12.14030                     -29.56180                      34.82958
        </DataArray>
      </Points>
      <PointData>
        <DataArray type="Float32" Name="TranslationalVelocity" NumberOfComponents="3" format="ascii">
                      -0.04762                       0.12499                      -0.07058
                      -0.05203                       0.23805                      -0.13116
                      -0.06010                       0.46826                      -0.24439
                      -0.06782                       0.70032                      -0.35379
                      -0.07723                       0.99143                      -0.48814
                      -0.08955                       1.33433                      -0.66084
                      -0.10278                       1.67132                      -0.84388
                      -0.11591                       2.00799                      -1.02675
                      -0.12891                       2.34430                      -1.20963
                      -0.14172                       2.68037                      -1.39242
                      -0.15427                       3.01638                      -1.57486
                      -0.16652                       3.35232                      -1.75716
                      -0.17844                       3.68820                      -1.93935
                      -0.18999                       4.02406                      -2.12149
                      -0.20117                       4.35990                      -2.30359
                      -0.21018                       4.63977                      -2.45533
                      -0.21727                       4.86329                      -2.57734
                      -0.22462                       5.08438                      -2.70384
                      -0.22793                       5.19673                      -2.76365
        </DataArray>
        <DataArray type="Float32" Name="RotationalVelocity" NumberOfComponents="3" format="ascii">
                       0.09364                      -0.00076                      -0.00822
                       0.09362                      -0.00076                      -0.00822
                       0.09358                      -0.00076                      -0.00821
                       0.09352                      -0.00076                      -0.00821
                       0.09345                      -0.00076                      -0.00820
                       0.09335                      -0.00077                      -0.00818
                       0.09326                      -0.00078                      -0.00817
                       0.09318                      -0.00081                      -0.00815
                       0.09310                      -0.00084                      -0.00813
                       0.09304                      -0.00088                      -0.00811
                       0.09300                      -0.00094                      -0.00807
                       0.09297                      -0.00100                      -0.00804
                       0.09294                      -0.00108                      -0.00800
                       0.09292                      -0.00116                      -0.00795
                       0.09291                      -0.00124                      -0.00791
                       0.09290                      -0.00130                      -0.00787
                       0.09290                      -0.00135                      -0.00784
                       0.09289                      -0.00138                      -0.00782
                       0.09289                      -0.00140                      -0.00781
        </DataArray>
        <DataArray type="Float32" Name="TranslationalAcceleration" NumberOfComponents="3" format="ascii">
                       0.09498                       0.01695                       0.02295
                       0.02497                       0.02099                       0.01246
                       0.05859                       0.06013                       0.03437
                       0.07504                       0.09602                       0.05315
                       0.07980                       0.13811                       0.07310
                       0.07243                       0.18623                       0.09100
                       0.06002                       0.23352                       0.10483
                       0.04835                       0.28075                       0.11813
                       0.03989                       0.32863                       0.13189
                       0.03442                       0.37737                       0.14653
                       0.02965                       0.42688                       0.16212
                       0.02184                       0.47684                       0.17850
                       0.00640                       0.52688                       0.19550
                      -0.02150                       0.57667                       0.21316
                      -0.06629                       0.62604                       0.23185
                      -0.11944                       0.66688                       0.24885
                      -0.17283                       0.69962                       0.26375
                      -0.23605                       0.73288                       0.27989
                      -0.27136                       0.74959                       0.28938
        </DataArray>
        <DataArray type="Float32" Name="OrientationX" NumberOfComponents="3" format="ascii">
                       0.95567                       0.18237                      -0.23118
                       0.95568                       0.18241                      -0.23111
                       0.95571                       0.18254                      -0.23088
                       0.95575                       0.18274                      -0.23054
                       0.95581                       0.18306                      -0.23002
                       0.96399                       0.15596                      -0.21540
                       0.96931                       0.13653                      -0.20442
                       0.97357                       0.11965                      -0.19456
                       0.97763                       0.10180                      -0.18404
                       0.98136                       0.08343                      -0.17311
                       0.98448                       0.06612                      -0.16258
                       0.98716                       0.04897                      -0.15202
                       0.98926                       0.03353                      -0.14227
                       0.99066                       0.02202                      -0.13456
                       0.99184                       0.01067                      -0.12701
                       0.99268                       0.00110                      -0.12078
                       0.99321                      -0.00606                      -0.11620
                       0.99348                      -0.00978                      -0.11362
                       0.99349                      -0.00966                      -0.11348
        </DataArray>
        <DataArray type="Float32" Name="OrientationY" NumberOfComponents="3" format="ascii">
                       0.26875                      -0.86102                       0.43176
                       0.26874                      -0.86106                       0.43169
                       0.26873                      -0.86115                       0.43152
                       0.26871                      -0.86126                       0.43130
                       0.26870                      -0.86142                       0.43100
                       0.23807                      -0.86703                       0.43770
                       0.21587                      -0.87059                       0.44213
                       0.19641                      -0.87335                       0.44574
                       0.17580                      -0.87586                       0.44941
                       0.15455                      -0.87802                       0.45299
                       0.13441                      -0.87968                       0.45618
                       0.11441                      -0.88095                       0.45916
                       0.09628                      -0.88180                       0.46169
                       0.08257                      -0.88226                       0.46347
                       0.06906                      -0.88254                       0.46514
                       0.05774                      -0.88265                       0.46647
                       0.04931                      -0.88265                       0.46744
                       0.04483                      -0.88263                       0.46793
                       0.04487                      -0.88263                       0.46792
        </DataArray>
        <DataArray type="Float32" Name="OrientationZ" NumberOfComponents="3" format="ascii">
                      -0.12032                      -0.47475                      -0.87186
                      -0.12025                      -0.47467                      -0.87191
                      -0.12005                      -0.47445                      -0.87206
                      -0.11974                      -0.47417                      -0.87226
                      -0.11924                      -0.47376                      -0.87255
                      -0.11850                      -0.47322                      -0.87294
                      -0.11760                      -0.47269                      -0.87335
                      -0.11658                      -0.47217                      -0.87376
                      -0.11545                      -0.47171                      -0.87416
                      -0.11420                      -0.47130                      -0.87455
                      -0.11286                      -0.47095                      -0.87491
                      -0.11143                      -0.47066                      -0.87525
                      -0.10997                      -0.47043                      -0.87556
                      -0.10851                      -0.47025                      -0.87584
                      -0.10713                      -0.47011                      -0.87608
                      -0.10609                      -0.47003                      -0.87625
                      -0.10540                      -0.46999                      -0.87636
                      -0.10487                      -0.46997                      -0.87643
                      -0.10468                      -0.46996                      -0.87646
        </DataArray>
        <DataArray type="Float32" Name="Force" NumberOfComponents="3" format="ascii">
                     137.77146                     -11.20678                     -12.90996
                     122.61560                     -16.16537                      -8.10917
                     146.28948                     -23.33111                      -7.43596
                     116.72113                     -20.21682                      -5.01788
                     755.96382                     219.46085                    -222.82311
                     686.45478                     166.36936                    -183.78764
                     663.95147                     146.30915                    -169.09270
                     561.73305                     107.98472                    -133.76973
                     485.15676                      75.87584                    -105.40887
                     454.37732                      62.22798                     -93.23881
                     407.68662                      40.88830                     -74.87603
                     378.53874                      31.19323                     -65.20399
                     318.61537                      18.50227                     -50.11611
                     290.95515                      13.38202                     -43.35657
                     263.81839                       9.07450                     -37.22212
                     241.43362                       5.94624                     -32.49006
                     216.81052                       3.64924                     -28.08150
                     146.60561                       1.84643                     -18.55991
                     145.98907                       1.83400                     -18.44701
        </DataArray>
        <DataArray type="Float32" Name="Moment" NumberOfComponents="3" format="ascii">
                       0.00000                       0.00000                       0.00000
                       0.00000                       0.00000                       0.00000
                       0.00000                       0.00000                       0.00000
                       0.00000                       0.00000                       0.00000
                      73.51793                     292.82600                     537.82905
                      75.92888                     304.41906                     559.16571
                      69.30896                     280.05997                     514.47001
                      62.91110                     256.49759                     471.23566
                      54.48360                     224.38318                     412.28362
                      46.69760                     194.46420                     357.35598
                      36.43793                     153.58062                     282.26533
                      30.78387                     131.42997                     241.58972
                      25.41863                     109.98823                     202.20641
                      20.87338                      91.54947                     168.33285
                      16.88594                      75.02762                     137.97333
                      13.96355                      62.65348                     115.22975
                      11.17920                      50.49439                      92.87378
                       5.08511                      23.08605                      42.46420
                       5.03523                      22.90147                      42.12549
        </DataArray>
      </PointData>
      <Lines>
        <DataArray type="Int32" Name="connectivity" format="ascii">
      0      1
      1      2
      2      3
      3      4
      4      5
      5      6
      6      7
      7      8
      8      9
      9     10
     10     11
     11     12
     12     13
     13     14
     14     15
     15     16
     16     17
     17     18
        </DataArray>
        <DataArray type="Int32" Name="offsets" format="ascii">
      2
      4
      6
      8
     10
     12
     14
     16
     18
     20
     22
     24
     26
     28
     30
     32
     34
     36
        </DataArray>
      </Lines>
    </Piece>
  </PolyData>
</VTKFile>
