<?xml version="1.0"?>
<VTKFile type="PolyData" version="0.1" byte_order="LittleEndian">
  <PolyData>
    <Piece NumberOfPoints="     19" NumberOfVerts="  0" NumberOfLines="     18"
           NumberOfStrips="  0" NumberOfPolys="      0">
      <Points>
        <DataArray type="Float32" NumberOfComponents="3" format="ascii">
                      -5.12663                      -1.19432                      89.10416
                      -5.25916                      -2.27964                      88.28414
                      -5.55266                      -4.39159                      86.57082
                      -5.85919                      -6.47513                      84.82201
                      -6.24933                      -9.06161                      82.61357
                      -6.65286                     -12.25152                      80.06785
                      -7.02061                     -15.51869                      77.61879
                      -7.38703                     -18.78503                      75.16833
                      -7.74915                     -22.05190                      72.71780
                      -8.10756                     -25.31839                      70.26606
                      -8.46353                     -28.58252                      67.81073
                      -8.81604                     -31.84554                      65.35335
                      -9.16563                     -35.10773                      62.89438
                      -9.51304                     -38.36931                      60.43425
                      -9.85671                     -41.63043                      57.97295
                     -10.14030                     -44.34777                      55.92106
                     -10.36520                     -46.52622                      54.28535
                     -10.58591                     -48.73808                      52.69263
                     -10.69935                     -49.81835                      51.86332
        </DataArray>
      </Points>
      <PointData>
        <DataArray type="Float32" Name="TranslationalVelocity" NumberOfComponents="3" format="ascii">
                      -0.06181                       0.04156                      -0.05689
                      -0.06532                       0.07817                      -0.10478
                      -0.07202                       0.15471                      -0.19799
                      -0.07856                       0.23287                      -0.28996
                      -0.08658                       0.33161                      -0.40417
                      -0.09651                       0.44530                      -0.54504
                      -0.10654                       0.55468                      -0.68944
                      -0.11610                       0.66425                      -0.83403
                      -0.12496                       0.77397                      -0.97896
                      -0.13288                       0.88392                      -1.12424
                      -0.13962                       0.99422                      -1.26986
                      -0.14496                       1.10482                      -1.41591
                      -0.14875                       1.21568                      -1.56241
                      -0.15087                       1.32678                      -1.70938
                      -0.15131                       1.43807                      -1.85675
                      -0.15042                       1.53091                      -1.97981
                      -0.14903                       1.60494                      -2.07857
                      -0.14727                       1.67700                      -2.17888
                      -0.14609                       1.71450                      -2.22788
        </DataArray>
        <DataArray type="Float32" Name="RotationalVelocity" NumberOfComponents="3" format="ascii">
                       0.04403                      -0.00085                      -0.00387
                       0.04402                      -0.00085                      -0.00386
                       0.04402                      -0.00085                      -0.00386
                       0.04403                      -0.00086                      -0.00385
                       0.04404                      -0.00087                      -0.00383
                       0.04408                      -0.00090                      -0.00378
                       0.04413                      -0.00095                      -0.00371
                       0.04420                      -0.00103                      -0.00360
                       0.04429                      -0.00114                      -0.00345
                       0.04439                      -0.00129                      -0.00325
                       0.04450                      -0.00148                      -0.00301
                       0.04462                      -0.00171                      -0.00273
                       0.04474                      -0.00196                      -0.00242
                       0.04484                      -0.00223                      -0.00210
                       0.04494                      -0.00250                      -0.00180
                       0.04499                      -0.00270                      -0.00157
                       0.04502                      -0.00283                      -0.00143
                       0.04503                      -0.00292                      -0.00134
                       0.04502                      -0.00295                      -0.00132
        </DataArray>
        <DataArray type="Float32" Name="TranslationalAcceleration" NumberOfComponents="3" format="ascii">
                       0.09050                       0.00675                       0.03470
                       0.02044                       0.01006                       0.00518
                       0.04645                       0.02954                       0.01004
                       0.05833                       0.04817                       0.00894
                       0.06358                       0.07090                       0.00054
                       0.06952                       0.09698                      -0.01937
                       0.08645                       0.12290                      -0.04708
                       0.12111                       0.15005                      -0.07939
                       0.17661                       0.17880                      -0.11505
                       0.25239                       0.20919                      -0.15333
                       0.34462                       0.24100                      -0.19372
                       0.44666                       0.27386                      -0.23581
                       0.54948                       0.30732                      -0.27892
                       0.64207                       0.34097                      -0.32194
                       0.71197                       0.37456                      -0.36309
                       0.74237                       0.40242                      -0.39398
                       0.74340                       0.42462                      -0.41529
                       0.71968                       0.44649                      -0.43257
                       0.69647                       0.45783                      -0.43862
        </DataArray>
        <DataArray type="Float32" Name="OrientationX" NumberOfComponents="3" format="ascii">
                       0.95024                       0.10537                      -0.29315
                       0.95025                       0.10544                      -0.29310
                       0.95028                       0.10567                      -0.29293
                       0.95031                       0.10601                      -0.29270
                       0.95036                       0.10655                      -0.29234
                       0.95939                       0.08819                      -0.26794
                       0.96532                       0.07520                      -0.25001
                       0.97009                       0.06401                      -0.23416
                       0.97470                       0.05215                      -0.21735
                       0.97899                       0.03995                      -0.19998
                       0.98262                       0.02848                      -0.18343
                       0.98582                       0.01713                      -0.16696
                       0.98837                       0.00695                      -0.15192
                       0.99010                      -0.00052                      -0.14038
                       0.99161                      -0.00794                      -0.12904
                       0.99272                      -0.01423                      -0.11959
                       0.99346                      -0.01897                      -0.11260
                       0.99383                      -0.02139                      -0.10880
                       0.99384                      -0.02124                      -0.10875
        </DataArray>
        <DataArray type="Float32" Name="OrientationY" NumberOfComponents="3" format="ascii">
                       0.29628                      -0.59639                       0.74602
                       0.29627                      -0.59650                       0.74593
                       0.29624                      -0.59679                       0.74571
                       0.29621                      -0.59715                       0.74543
                       0.29619                      -0.59765                       0.74504
                       0.26571                      -0.60140                       0.75347
                       0.24360                      -0.60393                       0.75890
                       0.22422                      -0.60593                       0.76327
                       0.20369                      -0.60770                       0.76760
                       0.18250                      -0.60917                       0.77175
                       0.16243                      -0.61027                       0.77536
                       0.14249                      -0.61107                       0.77865
                       0.12440                      -0.61156                       0.78136
                       0.11073                      -0.61182                       0.78321
                       0.09724                      -0.61194                       0.78490
                       0.08594                      -0.61194                       0.78622
                       0.07753                      -0.61187                       0.78715
                       0.07306                      -0.61182                       0.78761
                       0.07311                      -0.61184                       0.78760
        </DataArray>
        <DataArray type="Float32" Name="OrientationZ" NumberOfComponents="3" format="ascii">
                      -0.09623                      -0.79575                      -0.59793
                      -0.09618                      -0.79566                      -0.59806
                      -0.09602                      -0.79541                      -0.59842
                      -0.09576                      -0.79510                      -0.59888
                      -0.09534                      -0.79464                      -0.59954
                      -0.09469                      -0.79406                      -0.60042
                      -0.09392                      -0.79348                      -0.60130
                      -0.09303                      -0.79294                      -0.60216
                      -0.09206                      -0.79245                      -0.60295
                      -0.09099                      -0.79203                      -0.60366
                      -0.08986                      -0.79168                      -0.60429
                      -0.08868                      -0.79139                      -0.60484
                      -0.08748                      -0.79117                      -0.60531
                      -0.08630                      -0.79099                      -0.60571
                      -0.08519                      -0.79086                      -0.60604
                      -0.08438                      -0.79078                      -0.60626
                      -0.08383                      -0.79073                      -0.60639
                      -0.08341                      -0.79070                      -0.60649
                      -0.08327                      -0.79070                      -0.60652
        </DataArray>
        <DataArray type="Float32" Name="Force" NumberOfComponents="3" format="ascii">
                     150.82124                     -12.58647                      -7.52127
                     139.21809                     -14.90321                      -2.55790
                     163.49112                     -19.06181                      -0.87474
                     127.95361                     -14.48855                      -1.19388
                     758.58740                     136.37283                    -302.22884
                     677.31172                      99.12062                    -238.88034
                     641.29488                      84.35269                    -212.60741
                     546.20057                      61.63091                    -166.60128
                     477.55751                      42.16765                    -129.22623
                     444.18561                      33.42559                    -111.64035
                     405.71178                      20.76557                     -88.17165
                     375.16055                      14.81911                     -74.92733
                     325.47610                       8.22214                     -58.16317
                     296.33392                       5.23709                     -49.36060
                     267.53655                       2.72453                     -41.39109
                     243.84024                       0.93820                     -35.32937
                     218.43814                      -0.19971                     -30.06267
                     147.37358                      -0.49728                     -19.69617
                     146.59204                      -0.47730                     -19.57783
        </DataArray>
        <DataArray type="Float32" Name="Moment" NumberOfComponents="3" format="ascii">
                       0.00000                       0.00000                       0.00000
                       0.00000                       0.00000                       0.00000
                       0.00000                       0.00000                       0.00000
                       0.00000                       0.00000                       0.00000
                      63.68361                     532.29304                     400.02763
                      64.37858                     542.20044                     407.51622
                      58.14738                     494.14933                     371.44726
                      52.58100                     451.43296                     339.38514
                      45.54823                     395.49742                     297.37846
                      39.06840                     343.42077                     258.26381
                      30.70169                     273.43522                     205.66787
                      25.97592                     234.54833                     176.45012
                      21.48982                     196.79443                     148.07469
                      17.66665                     164.06212                     123.46764
                      14.29974                     134.56499                     101.28580
                      11.82823                     112.41315                      84.62263
                       9.47597                      90.65767                      68.25102
                       4.31710                      41.51201                      31.25396
                       4.28004                      41.23000                      31.04232
        </DataArray>
      </PointData>
      <Lines>
        <DataArray type="Int32" Name="connectivity" format="ascii">
      0      1
      1      2
      2      3
      3      4
      4      5
      5      6
      6      7
      7      8
      8      9
      9     10
     10     11
     11     12
     12     13
     13     14
     14     15
     15     16
     16     17
     17     18
        </DataArray>
        <DataArray type="Int32" Name="offsets" format="ascii">
      2
      4
      6
      8
     10
     12
     14
     16
     18
     20
     22
     24
     26
     28
     30
     32
     34
     36
        </DataArray>
      </Lines>
    </Piece>
  </PolyData>
</VTKFile>
