<?xml version="1.0"?>
<VTKFile type="PolyData" version="0.1" byte_order="LittleEndian">
  <PolyData>
    <Piece NumberOfPoints="     19" NumberOfVerts="  0" NumberOfLines="     18"
           NumberOfStrips="  0" NumberOfPolys="      0">
      <Points>
        <DataArray type="Float32" NumberOfComponents="3" format="ascii">
                      -5.08697                       1.19944                      89.11669
                      -5.21889                       2.29499                      88.31028
                      -5.49773                       4.54144                      86.77477
                      -5.78318                       6.81373                      85.27496
                      -6.14313                       9.66899                      83.42012
                      -6.53034                      13.00960                      81.07122
                      -6.89969                      16.27087                      78.61276
                      -7.26758                      19.52849                      76.14929
                      -7.63096                      22.78166                      73.67935
                      -7.98972                      26.03177                      71.20480
                      -8.34413                      29.28133                      68.72904
                      -8.69284                      32.52978                      66.25112
                      -9.03588                      35.77741                      63.77144
                      -9.37347                      39.02448                      61.29034
                      -9.70357                      42.27125                      58.80792
                      -9.97264                      44.97671                      56.73821
                     -10.18491                      47.13608                      55.07559
                     -10.39870                      49.26194                      53.36874
                     -10.50212                      50.34990                      52.54820
        </DataArray>
      </Points>
      <PointData>
        <DataArray type="Float32" Name="TranslationalVelocity" NumberOfComponents="3" format="ascii">
                       0.05906                       0.24666                       0.33191
                       0.08519                       0.47099                       0.63240
                       0.13888                       0.89870                       1.24840
                       0.19326                       1.31664                       1.87126
                       0.26167                       1.83347                       2.65351
                       0.34173                       2.48594                       3.56814
                       0.42001                       3.16755                       4.46042
                       0.49850                       3.85005                       5.35110
                       0.57728                       4.53383                       6.24002
                       0.65654                       5.21841                       7.12761
                       0.73646                       5.90296                       8.01464
                       0.81716                       6.58776                       8.90100
                       0.89876                       7.27276                       9.78686
                       0.98137                       7.95793                      10.67233
                       1.06506                       8.64322                      11.55750
                       1.13566                       9.21438                      12.29494
                       1.19255                       9.67308                      12.88343
                       1.24908                      10.14382                      13.46265
                       1.27813                      10.37011                      13.75904
        </DataArray>
        <DataArray type="Float32" Name="RotationalVelocity" NumberOfComponents="3" format="ascii">
                       0.27425                       0.00054                      -0.02425
                       0.27421                       0.00053                      -0.02425
                       0.27413                       0.00052                      -0.02426
                       0.27403                       0.00050                      -0.02427
                       0.27388                       0.00048                      -0.02428
                       0.27370                       0.00045                      -0.02430
                       0.27352                       0.00040                      -0.02435
                       0.27335                       0.00035                      -0.02441
                       0.27320                       0.00028                      -0.02450
                       0.27308                       0.00020                      -0.02461
                       0.27297                       0.00009                      -0.02476
                       0.27288                      -0.00004                      -0.02493
                       0.27281                      -0.00018                      -0.02512
                       0.27275                      -0.00035                      -0.02533
                       0.27269                      -0.00052                      -0.02553
                       0.27265                      -0.00065                      -0.02570
                       0.27262                      -0.00075                      -0.02582
                       0.27260                      -0.00084                      -0.02591
                       0.27259                      -0.00088                      -0.02595
        </DataArray>
        <DataArray type="Float32" Name="TranslationalAcceleration" NumberOfComponents="3" format="ascii">
                       0.01049                      -0.08252                       0.08142
                       0.00992                      -0.09857                       0.09784
                       0.02769                      -0.28617                       0.27524
                       0.04350                      -0.46151                       0.43568
                       0.06161                      -0.66771                       0.62138
                       0.08279                      -0.89374                       0.83919
                       0.10439                      -1.10547                       1.05799
                       0.12675                      -1.31561                       1.27635
                       0.15044                      -1.52704                       1.49720
                       0.17579                      -1.74082                       1.72135
                       0.20291                      -1.95670                       1.94806
                       0.23184                      -2.17330                       2.17608
                       0.26250                      -2.38909                       2.40377
                       0.29482                      -2.60284                       2.62978
                       0.32877                      -2.81418                       2.85359
                       0.35838                      -2.98916                       3.03892
                       0.38299                      -3.12893                       3.18785
                       0.40878                      -3.26728                       3.34129
                       0.42188                      -3.33988                       3.41698
        </DataArray>
        <DataArray type="Float32" Name="OrientationX" NumberOfComponents="3" format="ascii">
                       0.98244                       0.17182                       0.07269
                       0.98245                       0.17178                       0.07272
                       0.98246                       0.17167                       0.07281
                       0.98248                       0.17150                       0.07294
                       0.98251                       0.17123                       0.07315
                       0.98717                       0.15232                       0.04790
                       0.98994                       0.13830                       0.02989
                       0.99196                       0.12576                       0.01434
                       0.99367                       0.11234                      -0.00196
                       0.99498                       0.09832                      -0.01859
                       0.99582                       0.08479                      -0.03410
                       0.99625                       0.07118                      -0.04929
                       0.99631                       0.05856                      -0.06279
                       0.99618                       0.04855                      -0.07260
                       0.99586                       0.03868                      -0.08221
                       0.99545                       0.03049                      -0.09028
                       0.99505                       0.02443                      -0.09631
                       0.99484                       0.02093                      -0.09928
                       0.99487                       0.02064                      -0.09901
        </DataArray>
        <DataArray type="Float32" Name="OrientationY" NumberOfComponents="3" format="ascii">
                       0.15988                      -0.57460                      -0.80267
                       0.15990                      -0.57474                      -0.80256
                       0.15995                      -0.57510                      -0.80230
                       0.16000                      -0.57555                      -0.80196
                       0.16009                      -0.57619                      -0.80148
                       0.12878                      -0.58218                      -0.80280
                       0.10616                      -0.58633                      -0.80309
                       0.08638                      -0.58974                      -0.80296
                       0.06545                      -0.59294                      -0.80258
                       0.04389                      -0.59582                      -0.80192
                       0.02351                      -0.59820                      -0.80100
                       0.00331                      -0.60019                      -0.79985
                      -0.01496                      -0.60170                      -0.79858
                      -0.02874                      -0.60270                      -0.79745
                      -0.04229                      -0.60349                      -0.79625
                      -0.05362                      -0.60402                      -0.79517
                      -0.06204                      -0.60433                      -0.79431
                      -0.06651                      -0.60450                      -0.79383
                      -0.06646                      -0.60452                      -0.79381
        </DataArray>
        <DataArray type="Float32" Name="OrientationZ" NumberOfComponents="3" format="ascii">
                      -0.09614                       0.80020                      -0.59198
                      -0.09607                       0.80011                      -0.59212
                      -0.09586                       0.79987                      -0.59247
                      -0.09556                       0.79958                      -0.59291
                      -0.09509                       0.79917                      -0.59353
                      -0.09440                       0.79867                      -0.59432
                      -0.09354                       0.79818                      -0.59511
                      -0.09253                       0.79774                      -0.59586
                      -0.09132                       0.79737                      -0.59654
                      -0.08992                       0.79708                      -0.59714
                      -0.08831                       0.79685                      -0.59769
                      -0.08651                       0.79669                      -0.59817
                      -0.08455                       0.79657                      -0.59860
                      -0.08248                       0.79649                      -0.59900
                      -0.08041                       0.79643                      -0.59936
                      -0.07877                       0.79639                      -0.59963
                      -0.07760                       0.79636                      -0.59982
                      -0.07663                       0.79633                      -0.59998
                      -0.07624                       0.79632                      -0.60005
        </DataArray>
        <DataArray type="Float32" Name="Force" NumberOfComponents="3" format="ascii">
                      45.94442                       3.57880                      -2.62411
                     136.05366                       7.84877                     -11.46703
                     159.15947                       3.85290                     -20.55140
                     124.59371                      -2.82710                     -23.91524
                     846.80377                     200.29557                     134.87782
                     793.08451                     163.77812                      95.15321
                     810.81142                     155.70546                      82.66766
                     705.34938                     121.80756                      54.75222
                     623.63702                      92.08288                      28.63151
                     622.81284                      83.00435                      18.01193
                     573.85267                      61.12975                      -2.53948
                     570.78946                      52.67960                     -11.72582
                     486.59273                      34.63845                     -22.21840
                     476.88448                      29.13149                     -26.58696
                     464.48627                      23.94110                     -30.23200
                     452.00986                      20.04333                     -32.54703
                     433.22353                      19.11051                     -30.46452
                     315.23804                      15.47730                     -19.52668
                     385.35467                      50.40291                      18.81274
        </DataArray>
        <DataArray type="Float32" Name="Moment" NumberOfComponents="3" format="ascii">
                       0.00000                       0.00000                       0.00000
                       0.00000                       0.00000                       0.00000
                       0.00000                       0.00000                       0.00000
                       0.00000                       0.00000                       0.00000
                      61.32386                    -516.73011                     382.34215
                      61.66819                    -523.84462                     387.65058
                      56.16318                    -481.76805                     356.56226
                      52.10407                    -452.16968                     334.70998
                      46.57931                    -409.79882                     303.40256
                      41.56508                    -371.59117                     275.17415
                      33.36952                    -303.90341                     225.10458
                      29.57802                    -275.11055                     203.83310
                      25.65649                    -244.28531                     181.04798
                      22.13765                    -216.14760                     160.24403
                      18.83279                    -188.68389                     139.92694
                      16.26270                    -166.36287                     123.40405
                      13.48477                    -140.05258                     103.90592
                       6.33988                     -66.69371                      49.48772
                       3.10611                     -32.84480                      24.37275
        </DataArray>
      </PointData>
      <Lines>
        <DataArray type="Int32" Name="connectivity" format="ascii">
      0      1
      1      2
      2      3
      3      4
      4      5
      5      6
      6      7
      7      8
      8      9
      9     10
     10     11
     11     12
     12     13
     13     14
     14     15
     15     16
     16     17
     17     18
        </DataArray>
        <DataArray type="Int32" Name="offsets" format="ascii">
      2
      4
      6
      8
     10
     12
     14
     16
     18
     20
     22
     24
     26
     28
     30
     32
     34
     36
        </DataArray>
      </Lines>
    </Piece>
  </PolyData>
</VTKFile>
