<?xml version="1.0"?>
<VTKFile type="PolyData" version="0.1" byte_order="LittleEndian">
  <PolyData>
    <Piece NumberOfPoints="     19" NumberOfVerts="  0" NumberOfLines="     18"
           NumberOfStrips="  0" NumberOfPolys="      0">
      <Points>
        <DataArray type="Float32" NumberOfComponents="3" format="ascii">
                      -5.04109                       1.38985                      89.45733
                      -5.14578                       2.65870                      88.96038
                      -5.36911                       5.23029                      88.05533
                      -5.59855                       7.81774                      87.19123
                      -5.88820                      11.06130                      86.13386
                      -6.19269                      14.90123                      84.72335
                      -6.48080                      18.69204                      83.18593
                      -6.76746                      22.48033                      81.64217
                      -7.04958                      26.26566                      80.09046
                      -7.32693                      30.04892                      78.53306
                      -7.59969                      33.83170                      76.97393
                      -7.86644                      37.61372                      75.41209
                      -8.12713                      41.39518                      73.84806
                      -8.38192                      45.17627                      72.28230
                      -8.62871                      48.95720                      70.71499
                      -8.82795                      52.10790                      69.40772
                      -8.98419                      54.62530                      68.35391
                      -9.14235                      57.12165                      67.24869
                      -9.21740                      58.38550                      66.73422
        </DataArray>
      </Points>
      <PointData>
        <DataArray type="Float32" Name="TranslationalVelocity" NumberOfComponents="3" format="ascii">
                       0.02950                       0.15875                       0.39596
                       0.06162                       0.30299                       0.75749
                       0.12669                       0.56646                       1.49008
                       0.19212                       0.81836                       2.22702
                       0.27407                       1.12675                       3.15053
                       0.37097                       1.53591                       4.24341
                       0.46647                       1.98058                       5.32183
                       0.56173                       2.42680                       6.39907
                       0.65672                       2.87497                       7.47503
                       0.75148                       3.32446                       8.55003
                       0.84604                       3.77417                       9.62458
                       0.94043                       4.22437                      10.69866
                       1.03466                       4.67495                      11.77238
                       1.12877                       5.12580                      12.84586
                       1.22280                       5.57684                      13.91918
                       1.30111                       5.95285                      14.81352
                       1.36368                       6.25583                      15.52804
                       1.42573                       6.57344                      16.23654
                       1.45715                       6.72131                      16.59521
        </DataArray>
        <DataArray type="Float32" Name="RotationalVelocity" NumberOfComponents="3" format="ascii">
                       0.28495                      -0.00010                      -0.02528
                       0.28493                      -0.00010                      -0.02528
                       0.28488                      -0.00010                      -0.02527
                       0.28481                      -0.00010                      -0.02525
                       0.28471                      -0.00010                      -0.02522
                       0.28458                      -0.00009                      -0.02518
                       0.28446                      -0.00008                      -0.02514
                       0.28434                      -0.00007                      -0.02509
                       0.28424                      -0.00007                      -0.02505
                       0.28415                      -0.00006                      -0.02500
                       0.28407                      -0.00005                      -0.02496
                       0.28401                      -0.00005                      -0.02492
                       0.28396                      -0.00006                      -0.02489
                       0.28393                      -0.00007                      -0.02486
                       0.28389                      -0.00008                      -0.02483
                       0.28388                      -0.00010                      -0.02482
                       0.28386                      -0.00011                      -0.02481
                       0.28385                      -0.00012                      -0.02481
                       0.28385                      -0.00013                      -0.02481
        </DataArray>
        <DataArray type="Float32" Name="TranslationalAcceleration" NumberOfComponents="3" format="ascii">
                      -0.05009                      -0.10631                       0.05668
                      -0.00957                      -0.12964                       0.07253
                      -0.02086                      -0.37432                       0.20206
                      -0.02337                      -0.60194                       0.31830
                      -0.01797                      -0.86928                       0.45266
                      -0.00247                      -1.16691                       0.61563
                       0.01800                      -1.45027                       0.78418
                       0.03940                      -1.73200                       0.95290
                       0.06017                      -2.01580                       1.12388
                       0.07992                      -2.30297                       1.29758
                       0.09904                      -2.59306                       1.47335
                       0.11846                      -2.88429                       1.65032
                       0.13922                      -3.17466                       1.82730
                       0.16216                      -3.46253                       2.00332
                       0.18759                      -3.74740                       2.17795
                       0.21033                      -3.98335                       2.32271
                       0.22895                      -4.17208                       2.43932
                       0.24741                      -4.36057                       2.56098
                       0.25580                      -4.45808                       2.61971
        </DataArray>
        <DataArray type="Float32" Name="OrientationX" NumberOfComponents="3" format="ascii">
                       0.98591                       0.12493                       0.11125
                       0.98591                       0.12488                       0.11127
                       0.98592                       0.12476                       0.11132
                       0.98594                       0.12458                       0.11140
                       0.98596                       0.12428                       0.11152
                       0.99025                       0.11240                       0.08223
                       0.99275                       0.10342                       0.06121
                       0.99453                       0.09524                       0.04297
                       0.99598                       0.08639                       0.02376
                       0.99702                       0.07703                       0.00410
                       0.99759                       0.06785                      -0.01433
                       0.99776                       0.05849                      -0.03247
                       0.99758                       0.04966                      -0.04870
                       0.99726                       0.04240                      -0.06070
                       0.99675                       0.03521                      -0.07244
                       0.99618                       0.02928                      -0.08229
                       0.99566                       0.02491                      -0.08962
                       0.99538                       0.02224                      -0.09335
                       0.99541                       0.02187                      -0.09315
        </DataArray>
        <DataArray type="Float32" Name="OrientationY" NumberOfComponents="3" format="ascii">
                       0.14889                      -0.35219                      -0.92401
                       0.14891                      -0.35237                      -0.92394
                       0.14895                      -0.35285                      -0.92375
                       0.14900                      -0.35346                      -0.92351
                       0.14908                      -0.35431                      -0.92317
                       0.11765                      -0.35918                      -0.92582
                       0.09495                      -0.36274                      -0.92704
                       0.07510                      -0.36575                      -0.92768
                       0.05411                      -0.36858                      -0.92802
                       0.03249                      -0.37114                      -0.92801
                       0.01206                      -0.37329                      -0.92764
                      -0.00817                      -0.37512                      -0.92694
                      -0.02646                      -0.37654                      -0.92602
                      -0.04025                      -0.37752                      -0.92513
                      -0.05380                      -0.37832                      -0.92411
                      -0.06512                      -0.37886                      -0.92316
                      -0.07354                      -0.37920                      -0.92239
                      -0.07799                      -0.37939                      -0.92194
                      -0.07793                      -0.37942                      -0.92194
        </DataArray>
        <DataArray type="Float32" Name="OrientationZ" NumberOfComponents="3" format="ascii">
                      -0.07625                       0.92755                      -0.36583
                      -0.07618                       0.92749                      -0.36601
                      -0.07597                       0.92732                      -0.36647
                      -0.07568                       0.92712                      -0.36705
                      -0.07522                       0.92683                      -0.36786
                      -0.07453                       0.92647                      -0.36891
                      -0.07367                       0.92613                      -0.36993
                      -0.07264                       0.92583                      -0.37090
                      -0.07141                       0.92557                      -0.37177
                      -0.06996                       0.92538                      -0.37254
                      -0.06829                       0.92523                      -0.37321
                      -0.06640                       0.92513                      -0.37380
                      -0.06433                       0.92507                      -0.37432
                      -0.06214                       0.92503                      -0.37478
                      -0.05994                       0.92501                      -0.37519
                      -0.05821                       0.92499                      -0.37550
                      -0.05696                       0.92498                      -0.37572
                      -0.05592                       0.92497                      -0.37590
                      -0.05551                       0.92496                      -0.37598
        </DataArray>
        <DataArray type="Float32" Name="Force" NumberOfComponents="3" format="ascii">
                      34.97162                       2.68951                      -0.46993
                     149.19285                       7.15926                     -12.90799
                     165.20456                       4.78949                     -22.13559
                     127.92868                       0.28371                     -25.70398
                     874.06022                     143.46052                     184.38591
                     817.81478                     118.77769                     135.07309
                     838.73990                     114.04816                     120.96503
                     732.32358                      90.50585                      84.82706
                     650.92491                      70.06936                      51.40760
                     653.45081                      64.10029                      38.47707
                     605.25951                      48.94863                      12.09133
                     605.16609                      43.08232                       0.44838
                     518.62945                      29.66726                     -14.98279
                     511.02657                      25.53959                     -21.00727
                     500.15772                      21.49736                     -26.36666
                     488.53162                      18.37294                     -30.03939
                     465.95568                      16.44995                     -29.76298
                     339.44009                      12.79095                     -18.67519
                     399.12838                      35.00001                      28.84271
        </DataArray>
        <DataArray type="Float32" Name="Moment" NumberOfComponents="3" format="ascii">
                       0.00000                       0.00000                       0.00000
                       0.00000                       0.00000                       0.00000
                       0.00000                       0.00000                       0.00000
                       0.00000                       0.00000                       0.00000
                      49.30548                    -609.41573                     240.42586
                      49.60577                    -619.56476                     244.47605
                      45.25235                    -572.42696                     225.92719
                      42.08224                    -540.50174                     213.38419
                      37.69678                    -493.04513                     194.71010
                      33.66412                    -449.85706                     177.71938
                      27.02130                    -370.27271                     146.33996
                      23.91526                    -337.31958                     133.37837
                      20.69210                    -301.49355                     119.27313
                      17.78571                    -268.47028                     106.26565
                      15.05857                    -235.81106                      93.38851
                      12.94953                    -208.96313                      82.79090
                      10.70596                    -176.61180                      69.99453
                       5.02271                     -84.42590                      33.46798
                       2.34350                     -39.69246                      15.73641
        </DataArray>
      </PointData>
      <Lines>
        <DataArray type="Int32" Name="connectivity" format="ascii">
      0      1
      1      2
      2      3
      3      4
      4      5
      5      6
      6      7
      7      8
      8      9
      9     10
     10     11
     11     12
     12     13
     13     14
     14     15
     15     16
     16     17
     17     18
        </DataArray>
        <DataArray type="Int32" Name="offsets" format="ascii">
      2
      4
      6
      8
     10
     12
     14
     16
     18
     20
     22
     24
     26
     28
     30
     32
     34
     36
        </DataArray>
      </Lines>
    </Piece>
  </PolyData>
</VTKFile>
