<?xml version="1.0"?>
<VTKFile type="PolyData" version="0.1" byte_order="LittleEndian">
  <PolyData>
    <Piece NumberOfPoints="     22" NumberOfVerts="  0" NumberOfLines="     21"
           NumberOfStrips="  0" NumberOfPolys="      0">
      <Points>
        <DataArray type="Float32" NumberOfComponents="3" format="ascii">
                       0.00004                      -0.00000                       2.19000
                       0.00035                      -0.00000                       6.57000
                       0.00104                      -0.00001                      10.95000
                       0.00213                      -0.00002                      15.33000
                       0.00362                      -0.00004                      19.71000
                       0.00548                      -0.00006                      24.09000
                       0.00771                      -0.00008                      28.47000
                       0.01027                      -0.00010                      32.85000
                       0.01314                      -0.00014                      37.23000
                       0.01631                      -0.00017                      41.61000
                       0.01978                      -0.00022                      45.98999
                       0.02354                      -0.00027                      50.36999
                       0.02762                      -0.00033                      54.74999
                       0.03201                      -0.00039                      59.12999
                       0.03672                      -0.00046                      63.50999
                       0.04173                      -0.00055                      67.88998
                       0.04700                      -0.00063                      72.26998
                       0.05246                      -0.00073                      76.64998
                       0.05798                      -0.00083                      81.02997
                       0.06336                      -0.00093                      85.40997
                       0.06591                      -0.00099                      87.59997
                       0.00000                       0.00000                       0.00000
        </DataArray>
      </Points>
      <PointData>
        <DataArray type="Float32" Name="TranslationalVelocity" NumberOfComponents="3" format="ascii">
                       0.00000                      -0.00000                      -0.00000
                       0.00003                      -0.00001                      -0.00000
                       0.00010                      -0.00002                      -0.00000
                       0.00022                      -0.00004                      -0.00000
                       0.00037                      -0.00007                      -0.00000
                       0.00056                      -0.00010                      -0.00000
                       0.00080                      -0.00014                      -0.00000
                       0.00107                      -0.00018                      -0.00000
                       0.00138                      -0.00023                      -0.00000
                       0.00173                      -0.00028                      -0.00000
                       0.00212                      -0.00034                      -0.00000
                       0.00255                      -0.00041                      -0.00000
                       0.00302                      -0.00049                      -0.00000
                       0.00354                      -0.00057                      -0.00000
                       0.00410                      -0.00065                      -0.00000
                       0.00471                      -0.00075                      -0.00000
                       0.00536                      -0.00084                      -0.00000
                       0.00604                      -0.00095                      -0.00001
                       0.00674                      -0.00105                      -0.00001
                       0.00742                      -0.00116                      -0.00001
                       0.00775                      -0.00122                      -0.00001
                       0.00000                      -0.00000                       0.00000
        </DataArray>
        <DataArray type="Float32" Name="RotationalVelocity" NumberOfComponents="3" format="ascii">
                       0.00000                       0.00000                       0.00000
                       0.00000                       0.00001                       0.00000
                       0.00000                       0.00002                       0.00000
                       0.00001                       0.00003                       0.00000
                       0.00001                       0.00004                       0.00000
                       0.00001                       0.00005                       0.00000
                       0.00001                       0.00006                       0.00000
                       0.00001                       0.00007                       0.00000
                       0.00001                       0.00008                       0.00000
                       0.00001                       0.00008                       0.00000
                       0.00001                       0.00009                       0.00000
                       0.00002                       0.00010                       0.00000
                       0.00002                       0.00011                       0.00000
                       0.00002                       0.00012                       0.00000
                       0.00002                       0.00013                       0.00000
                       0.00002                       0.00014                       0.00000
                       0.00002                       0.00015                       0.00000
                       0.00002                       0.00016                       0.00000
                       0.00002                       0.00016                       0.00000
                       0.00003                       0.00015                       0.00000
                       0.00003                       0.00015                       0.00000
                       0.00000                      -0.00000                       0.00000
        </DataArray>
        <DataArray type="Float32" Name="TranslationalAcceleration" NumberOfComponents="3" format="ascii">
                      -0.00004                      -0.00000                       0.00000
                      -0.00044                      -0.00001                       0.00000
                      -0.00129                      -0.00002                       0.00000
                      -0.00263                      -0.00004                       0.00000
                      -0.00447                      -0.00006                       0.00000
                      -0.00676                      -0.00009                       0.00000
                      -0.00949                      -0.00012                       0.00000
                      -0.01261                      -0.00015                       0.00001
                      -0.01611                      -0.00019                       0.00001
                      -0.01996                      -0.00023                       0.00001
                      -0.02415                      -0.00027                       0.00001
                      -0.02868                      -0.00032                       0.00002
                      -0.03356                      -0.00036                       0.00002
                      -0.03879                      -0.00041                       0.00003
                      -0.04438                      -0.00045                       0.00003
                      -0.05031                      -0.00050                       0.00004
                      -0.05653                      -0.00055                       0.00005
                      -0.06294                      -0.00059                       0.00006
                      -0.06941                      -0.00063                       0.00006
                      -0.07569                      -0.00068                       0.00007
                      -0.07867                      -0.00070                       0.00007
                       0.00000                      -0.00000                       0.00000
        </DataArray>
        <DataArray type="Float32" Name="RotationalAcceleration" NumberOfComponents="3" format="ascii">
                       0.00000                      -0.00004                       0.00000
                       0.00000                      -0.00014                       0.00000
                       0.00000                      -0.00025                       0.00000
                       0.00000                      -0.00036                       0.00000
                       0.00001                      -0.00047                       0.00000
                       0.00001                      -0.00057                       0.00000
                       0.00001                      -0.00067                       0.00000
                       0.00001                      -0.00076                       0.00000
                       0.00001                      -0.00084                       0.00000
                       0.00001                      -0.00092                       0.00000
                       0.00001                      -0.00100                       0.00000
                       0.00001                      -0.00107                       0.00000
                       0.00001                      -0.00115                       0.00000
                       0.00001                      -0.00124                       0.00000
                       0.00001                      -0.00132                       0.00000
                       0.00001                      -0.00139                       0.00000
                       0.00001                      -0.00145                       0.00000
                       0.00001                      -0.00148                       0.00000
                       0.00001                      -0.00147                       0.00000
                       0.00001                      -0.00139                       0.00000
                       0.00001                      -0.00132                       0.00000
                       0.00000                      -0.00000                       0.00000
        </DataArray>
        <DataArray type="Float32" Name="OrientationX" NumberOfComponents="3" format="ascii">
                       1.00000                       0.00000                      -0.00003
                       1.00000                       0.00000                      -0.00011
                       1.00000                       0.00000                      -0.00020
                       1.00000                       0.00000                      -0.00029
                       1.00000                       0.00000                      -0.00038
                       1.00000                       0.00000                      -0.00047
                       1.00000                       0.00000                      -0.00055
                       1.00000                       0.00000                      -0.00062
                       1.00000                       0.00000                      -0.00069
                       1.00000                       0.00000                      -0.00076
                       1.00000                       0.00000                      -0.00083
                       1.00000                       0.00000                      -0.00089
                       1.00000                       0.00000                      -0.00097
                       1.00000                       0.00000                      -0.00104
                       1.00000                       0.00000                      -0.00111
                       1.00000                       0.00000                      -0.00118
                       1.00000                       0.00000                      -0.00123
                       1.00000                       0.00000                      -0.00126
                       1.00000                       0.00000                      -0.00125
                       1.00000                       0.00000                      -0.00119
                       1.00000                       0.00000                      -0.00114
                       1.00000                      -0.00000                       0.00000
        </DataArray>
        <DataArray type="Float32" Name="OrientationY" NumberOfComponents="3" format="ascii">
                       0.00000                       1.00000                       0.00000
                       0.00000                       1.00000                       0.00000
                       0.00000                       1.00000                       0.00000
                       0.00000                       1.00000                       0.00000
                       0.00000                       1.00000                       0.00000
                       0.00000                       1.00000                       0.00000
                       0.00000                       1.00000                       0.00001
                       0.00000                       1.00000                       0.00001
                       0.00000                       1.00000                       0.00001
                       0.00000                       1.00000                       0.00001
                       0.00000                       1.00000                       0.00001
                       0.00000                       1.00000                       0.00001
                       0.00000                       1.00000                       0.00001
                       0.00000                       1.00000                       0.00002
                       0.00000                       1.00000                       0.00002
                       0.00000                       1.00000                       0.00002
                       0.00000                       1.00000                       0.00002
                       0.00000                       1.00000                       0.00002
                       0.00000                       1.00000                       0.00002
                       0.00000                       1.00000                       0.00002
                       0.00000                       1.00000                       0.00002
                      -0.00000                       1.00000                      -0.00000
        </DataArray>
        <DataArray type="Float32" Name="OrientationZ" NumberOfComponents="3" format="ascii">
                       0.00003                      -0.00000                       1.00000
                       0.00011                      -0.00000                       1.00000
                       0.00020                      -0.00000                       1.00000
                       0.00029                      -0.00000                       1.00000
                       0.00038                      -0.00000                       1.00000
                       0.00047                      -0.00000                       1.00000
                       0.00055                      -0.00001                       1.00000
                       0.00062                      -0.00001                       1.00000
                       0.00069                      -0.00001                       1.00000
                       0.00076                      -0.00001                       1.00000
                       0.00083                      -0.00001                       1.00000
                       0.00089                      -0.00001                       1.00000
                       0.00097                      -0.00001                       1.00000
                       0.00104                      -0.00002                       1.00000
                       0.00111                      -0.00002                       1.00000
                       0.00118                      -0.00002                       1.00000
                       0.00123                      -0.00002                       1.00000
                       0.00126                      -0.00002                       1.00000
                       0.00125                      -0.00002                       1.00000
                       0.00119                      -0.00002                       1.00000
                       0.00114                      -0.00002                       1.00000
                       0.00000                      -0.00000                       1.00000
        </DataArray>
      </PointData>
      <Lines>
        <DataArray type="Int32" Name="connectivity" format="ascii">
      0      1
      1      2
      2      3
      3      4
      4      5
      5      6
      6      7
      7      8
      8      9
      9     10
     10     11
     11     12
     12     13
     13     14
     14     15
     15     16
     16     17
     17     18
     18     19
     19     20
     21      0
        </DataArray>
        <DataArray type="Int32" Name="offsets" format="ascii">
      2
      4
      6
      8
     10
     12
     14
     16
     18
     20
     22
     24
     26
     28
     30
     32
     34
     36
     38
     40
     42
        </DataArray>
      </Lines>
    </Piece>
  </PolyData>
</VTKFile>
