<?xml version="1.0"?>
<VTKFile type="PolyData" version="0.1" byte_order="LittleEndian">
  <PolyData>
    <Piece NumberOfPoints="     22" NumberOfVerts="  0" NumberOfLines="     21"
           NumberOfStrips="  0" NumberOfPolys="      0">
      <Points>
        <DataArray type="Float32" NumberOfComponents="3" format="ascii">
                       0.00003                      -0.00000                       2.19000
                       0.00025                      -0.00001                       6.57000
                       0.00075                      -0.00002                      10.95000
                       0.00155                      -0.00005                      15.33000
                       0.00263                      -0.00007                      19.71000
                       0.00399                      -0.00011                      24.09000
                       0.00561                      -0.00015                      28.47000
                       0.00748                      -0.00019                      32.85000
                       0.00959                      -0.00024                      37.23000
                       0.01192                      -0.00030                      41.61000
                       0.01448                      -0.00036                      45.99000
                       0.01726                      -0.00043                      50.37000
                       0.02028                      -0.00050                      54.75000
                       0.02355                      -0.00058                      59.12999
                       0.02705                      -0.00067                      63.50999
                       0.03080                      -0.00076                      67.88999
                       0.03475                      -0.00085                      72.26999
                       0.03884                      -0.00095                      76.64999
                       0.04299                      -0.00105                      81.02999
                       0.04705                      -0.00116                      85.40998
                       0.04897                      -0.00121                      87.59998
                       0.00000                       0.00000                       0.00000
        </DataArray>
      </Points>
      <PointData>
        <DataArray type="Float32" Name="TranslationalVelocity" NumberOfComponents="3" format="ascii">
                       0.00001                      -0.00000                      -0.00000
                       0.00009                      -0.00001                      -0.00000
                       0.00018                      -0.00002                      -0.00000
                       0.00023                      -0.00004                      -0.00000
                       0.00018                      -0.00006                      -0.00000
                      -0.00004                      -0.00008                       0.00000
                      -0.00051                      -0.00009                       0.00000
                      -0.00132                      -0.00010                       0.00000
                      -0.00258                      -0.00010                       0.00000
                      -0.00441                      -0.00008                       0.00000
                      -0.00691                      -0.00005                       0.00000
                      -0.01020                      -0.00000                       0.00001
                      -0.01440                       0.00007                       0.00001
                      -0.01959                       0.00017                       0.00001
                      -0.02583                       0.00030                       0.00002
                      -0.03314                       0.00046                       0.00002
                      -0.04146                       0.00065                       0.00003
                      -0.05067                       0.00087                       0.00004
                      -0.06057                       0.00111                       0.00005
                      -0.07080                       0.00138                       0.00006
                      -0.07590                       0.00152                       0.00006
                       0.00000                      -0.00000                       0.00000
        </DataArray>
        <DataArray type="Float32" Name="RotationalVelocity" NumberOfComponents="3" format="ascii">
                       0.00000                       0.00001                       0.00000
                       0.00000                       0.00002                       0.00000
                       0.00000                       0.00002                       0.00000
                       0.00000                       0.00000                       0.00000
                       0.00000                      -0.00003                       0.00000
                       0.00000                      -0.00008                       0.00000
                       0.00000                      -0.00014                       0.00000
                       0.00000                      -0.00023                       0.00000
                      -0.00000                      -0.00035                       0.00000
                      -0.00000                      -0.00049                       0.00000
                      -0.00001                      -0.00066                       0.00000
                      -0.00001                      -0.00085                       0.00000
                      -0.00002                      -0.00107                       0.00000
                      -0.00003                      -0.00130                       0.00000
                      -0.00003                      -0.00155                       0.00000
                      -0.00004                      -0.00179                       0.00000
                      -0.00005                      -0.00201                       0.00000
                      -0.00005                      -0.00219                       0.00000
                      -0.00006                      -0.00231                       0.00000
                      -0.00006                      -0.00234                       0.00000
                      -0.00006                      -0.00231                       0.00000
                       0.00000                      -0.00000                       0.00000
        </DataArray>
        <DataArray type="Float32" Name="TranslationalAcceleration" NumberOfComponents="3" format="ascii">
                       0.00049                       0.00008                      -0.00000
                       0.00451                       0.00071                      -0.00000
                       0.01263                       0.00183                      -0.00000
                       0.02459                       0.00335                      -0.00000
                       0.03983                       0.00517                      -0.00001
                       0.05753                       0.00720                      -0.00001
                       0.07672                       0.00936                      -0.00002
                       0.09631                       0.01155                      -0.00003
                       0.11514                       0.01367                      -0.00004
                       0.13205                       0.01561                      -0.00005
                       0.14592                       0.01726                      -0.00006
                       0.15572                       0.01850                      -0.00007
                       0.16056                       0.01920                      -0.00007
                       0.15970                       0.01925                      -0.00008
                       0.15265                       0.01857                      -0.00008
                       0.13911                       0.01707                      -0.00008
                       0.11911                       0.01472                      -0.00008
                       0.09294                       0.01154                      -0.00007
                       0.06123                       0.00759                      -0.00007
                       0.02498                       0.00306                      -0.00006
                       0.00557                       0.00064                      -0.00005
                       0.00000                      -0.00000                       0.00000
        </DataArray>
        <DataArray type="Float32" Name="RotationalAcceleration" NumberOfComponents="3" format="ascii">
                      -0.00008                       0.00045                       0.00000
                      -0.00020                       0.00139                       0.00000
                      -0.00031                       0.00231                       0.00000
                      -0.00038                       0.00313                       0.00000
                      -0.00044                       0.00379                       0.00000
                      -0.00048                       0.00425                       0.00000
                      -0.00050                       0.00447                       0.00000
                      -0.00050                       0.00443                       0.00000
                      -0.00047                       0.00412                       0.00000
                      -0.00041                       0.00355                       0.00000
                      -0.00033                       0.00274                       0.00000
                      -0.00023                       0.00170                       0.00000
                      -0.00009                       0.00048                       0.00000
                       0.00007                      -0.00089                       0.00000
                       0.00025                      -0.00235                       0.00000
                       0.00044                      -0.00383                       0.00000
                       0.00063                      -0.00529                       0.00000
                       0.00082                      -0.00664                       0.00000
                       0.00098                      -0.00780                       0.00000
                       0.00109                      -0.00870                       0.00000
                       0.00112                      -0.00902                       0.00000
                       0.00000                      -0.00000                       0.00000
        </DataArray>
        <DataArray type="Float32" Name="OrientationX" NumberOfComponents="3" format="ascii">
                       1.00000                       0.00000                      -0.00002
                       1.00000                       0.00000                      -0.00008
                       1.00000                       0.00000                      -0.00015
                       1.00000                       0.00000                      -0.00021
                       1.00000                       0.00000                      -0.00028
                       1.00000                       0.00000                      -0.00034
                       1.00000                       0.00000                      -0.00040
                       1.00000                       0.00000                      -0.00045
                       1.00000                       0.00000                      -0.00051
                       1.00000                       0.00000                      -0.00056
                       1.00000                       0.00000                      -0.00061
                       1.00000                       0.00000                      -0.00066
                       1.00000                       0.00000                      -0.00072
                       1.00000                       0.00000                      -0.00077
                       1.00000                       0.00000                      -0.00083
                       1.00000                       0.00000                      -0.00088
                       1.00000                       0.00000                      -0.00092
                       1.00000                       0.00000                      -0.00095
                       1.00000                       0.00000                      -0.00094
                       1.00000                       0.00000                      -0.00090
                       1.00000                       0.00000                      -0.00086
                       1.00000                      -0.00000                       0.00000
        </DataArray>
        <DataArray type="Float32" Name="OrientationY" NumberOfComponents="3" format="ascii">
                       0.00000                       1.00000                       0.00000
                       0.00000                       1.00000                       0.00000
                       0.00000                       1.00000                       0.00000
                       0.00000                       1.00000                       0.00001
                       0.00000                       1.00000                       0.00001
                       0.00000                       1.00000                       0.00001
                       0.00000                       1.00000                       0.00001
                       0.00000                       1.00000                       0.00001
                       0.00000                       1.00000                       0.00001
                       0.00000                       1.00000                       0.00001
                       0.00000                       1.00000                       0.00001
                       0.00000                       1.00000                       0.00002
                       0.00000                       1.00000                       0.00002
                       0.00000                       1.00000                       0.00002
                       0.00000                       1.00000                       0.00002
                       0.00000                       1.00000                       0.00002
                       0.00000                       1.00000                       0.00002
                       0.00000                       1.00000                       0.00002
                       0.00000                       1.00000                       0.00002
                       0.00000                       1.00000                       0.00002
                       0.00000                       1.00000                       0.00002
                      -0.00000                       1.00000                      -0.00000
        </DataArray>
        <DataArray type="Float32" Name="OrientationZ" NumberOfComponents="3" format="ascii">
                       0.00002                      -0.00000                       1.00000
                       0.00008                      -0.00000                       1.00000
                       0.00015                      -0.00000                       1.00000
                       0.00021                      -0.00001                       1.00000
                       0.00028                      -0.00001                       1.00000
                       0.00034                      -0.00001                       1.00000
                       0.00040                      -0.00001                       1.00000
                       0.00045                      -0.00001                       1.00000
                       0.00051                      -0.00001                       1.00000
                       0.00056                      -0.00001                       1.00000
                       0.00061                      -0.00001                       1.00000
                       0.00066                      -0.00002                       1.00000
                       0.00072                      -0.00002                       1.00000
                       0.00077                      -0.00002                       1.00000
                       0.00083                      -0.00002                       1.00000
                       0.00088                      -0.00002                       1.00000
                       0.00092                      -0.00002                       1.00000
                       0.00095                      -0.00002                       1.00000
                       0.00094                      -0.00002                       1.00000
                       0.00090                      -0.00002                       1.00000
                       0.00086                      -0.00002                       1.00000
                       0.00000                      -0.00000                       1.00000
        </DataArray>
      </PointData>
      <Lines>
        <DataArray type="Int32" Name="connectivity" format="ascii">
      0      1
      1      2
      2      3
      3      4
      4      5
      5      6
      6      7
      7      8
      8      9
      9     10
     10     11
     11     12
     12     13
     13     14
     14     15
     15     16
     16     17
     17     18
     18     19
     19     20
     21      0
        </DataArray>
        <DataArray type="Int32" Name="offsets" format="ascii">
      2
      4
      6
      8
     10
     12
     14
     16
     18
     20
     22
     24
     26
     28
     30
     32
     34
     36
     38
     40
     42
        </DataArray>
      </Lines>
    </Piece>
  </PolyData>
</VTKFile>
