<?xml version="1.0"?>
<VTKFile type="PolyData" version="0.1" byte_order="LittleEndian">
  <PolyData>
    <Piece NumberOfPoints="     19" NumberOfVerts="  0" NumberOfLines="     18"
           NumberOfStrips="  0" NumberOfPolys="      0">
      <Points>
        <DataArray type="Float32" NumberOfComponents="3" format="ascii">
                      -5.15051                      -0.57101                      88.62810
                      -5.32151                      -1.08745                      87.37432
                      -5.68840                      -2.03197                      84.83358
                      -6.06655                      -2.93420                      82.27689
                      -6.54505                      -4.03606                      79.07107
                      -7.05956                      -5.48979                      75.27063
                      -7.54265                      -7.06229                      71.51510
                      -8.02409                      -8.63525                      67.75952
                      -8.50091                     -10.21049                      64.00423
                      -8.97355                     -11.78641                      60.24865
                      -9.44310                     -13.35981                      56.49161
                      -9.90851                     -14.93234                      52.73366
                     -10.37024                     -16.50423                      48.97498
                     -10.82900                     -18.07564                      45.21572
                     -11.28315                     -19.64664                      41.45573
                     -11.65813                     -20.95558                      38.32187
                     -11.95601                     -22.00986                      35.81752
                     -12.25131                     -23.11494                      33.33366
                     -12.40039                     -23.62876                      32.07614
        </DataArray>
      </Points>
      <PointData>
        <DataArray type="Float32" Name="TranslationalVelocity" NumberOfComponents="3" format="ascii">
                       0.05039                       0.14176                      -0.05294
                       0.04443                       0.27156                      -0.10559
                       0.03330                       0.53467                      -0.20180
                       0.02261                       0.79937                      -0.29363
                       0.00959                       1.13109                      -0.40573
                      -0.00695                       1.52351                      -0.55366
                      -0.02419                       1.91073                      -0.71365
                      -0.04107                       2.29761                      -0.87358
                      -0.05753                       2.68415                      -1.03368
                      -0.07352                       3.07046                      -1.19381
                      -0.08896                       3.45672                      -1.35368
                      -0.10387                       3.84294                      -1.51347
                      -0.11826                       4.22913                      -1.67322
                      -0.13217                       4.61531                      -1.83297
                      -0.14567                       5.00151                      -1.99271
                      -0.15670                       5.32335                      -2.12582
                      -0.16551                       5.58049                      -2.23303
                      -0.17474                       5.83547                      -2.34538
                      -0.17905                       5.96454                      -2.39761
        </DataArray>
        <DataArray type="Float32" Name="RotationalVelocity" NumberOfComponents="3" format="ascii">
                       0.10232                       0.00105                      -0.00901
                       0.10230                       0.00105                      -0.00900
                       0.10225                       0.00103                      -0.00899
                       0.10220                       0.00101                      -0.00897
                       0.10213                       0.00097                      -0.00895
                       0.10204                       0.00091                      -0.00892
                       0.10195                       0.00084                      -0.00888
                       0.10188                       0.00075                      -0.00884
                       0.10182                       0.00065                      -0.00880
                       0.10177                       0.00054                      -0.00875
                       0.10174                       0.00042                      -0.00870
                       0.10172                       0.00030                      -0.00866
                       0.10171                       0.00018                      -0.00861
                       0.10170                       0.00007                      -0.00857
                       0.10169                      -0.00001                      -0.00854
                       0.10168                      -0.00006                      -0.00852
                       0.10167                      -0.00007                      -0.00852
                       0.10167                      -0.00006                      -0.00853
                       0.10166                      -0.00004                      -0.00854
        </DataArray>
        <DataArray type="Float32" Name="TranslationalAcceleration" NumberOfComponents="3" format="ascii">
                       0.02220                       0.01529                       0.01744
                       0.00557                       0.02027                       0.01453
                       0.01301                       0.05801                       0.04141
                       0.01683                       0.09268                       0.06603
                       0.01877                       0.13351                       0.09411
                       0.01956                       0.18100                       0.12264
                       0.02128                       0.22838                       0.14743
                       0.02572                       0.27591                       0.17151
                       0.03347                       0.32422                       0.19559
                       0.04423                       0.37351                       0.21998
                       0.05695                       0.42365                       0.24470
                       0.06987                       0.47436                       0.26958
                       0.08071                       0.52527                       0.29448
                       0.08674                       0.57605                       0.31940
                       0.08494                       0.62650                       0.34465
                       0.07489                       0.66826                       0.36646
                       0.06011                       0.70174                       0.38470
                       0.03823                       0.73581                       0.40357
                       0.02432                       0.75276                       0.41417
        </DataArray>
        <DataArray type="Float32" Name="OrientationX" NumberOfComponents="3" format="ascii">
                       0.95735                       0.19670                      -0.21166
                       0.95735                       0.19673                      -0.21158
                       0.95738                       0.19684                      -0.21135
                       0.95743                       0.19699                      -0.21102
                       0.95749                       0.19723                      -0.21050
                       0.96541                       0.16866                      -0.19883
                       0.97055                       0.14813                      -0.18997
                       0.97464                       0.13025                      -0.18197
                       0.97854                       0.11133                      -0.17342
                       0.98209                       0.09186                      -0.16450
                       0.98504                       0.07349                      -0.15588
                       0.98756                       0.05529                      -0.14721
                       0.98951                       0.03886                      -0.13917
                       0.99079                       0.02658                      -0.13276
                       0.99186                       0.01446                      -0.12647
                       0.99261                       0.00427                      -0.12130
                       0.99307                      -0.00333                      -0.11752
                       0.99330                      -0.00732                      -0.11535
                       0.99332                      -0.00721                      -0.11520
        </DataArray>
        <DataArray type="Float32" Name="OrientationY" NumberOfComponents="3" format="ascii">
                       0.26076                      -0.90371                       0.33958
                       0.26075                      -0.90373                       0.33952
                       0.26074                      -0.90379                       0.33939
                       0.26073                      -0.90386                       0.33921
                       0.26072                      -0.90395                       0.33897
                       0.23005                      -0.90990                       0.34518
                       0.20782                      -0.91366                       0.34933
                       0.18835                      -0.91657                       0.35275
                       0.16771                      -0.91922                       0.35623
                       0.14644                      -0.92152                       0.35966
                       0.12628                      -0.92329                       0.36275
                       0.10627                      -0.92466                       0.36566
                       0.08813                      -0.92558                       0.36815
                       0.07441                      -0.92608                       0.36991
                       0.06089                      -0.92640                       0.37159
                       0.04957                      -0.92653                       0.37294
                       0.04114                      -0.92655                       0.37392
                       0.03665                      -0.92653                       0.37442
                       0.03669                      -0.92654                       0.37441
        </DataArray>
        <DataArray type="Float32" Name="OrientationZ" NumberOfComponents="3" format="ascii">
                      -0.12448                      -0.38028                      -0.91645
                      -0.12442                      -0.38022                      -0.91649
                      -0.12422                      -0.38003                      -0.91660
                      -0.12391                      -0.37979                      -0.91674
                      -0.12342                      -0.37944                      -0.91695
                      -0.12269                      -0.37898                      -0.91723
                      -0.12183                      -0.37852                      -0.91754
                      -0.12084                      -0.37808                      -0.91785
                      -0.11975                      -0.37767                      -0.91816
                      -0.11855                      -0.37731                      -0.91847
                      -0.11726                      -0.37701                      -0.91876
                      -0.11590                      -0.37675                      -0.91903
                      -0.11451                      -0.37655                      -0.91929
                      -0.11311                      -0.37639                      -0.91953
                      -0.11179                      -0.37627                      -0.91974
                      -0.11080                      -0.37620                      -0.91989
                      -0.11013                      -0.37616                      -0.91999
                      -0.10962                      -0.37614                      -0.92006
                      -0.10943                      -0.37614                      -0.92008
        </DataArray>
        <DataArray type="Float32" Name="Force" NumberOfComponents="3" format="ascii">
                     132.92631                      -9.73312                     -14.01658
                     118.14478                     -14.37731                     -10.07328
                     138.66126                     -21.81429                      -9.74029
                     110.25041                     -19.79844                      -6.68865
                     727.61346                     224.93116                    -191.27798
                     668.70359                     173.29494                    -161.36297
                     654.98300                     154.55306                    -151.10480
                     556.58569                     114.83378                    -120.93673
                     481.07523                      81.24059                     -96.46175
                     451.94197                      66.97967                     -86.13654
                     405.02021                      44.20086                     -70.04611
                     377.32473                      34.06783                     -61.73464
                     316.77706                      20.34241                     -47.91006
                     290.13910                      15.02586                     -41.93647
                     263.23013                      10.16190                     -36.22189
                     241.08643                       6.70943                     -31.83356
                     216.91483                       4.33874                     -27.77785
                     146.98001                       2.36841                     -18.50185
                     146.43620                       2.35238                     -18.40050
        </DataArray>
        <DataArray type="Float32" Name="Moment" NumberOfComponents="3" format="ascii">
                       0.00000                       0.00000                       0.00000
                       0.00000                       0.00000                       0.00000
                       0.00000                       0.00000                       0.00000
                       0.00000                       0.00000                       0.00000
                      72.11168                     222.24989                     535.66206
                      75.19402                     233.17067                     562.02370
                      69.34162                     216.58989                     522.10265
                      63.43878                     199.80318                     481.68385
                      55.24215                     175.60970                     423.40375
                      47.54353                     152.68826                     368.18201
                      37.18010                     120.73548                     291.16972
                      31.51062                     103.53923                     249.73161
                      26.08899                      86.78351                     209.34599
                      21.48187                      72.34724                     174.54523
                      17.40720                      59.32417                     143.14402
                      14.41347                      49.56380                     119.60453
                      11.55417                      39.97400                      96.46919
                       5.26036                      18.28501                      44.12935
                       5.20915                      18.13770                      43.77461
        </DataArray>
      </PointData>
      <Lines>
        <DataArray type="Int32" Name="connectivity" format="ascii">
      0      1
      1      2
      2      3
      3      4
      4      5
      5      6
      6      7
      7      8
      8      9
      9     10
     10     11
     11     12
     12     13
     13     14
     14     15
     15     16
     16     17
     17     18
        </DataArray>
        <DataArray type="Int32" Name="offsets" format="ascii">
      2
      4
      6
      8
     10
     12
     14
     16
     18
     20
     22
     24
     26
     28
     30
     32
     34
     36
        </DataArray>
      </Lines>
    </Piece>
  </PolyData>
</VTKFile>
