<?xml version="1.0"?>
<VTKFile type="PolyData" version="0.1" byte_order="LittleEndian">
  <PolyData>
    <Piece NumberOfPoints="     19" NumberOfVerts="  0" NumberOfLines="     18"
           NumberOfStrips="  0" NumberOfPolys="      0">
      <Points>
        <DataArray type="Float32" NumberOfComponents="3" format="ascii">
                      -4.97675                       1.47084                      90.29133
                      -5.01400                       2.81131                      90.55519
                      -5.10223                       5.47372                      91.17618
                      -5.19665                       8.12780                      91.84023
                      -5.31788                      11.44110                      92.69435
                      -5.42165                      15.44705                      93.57088
                      -5.51078                      19.47903                      94.31350
                      -5.59993                      23.51221                      95.04914
                      -5.68628                      27.54696                      95.77619
                      -5.76991                      31.58280                      96.49705
                      -5.85123                      35.61892                      97.21598
                      -5.92909                      39.65553                      97.93203
                      -6.00364                      43.69255                      98.64580
                      -6.07522                      47.72986                      99.35784
                      -6.14183                      51.76748                     100.06845
                      -6.19331                      55.13241                     100.65959
                      -6.23287                      57.82585                     101.12411
                      -6.27590                      60.52923                     101.53404
                      -6.29368                      61.87348                     101.77958
        </DataArray>
      </Points>
      <PointData>
        <DataArray type="Float32" Name="TranslationalVelocity" NumberOfComponents="3" format="ascii">
                       0.05006                      -0.03123                       0.16003
                       0.06289                      -0.05904                       0.30312
                       0.08845                      -0.12450                       0.58736
                       0.11401                      -0.19451                       0.87078
                       0.14605                      -0.28459                       1.22471
                       0.18490                      -0.37729                       1.65278
                       0.22419                      -0.45585                       2.08384
                       0.26380                      -0.53370                       2.51525
                       0.30377                      -0.61069                       2.94705
                       0.34413                      -0.68708                       3.37918
                       0.38486                      -0.76330                       3.81153
                       0.42598                      -0.83928                       4.24410
                       0.46746                      -0.91505                       4.67686
                       0.50926                      -0.99069                       5.10976
                       0.55132                      -1.06623                       5.54279
                       0.58652                      -1.12911                       5.90372
                       0.61473                      -1.17853                       6.19265
                       0.64302                      -1.22207                       6.48267
                       0.65710                      -1.24823                       6.62688
        </DataArray>
        <DataArray type="Float32" Name="RotationalVelocity" NumberOfComponents="3" format="ascii">
                       0.10672                       0.00059                      -0.00945
                       0.10673                       0.00059                      -0.00945
                       0.10675                       0.00060                      -0.00947
                       0.10677                       0.00060                      -0.00949
                       0.10681                       0.00061                      -0.00953
                       0.10686                       0.00062                      -0.00959
                       0.10692                       0.00063                      -0.00966
                       0.10697                       0.00064                      -0.00974
                       0.10702                       0.00065                      -0.00983
                       0.10707                       0.00066                      -0.00992
                       0.10711                       0.00067                      -0.01001
                       0.10715                       0.00067                      -0.01010
                       0.10718                       0.00067                      -0.01019
                       0.10721                       0.00066                      -0.01027
                       0.10723                       0.00065                      -0.01032
                       0.10724                       0.00063                      -0.01036
                       0.10725                       0.00062                      -0.01037
                       0.10725                       0.00061                      -0.01036
                       0.10725                       0.00061                      -0.01035
        </DataArray>
        <DataArray type="Float32" Name="TranslationalAcceleration" NumberOfComponents="3" format="ascii">
                      -0.09295                      -0.01911                      -0.00287
                      -0.02743                      -0.02318                       0.00696
                      -0.06715                      -0.06685                       0.02073
                      -0.09042                      -0.10770                       0.03427
                      -0.10383                      -0.15601                       0.05160
                      -0.10505                      -0.20986                       0.07511
                      -0.09910                      -0.26122                       0.10117
                      -0.09279                      -0.31253                       0.12786
                      -0.08970                      -0.36460                       0.15521
                      -0.09144                      -0.41769                       0.18327
                      -0.09822                      -0.47170                       0.21213
                      -0.10947                      -0.52628                       0.24195
                      -0.12444                      -0.58099                       0.27284
                      -0.14282                      -0.63552                       0.30483
                      -0.16537                      -0.68975                       0.33792
                      -0.18916                      -0.73487                       0.36622
                      -0.21289                      -0.77109                       0.38940
                      -0.24271                      -0.80744                       0.41358
                      -0.26095                      -0.82625                       0.42522
        </DataArray>
        <DataArray type="Float32" Name="OrientationX" NumberOfComponents="3" format="ascii">
                       0.98908                      -0.00153                       0.14740
                       0.98908                      -0.00156                       0.14740
                       0.98908                      -0.00162                       0.14739
                       0.98908                      -0.00171                       0.14738
                       0.98908                      -0.00186                       0.14738
                       0.99320                       0.00391                       0.11631
                       0.99556                       0.00782                       0.09383
                       0.99719                       0.01101                       0.07414
                       0.99848                       0.01422                       0.05330
                       0.99934                       0.01734                       0.03183
                       0.99973                       0.02003                       0.01151
                       0.99971                       0.02251                      -0.00864
                       0.99934                       0.02448                      -0.02690
                       0.99884                       0.02553                      -0.04073
                       0.99817                       0.02653                      -0.05432
                       0.99746                       0.02742                      -0.06567
                       0.99686                       0.02811                      -0.07408
                       0.99651                       0.02824                      -0.07856
                       0.99652                       0.02796                      -0.07853
        </DataArray>
        <DataArray type="Float32" Name="OrientationY" NumberOfComponents="3" format="ascii">
                       0.14493                       0.19262                      -0.97051
                       0.14494                       0.19242                      -0.97055
                       0.14496                       0.19190                      -0.97065
                       0.14499                       0.19125                      -0.97077
                       0.14503                       0.19032                      -0.97095
                       0.11348                       0.18910                      -0.97538
                       0.09070                       0.18779                      -0.97801
                       0.07079                       0.18650                      -0.97990
                       0.04975                       0.18524                      -0.98143
                       0.02810                       0.18404                      -0.98252
                       0.00766                       0.18293                      -0.98310
                      -0.01259                       0.18191                      -0.98324
                      -0.03089                       0.18100                      -0.98300
                      -0.04468                       0.18027                      -0.98260
                      -0.05822                       0.17962                      -0.98201
                      -0.06953                       0.17911                      -0.98137
                      -0.07793                       0.17875                      -0.98080
                      -0.08235                       0.17854                      -0.98048
                      -0.08228                       0.17850                      -0.98049
        </DataArray>
        <DataArray type="Float32" Name="OrientationZ" NumberOfComponents="3" format="ascii">
                      -0.02690                       0.98127                       0.19074
                      -0.02685                       0.98131                       0.19055
                      -0.02671                       0.98141                       0.19004
                      -0.02653                       0.98154                       0.18941
                      -0.02624                       0.98172                       0.18851
                      -0.02581                       0.98195                       0.18737
                      -0.02527                       0.98218                       0.18624
                      -0.02462                       0.98239                       0.18519
                      -0.02383                       0.98259                       0.18425
                      -0.02289                       0.98277                       0.18343
                      -0.02180                       0.98292                       0.18273
                      -0.02056                       0.98306                       0.18214
                      -0.01919                       0.98318                       0.18163
                      -0.01775                       0.98329                       0.18120
                      -0.01629                       0.98338                       0.18083
                      -0.01515                       0.98345                       0.18057
                      -0.01433                       0.98349                       0.18038
                      -0.01366                       0.98353                       0.18024
                      -0.01340                       0.98354                       0.18018
        </DataArray>
        <DataArray type="Float32" Name="Force" NumberOfComponents="3" format="ascii">
                     154.94766                       4.49688                      -1.27979
                     154.83508                       4.84420                      -3.13680
                     168.38279                       6.02322                      -7.45754
                     127.47253                       5.12501                      -8.71446
                     720.71831                     -15.61808                     178.84757
                     684.21776                      -8.45322                     135.11449
                     669.89740                      -5.69419                     116.80796
                     594.82085                      -2.22957                      86.87757
                     535.34080                       1.49793                      57.72768
                     510.22681                       3.04276                      44.02989
                     475.19044                       5.88478                      22.42651
                     450.50784                       6.74287                      12.22300
                     396.11535                       7.30124                       0.74398
                     369.73963                       7.29490                      -4.65515
                     343.06412                       7.18002                      -9.11735
                     320.46424                       7.03979                     -12.20548
                     293.12342                       6.67069                     -13.64342
                     202.14042                       4.63058                     -10.29353
                     203.36246                       4.61224                     -10.40381
        </DataArray>
        <DataArray type="Float32" Name="Moment" NumberOfComponents="3" format="ascii">
                       0.00000                       0.00000                       0.00000
                       0.00000                       0.00000                       0.00000
                       0.00000                       0.00000                       0.00000
                       0.00000                       0.00000                       0.00000
                      18.32824                    -690.41725                    -134.15051
                      18.37815                    -706.69822                    -137.28010
                      16.49386                    -650.34452                    -126.29600
                      14.79388                    -601.23230                    -116.71824
                      12.67999                    -534.48925                    -103.71954
                      10.71021                    -471.78363                     -91.50860
                       8.23360                    -382.36755                     -74.12562
                       6.76783                    -334.64650                     -64.83564
                       5.39356                    -286.95634                     -55.55969
                       4.23713                    -245.00875                     -47.40533
                       3.25732                    -206.28274                     -39.88500
                       2.57711                    -176.42568                     -34.09362
                       1.99781                    -145.12580                     -28.03422
                       0.88629                     -67.79014                     -13.09099
                       0.87088                     -68.02770                     -13.13523
        </DataArray>
      </PointData>
      <Lines>
        <DataArray type="Int32" Name="connectivity" format="ascii">
      0      1
      1      2
      2      3
      3      4
      4      5
      5      6
      6      7
      7      8
      8      9
      9     10
     10     11
     11     12
     12     13
     13     14
     14     15
     15     16
     16     17
     17     18
        </DataArray>
        <DataArray type="Int32" Name="offsets" format="ascii">
      2
      4
      6
      8
     10
     12
     14
     16
     18
     20
     22
     24
     26
     28
     30
     32
     34
     36
        </DataArray>
      </Lines>
    </Piece>
  </PolyData>
</VTKFile>
