<?xml version="1.0"?>
<VTKFile type="PolyData" version="0.1" byte_order="LittleEndian">
  <PolyData>
    <Piece NumberOfPoints="     19" NumberOfVerts="  0" NumberOfLines="     18"
           NumberOfStrips="  0" NumberOfPolys="      0">
      <Points>
        <DataArray type="Float32" NumberOfComponents="3" format="ascii">
                      -4.65856                       1.42668                      89.64262
                      -4.75317                       2.74254                      89.28517
                      -4.95140                       5.39866                      88.66190
                      -5.14913                       8.06664                      88.08059
                      -5.38758                      11.40936                      87.37703
                      -5.61113                      15.38452                      86.38552
                      -5.79007                      19.32562                      85.26210
                      -5.92938                      23.26630                      84.13172
                      -6.01744                      27.20580                      82.99266
                      -6.04522                      31.14403                      81.84706
                      -6.00442                      35.08113                      80.69874
                      -5.88602                      39.01540                      79.54632
                      -5.68357                      42.94524                      78.38986
                      -5.39249                      46.86865                      77.22930
                      -5.00803                      50.78292                      76.06423
                      -4.61433                      54.03535                      75.08936
                      -4.25594                      56.62777                      74.29914
                      -3.86570                      59.19772                      73.45338
                      -3.65302                      60.49044                      73.06928
        </DataArray>
      </Points>
      <PointData>
        <DataArray type="Float32" Name="TranslationalVelocity" NumberOfComponents="3" format="ascii">
                       0.15184                       0.48556                       1.73231
                       0.30287                       0.92573                       3.31268
                       0.60854                       1.69701                       6.50242
                       0.91680                       2.41782                       9.70598
                       1.30531                       3.29021                      13.71909
                       1.77176                       4.50677                      18.49069
                       2.24072                       5.87658                      23.22066
                       2.71826                       7.25014                      27.94957
                       3.20664                       8.62798                      32.67673
                       3.70832                      10.00614                      37.40225
                       4.22582                      11.37858                      42.12649
                       4.76135                      12.74523                      46.84758
                       5.31691                      14.10441                      51.56368
                       5.89414                      15.45460                      56.27239
                       6.49416                      16.79432                      60.97036
                       7.01240                      17.90187                      64.87401
                       7.43799                      18.79136                      67.98535
                       7.87165                      19.73982                      71.06938
                       8.09357                      20.16354                      72.62056
        </DataArray>
        <DataArray type="Float32" Name="RotationalVelocity" NumberOfComponents="3" format="ascii">
                       1.20109                      -0.00018                      -0.11471
                       1.20104                      -0.00021                      -0.11481
                       1.20091                      -0.00028                      -0.11513
                       1.20076                      -0.00038                      -0.11562
                       1.20058                      -0.00053                      -0.11646
                       1.20038                      -0.00075                      -0.11782
                       1.20022                      -0.00102                      -0.11961
                       1.20011                      -0.00137                      -0.12190
                       1.20004                      -0.00181                      -0.12474
                       1.20000                      -0.00238                      -0.12820
                       1.19996                      -0.00309                      -0.13230
                       1.19990                      -0.00396                      -0.13702
                       1.19980                      -0.00498                      -0.14230
                       1.19962                      -0.00615                      -0.14798
                       1.19935                      -0.00743                      -0.15386
                       1.19903                      -0.00854                      -0.15867
                       1.19872                      -0.00942                      -0.16229
                       1.19834                      -0.01026                      -0.16554
                       1.19814                      -0.01065                      -0.16696
        </DataArray>
        <DataArray type="Float32" Name="TranslationalAcceleration" NumberOfComponents="3" format="ascii">
                       0.03668                      -2.03708                       0.74473
                       0.07473                      -2.48216                       0.89505
                       0.20649                      -7.14555                       2.44186
                       0.32644                     -11.46521                       3.79889
                       0.46873                     -16.52998                       5.34594
                       0.65558                     -22.21593                       7.29739
                       0.86070                     -27.67921                       9.38803
                       1.06967                     -33.12085                      11.48934
                       1.28333                     -38.61150                      13.62539
                       1.50064                     -44.17547                      15.79690
                       1.71924                     -49.80314                      17.98921
                       1.93667                     -55.46111                      20.18685
                       2.14975                     -61.10935                      22.36988
                       2.35512                     -66.71393                      24.52125
                       2.54950                     -72.26003                      26.63163
                       2.70071                     -76.84828                      28.36054
                       2.81514                     -80.51403                      29.74430
                       2.92940                     -84.18283                      31.20675
                       2.97837                     -86.06318                      31.88720
        </DataArray>
        <DataArray type="Float32" Name="OrientationX" NumberOfComponents="3" format="ascii">
                       0.98780                       0.10293                       0.11685
                       0.98784                       0.10240                       0.11698
                       0.98797                       0.10069                       0.11738
                       0.98816                       0.09813                       0.11793
                       0.98848                       0.09384                       0.11879
                       0.99287                       0.07876                       0.08951
                       0.99557                       0.06396                       0.06899
                       0.99752                       0.04780                       0.05160
                       0.99902                       0.02904                       0.03354
                       0.99985                       0.00773                       0.01543
                       0.99988                      -0.01563                      -0.00093
                       0.99902                      -0.04109                      -0.01646
                       0.99727                      -0.06775                      -0.02948
                       0.99485                      -0.09414                      -0.03761
                       0.99171                      -0.12034                      -0.04514
                       0.98867                      -0.14106                      -0.05137
                       0.98619                      -0.15589                      -0.05586
                       0.98423                      -0.16754                      -0.05683
                       0.98359                      -0.17171                      -0.05529
        </DataArray>
        <DataArray type="Float32" Name="OrientationY" NumberOfComponents="3" format="ascii">
                       0.13958                      -0.25251                      -0.95747
                       0.13958                      -0.25282                      -0.95739
                       0.13957                      -0.25366                      -0.95717
                       0.13949                      -0.25472                      -0.95690
                       0.13928                      -0.25628                      -0.95652
                       0.10719                      -0.26101                      -0.95937
                       0.08357                      -0.26457                      -0.96074
                       0.06255                      -0.26747                      -0.96153
                       0.04015                      -0.26989                      -0.96205
                       0.01695                      -0.27165                      -0.96225
                      -0.00516                      -0.27264                      -0.96210
                      -0.02707                      -0.27284                      -0.96168
                      -0.04691                      -0.27232                      -0.96106
                      -0.06199                      -0.27146                      -0.96045
                      -0.07646                      -0.27016                      -0.95977
                      -0.08819                      -0.26880                      -0.95915
                      -0.09662                      -0.26769                      -0.95865
                      -0.10083                      -0.26726                      -0.95833
                      -0.10057                      -0.26750                      -0.95829
        </DataArray>
        <DataArray type="Float32" Name="OrientationZ" NumberOfComponents="3" format="ascii">
                      -0.06904                       0.96210                      -0.26380
                      -0.06846                       0.96208                      -0.26404
                      -0.06661                       0.96204                      -0.26466
                      -0.06386                       0.96202                      -0.26540
                      -0.05931                       0.96204                      -0.26639
                      -0.05220                       0.96212                      -0.26759
                      -0.04319                       0.96224                      -0.26874
                      -0.03216                       0.96238                      -0.26980
                      -0.01889                       0.96245                      -0.27079
                      -0.00325                       0.96237                      -0.27174
                       0.01478                       0.96199                      -0.27269
                       0.03503                       0.96118                      -0.27369
                       0.05708                       0.95982                      -0.27475
                       0.08021                       0.95783                      -0.27590
                       0.10330                       0.95527                      -0.27712
                       0.12149                       0.95281                      -0.27819
                       0.13449                       0.95081                      -0.27906
                       0.14537                       0.94895                      -0.27994
                       0.14976                       0.94813                      -0.28038
        </DataArray>
        <DataArray type="Float32" Name="Force" NumberOfComponents="3" format="ascii">
                      -0.04972                      -0.14633                      -0.52068
                     152.16360                      -1.82335                     -46.12046
                     175.94814                     -15.90166                    -102.28441
                     149.09104                     -25.81483                    -129.93052
                    1542.33647                     200.21872                     383.04483
                    2112.98803                     289.02217                     633.84228
                    2689.51665                     302.19395                     658.03007
                    3161.02749                     272.07199                     601.71466
                    3748.70919                     226.31955                     549.80975
                    4303.18327                     155.00605                     502.53967
                    4978.57528                      51.65799                     454.81274
                    5605.03383                     -88.33727                     407.51897
                    5879.24667                    -240.91654                     378.22919
                    6322.50923                    -430.35665                     341.01007
                    6659.67290                    -632.91524                     297.23283
                    6789.98582                    -793.97420                     242.59772
                    6526.21627                    -871.11564                     174.87929
                    4714.82521                    -691.97530                     101.44767
                    2395.92099                    -419.00792                    -137.37686
        </DataArray>
        <DataArray type="Float32" Name="Moment" NumberOfComponents="3" format="ascii">
                       0.00000                       0.00000                       0.00000
                       0.00000                       0.00000                       0.00000
                       0.00000                       0.00000                       0.00000
                       0.00000                       0.00000                       0.00000
                      32.95419                    -536.05646                     147.50777
                      26.52533                    -490.97661                     135.45234
                      36.31560                    -813.49029                     225.15755
                      39.40994                   -1187.89900                     330.08693
                      30.47446                   -1568.81157                     437.99300
                       5.84037                   -1804.67165                     506.63230
                     -29.42435                   -1906.59063                     538.64362
                     -73.97349                   -2029.62484                     577.47586
                    -112.49052                   -1893.05196                     542.77134
                    -158.56994                   -1895.48700                     547.85619
                    -198.55938                   -1837.81649                     535.46722
                    -222.88262                   -1749.34545                     512.92589
                    -220.45265                   -1559.37821                     459.30490
                    -120.63273                    -787.79212                     232.92354
                    -107.91322                    -683.40664                     202.37206
        </DataArray>
      </PointData>
      <Lines>
        <DataArray type="Int32" Name="connectivity" format="ascii">
      0      1
      1      2
      2      3
      3      4
      4      5
      5      6
      6      7
      7      8
      8      9
      9     10
     10     11
     11     12
     12     13
     13     14
     14     15
     15     16
     16     17
     17     18
        </DataArray>
        <DataArray type="Int32" Name="offsets" format="ascii">
      2
      4
      6
      8
     10
     12
     14
     16
     18
     20
     22
     24
     26
     28
     30
     32
     34
     36
        </DataArray>
      </Lines>
    </Piece>
  </PolyData>
</VTKFile>
