<?xml version="1.0"?>
<VTKFile type="PolyData" version="0.1" byte_order="LittleEndian">
  <PolyData>
    <Piece NumberOfPoints="     19" NumberOfVerts="  0" NumberOfLines="     18"
           NumberOfStrips="  0" NumberOfPolys="      0">
      <Points>
        <DataArray type="Float32" NumberOfComponents="3" format="ascii">
                      -4.43903                      -0.93845                      91.22101
                      -4.39572                      -1.78764                      92.29125
                      -4.33128                      -3.56049                      94.37365
                      -4.27096                      -5.36989                      96.42744
                      -4.18679                      -7.65577                      98.97559
                      -3.99394                     -10.29333                     102.11229
                      -3.72666                     -12.83636                     105.31945
                      -3.40760                     -15.38467                     108.51789
                      -3.02336                     -17.93668                     111.70625
                      -2.56397                     -20.49320                     114.88096
                      -2.02065                     -23.05589                     118.03737
                      -1.38338                     -25.62187                     121.17374
                      -0.64517                     -28.18896                     124.28756
                       0.19879                     -30.75455                     127.37641
                       1.15313                     -33.31545                     130.43731
                       2.03476                     -35.44317                     132.96440
                       2.79282                     -37.13360                     134.97535
                       3.60034                     -38.77516                     137.00625
                       4.01597                     -39.62531                     137.98984
        </DataArray>
      </Points>
      <PointData>
        <DataArray type="Float32" Name="TranslationalVelocity" NumberOfComponents="3" format="ascii">
                      -0.15382                      -2.15400                      -1.69845
                      -0.30398                      -4.12016                      -3.25238
                      -0.61812                      -7.94352                      -6.49760
                      -0.93960                     -11.71553                      -9.81132
                      -1.34720                     -16.39984                     -14.00035
                      -1.82000                     -22.18627                     -18.83776
                      -2.27898                     -28.12033                     -23.50571
                      -2.74269                     -34.05291                     -28.18695
                      -3.21173                     -39.98370                     -32.87814
                      -3.68728                     -45.90770                     -37.58017
                      -4.17089                     -51.81768                     -42.29541
                      -4.66343                     -57.71206                     -47.01773
                      -5.16605                     -63.58751                     -51.74224
                      -5.68000                     -69.44068                     -56.46325
                      -6.20659                     -75.26757                     -61.17394
                      -6.65638                     -80.10019                     -65.08580
                      -7.02226                     -83.95967                     -68.19206
                      -7.38585                     -87.86865                     -71.20690
                      -7.57766                     -89.76821                     -72.76750
        </DataArray>
        <DataArray type="Float32" Name="RotationalVelocity" NumberOfComponents="3" format="ascii">
                       1.82965                       0.00022                      -0.17706
                       1.82994                       0.00018                      -0.17714
                       1.83065                       0.00008                      -0.17738
                       1.83153                       0.00001                      -0.17775
                       1.83275                      -0.00001                      -0.17843
                       1.83428                       0.00012                      -0.17961
                       1.83574                       0.00046                      -0.18125
                       1.83702                       0.00100                      -0.18342
                       1.83803                       0.00170                      -0.18615
                       1.83871                       0.00251                      -0.18946
                       1.83903                       0.00333                      -0.19335
                       1.83899                       0.00404                      -0.19775
                       1.83863                       0.00450                      -0.20256
                       1.83801                       0.00456                      -0.20761
                       1.83724                       0.00406                      -0.21268
                       1.83658                       0.00310                      -0.21669
                       1.83612                       0.00188                      -0.21961
                       1.83576                       0.00019                      -0.22211
                       1.83565                      -0.00083                      -0.22316
        </DataArray>
        <DataArray type="Float32" Name="TranslationalAcceleration" NumberOfComponents="3" format="ascii">
                      -0.37782                       3.07613                      -4.02616
                      -0.46844                       3.71962                      -4.85089
                      -1.32593                      10.90543                     -13.68296
                      -2.10809                      17.67447                     -21.69093
                      -3.01714                      25.71014                     -30.95549
                      -4.07803                      34.53811                     -41.74646
                      -5.13538                      42.83455                     -52.51677
                      -6.18706                      51.13427                     -63.26470
                      -7.24769                      59.52733                     -74.13102
                      -8.32525                      68.04153                     -85.15365
                      -9.42438                      76.65784                     -96.29713
                     -10.55083                      85.31295                    -107.49293
                     -11.71304                      93.93872                    -118.65189
                     -12.92532                     102.47948                    -129.69324
                     -14.21049                     110.91286                    -140.56920
                     -15.36381                     117.87846                    -149.51060
                     -16.35986                     123.42552                    -156.63388
                     -17.46227                     128.87378                    -163.88307
                     -18.03276                     131.75077                    -167.44965
        </DataArray>
        <DataArray type="Float32" Name="OrientationX" NumberOfComponents="3" format="ascii">
                       0.95717                      -0.20694                      -0.20248
                       0.95714                      -0.20646                      -0.20310
                       0.95705                      -0.20491                      -0.20511
                       0.95689                      -0.20260                      -0.20812
                       0.95658                      -0.19883                      -0.21312
                       0.96470                      -0.16881                      -0.20212
                       0.96949                      -0.14420                      -0.19823
                       0.97275                      -0.12051                      -0.19808
                       0.97534                      -0.09462                      -0.19941
                       0.97697                      -0.06693                      -0.20261
                       0.97719                      -0.03885                      -0.20879
                       0.97610                      -0.00974                      -0.21712
                       0.97342                       0.01876                      -0.22828
                       0.96899                       0.04421                      -0.24313
                       0.96366                       0.06926                      -0.25800
                       0.95890                       0.08939                      -0.26931
                       0.95515                       0.10399                      -0.27727
                       0.95149                       0.11416                      -0.28572
                       0.94974                       0.11683                      -0.29042
        </DataArray>
        <DataArray type="Float32" Name="OrientationY" NumberOfComponents="3" format="ascii">
                       0.28773                       0.75751                       0.58599
                       0.28774                       0.75753                       0.58597
                       0.28777                       0.75758                       0.58588
                       0.28782                       0.75766                       0.58575
                       0.28796                       0.75779                       0.58552
                       0.25765                       0.76377                       0.59183
                       0.23604                       0.76739                       0.59615
                       0.21753                       0.77002                       0.59979
                       0.19832                       0.77224                       0.60358
                       0.17900                       0.77393                       0.60745
                       0.16137                       0.77494                       0.61109
                       0.14449                       0.77537                       0.61476
                       0.13002                       0.77524                       0.61814
                       0.12036                       0.77484                       0.62059
                       0.11117                       0.77422                       0.62308
                       0.10349                       0.77352                       0.62526
                       0.09783                       0.77295                       0.62688
                       0.09569                       0.77278                       0.62741
                       0.09664                       0.77300                       0.62701
        </DataArray>
        <DataArray type="Float32" Name="OrientationZ" NumberOfComponents="3" format="ascii">
                       0.03212                      -0.61916                       0.78461
                       0.03287                      -0.61929                       0.78447
                       0.03534                      -0.61974                       0.78401
                       0.03901                      -0.62040                       0.78331
                       0.04508                      -0.62147                       0.78214
                       0.05447                      -0.62302                       0.78031
                       0.06616                      -0.62475                       0.77802
                       0.08024                      -0.62654                       0.77525
                       0.09688                      -0.62824                       0.77196
                       0.11615                      -0.62973                       0.76808
                       0.13806                      -0.63084                       0.76353
                       0.16236                      -0.63144                       0.75824
                       0.18856                      -0.63138                       0.75220
                       0.21582                      -0.63061                       0.74549
                       0.24291                      -0.62912                       0.73838
                       0.26421                      -0.62743                       0.73248
                       0.27950                      -0.62589                       0.72810
                       0.29243                      -0.62432                       0.72437
                       0.29774                      -0.62356                       0.72286
        </DataArray>
        <DataArray type="Float32" Name="Force" NumberOfComponents="3" format="ascii">
                       0.77740                      10.22322                       8.03560
                     179.87782                      63.67619                      42.71488
                     245.14202                     160.71258                     115.81704
                     234.76285                     221.02730                     162.86540
                    1763.65472                    -536.01177                    -525.44585
                    2318.33648                    -544.75571                    -593.11997
                    2736.35293                    -515.80669                    -641.62721
                    3337.45388                    -494.33946                    -737.74507
                    4347.58178                    -479.11536                    -925.63660
                    5115.85774                    -407.32680                   -1095.46443
                    6251.28449                    -295.79382                   -1360.13861
                    7182.58900                    -133.57246                   -1632.72261
                    7632.37711                      16.28387                   -1880.73403
                    8319.15264                     227.35674                   -2195.50259
                    8917.76846                     462.54525                   -2517.78051
                    9249.34959                     667.79916                   -2742.57924
                    9012.17091                     795.92565                   -2755.74711
                    6542.93331                     658.31602                   -2060.38492
                    2157.16883                     369.40277                    -571.97619
        </DataArray>
        <DataArray type="Float32" Name="Moment" NumberOfComponents="3" format="ascii">
                       0.00000                       0.00000                       0.00000
                       0.00000                       0.00000                       0.00000
                       0.00000                       0.00000                       0.00000
                       0.00000                       0.00000                       0.00000
                     -35.40135                     484.86071                    -613.43487
                     -79.61791                     901.41694                   -1139.11715
                    -127.23049                    1184.85110                   -1495.10751
                    -225.94398                    1733.71642                   -2183.84659
                    -384.20442                    2440.54778                   -3067.79576
                    -519.76884                    2751.65872                   -3450.48882
                    -671.46341                    2987.43385                   -3735.77608
                    -839.06915                    3168.90533                   -3950.43668
                    -811.03687                    2630.81184                   -3268.56396
                    -929.51591                    2625.40774                   -3250.22648
                   -1018.39028                    2545.12173                   -3139.48524
                   -1056.52989                    2418.20794                   -2974.33050
                    -993.69448                    2143.30060                   -2630.66103
                    -522.70727                    1074.58410                   -1316.56122
                    -471.57094                     951.01450                   -1164.29803
        </DataArray>
      </PointData>
      <Lines>
        <DataArray type="Int32" Name="connectivity" format="ascii">
      0      1
      1      2
      2      3
      3      4
      4      5
      5      6
      6      7
      7      8
      8      9
      9     10
     10     11
     11     12
     12     13
     13     14
     14     15
     15     16
     16     17
     17     18
        </DataArray>
        <DataArray type="Int32" Name="offsets" format="ascii">
      2
      4
      6
      8
     10
     12
     14
     16
     18
     20
     22
     24
     26
     28
     30
     32
     34
     36
        </DataArray>
      </Lines>
    </Piece>
  </PolyData>
</VTKFile>
