<?xml version="1.0"?>
<VTKFile type="PolyData" version="0.1" byte_order="LittleEndian">
  <PolyData>
    <Piece NumberOfPoints="     19" NumberOfVerts="  0" NumberOfLines="     18"
           NumberOfStrips="  0" NumberOfPolys="      0">
      <Points>
        <DataArray type="Float32" NumberOfComponents="3" format="ascii">
                      -4.92980                      -1.22514                      89.15934
                      -5.06207                      -2.33563                      88.37361
                      -5.35307                      -4.50027                      86.72684
                      -5.65377                      -6.63762                      85.04308
                      -6.03051                      -9.29198                      82.91401
                      -6.40576                     -12.55931                      80.46332
                      -6.72785                     -15.89979                      78.10778
                      -7.02634                     -19.23819                      75.74607
                      -7.29261                     -22.57540                      73.37875
                      -7.52141                     -25.91010                      71.00399
                      -7.70833                     -29.24000                      68.61887
                      -7.84718                     -32.56587                      66.22477
                      -7.93415                     -35.88763                      63.82228
                      -7.96683                     -39.20519                      61.41230
                      -7.94196                     -42.51832                      58.99589
                      -7.87645                     -45.27570                      56.97836
                      -7.79689                     -47.48395                      55.36917
                      -7.69174                     -49.72277                      53.80342
                      -7.63448                     -50.81656                      52.98717
        </DataArray>
      </Points>
      <PointData>
        <DataArray type="Float32" Name="TranslationalVelocity" NumberOfComponents="3" format="ascii">
                      -0.01784                       0.64326                      -0.89140
                      -0.09322                       1.22935                      -1.70706
                      -0.24009                       2.45831                      -3.29663
                      -0.38490                       3.71458                      -4.86562
                      -0.56434                       5.30203                      -6.81330
                      -0.78429                       7.12414                      -9.20953
                      -1.00805                       8.87169                     -11.65795
                      -1.23045                      10.62106                     -14.10336
                      -1.45133                      12.37139                     -16.54660
                      -1.67033                      14.12383                     -18.98689
                      -1.88702                      15.88040                     -21.42280
                      -2.10120                      17.63988                     -23.85511
                      -2.31260                      19.40177                     -26.28395
                      -2.52097                      21.16543                     -28.70941
                      -2.72610                      22.93003                     -31.13135
                      -2.89438                      24.40046                     -33.14676
                      -3.02762                      25.57158                     -34.76057
                      -3.16156                      26.70932                     -36.39641
                      -3.22622                      27.30230                     -37.19547
        </DataArray>
        <DataArray type="Float32" Name="RotationalVelocity" NumberOfComponents="3" format="ascii">
                       0.73473                       0.00117                      -0.06707
                       0.73465                       0.00116                      -0.06704
                       0.73443                       0.00112                      -0.06697
                       0.73416                       0.00106                      -0.06689
                       0.73378                       0.00096                      -0.06678
                       0.73329                       0.00078                      -0.06663
                       0.73282                       0.00054                      -0.06649
                       0.73239                       0.00023                      -0.06633
                       0.73201                      -0.00015                      -0.06615
                       0.73171                      -0.00061                      -0.06595
                       0.73147                      -0.00114                      -0.06570
                       0.73130                      -0.00172                      -0.06540
                       0.73119                      -0.00234                      -0.06504
                       0.73112                      -0.00298                      -0.06462
                       0.73108                      -0.00360                      -0.06416
                       0.73105                      -0.00408                      -0.06375
                       0.73104                      -0.00441                      -0.06342
                       0.73103                      -0.00469                      -0.06311
                       0.73102                      -0.00479                      -0.06296
        </DataArray>
        <DataArray type="Float32" Name="TranslationalAcceleration" NumberOfComponents="3" format="ascii">
                       0.05051                       0.72860                       0.37193
                       0.04384                       0.88620                       0.45136
                       0.12553                       2.51321                       1.33304
                       0.19846                       3.99730                       2.17365
                       0.27850                       5.72100                       3.17593
                       0.35325                       7.70485                       4.25439
                       0.40813                       9.65988                       5.24519
                       0.44932                      11.60318                       6.23810
                       0.47545                      13.56073                       7.24586
                       0.48410                      15.54003                       8.27353
                       0.47235                      17.53556                       9.32011
                       0.43697                      19.53565                      10.37802
                       0.37527                      21.52579                      11.43904
                       0.28561                      23.49395                      12.49618
                       0.16788                      25.43526                      13.54617
                       0.04927                      27.03682                      14.41780
                      -0.05706                      28.31843                      15.11224
                      -0.17356                      29.62517                      15.78719
                      -0.23245                      30.27631                      16.14913
        </DataArray>
        <DataArray type="Float32" Name="OrientationX" NumberOfComponents="3" format="ascii">
                       0.94891                       0.09885                      -0.29967
                       0.94894                       0.09917                      -0.29946
                       0.94906                       0.10017                      -0.29875
                       0.94923                       0.10164                      -0.29771
                       0.94950                       0.10407                      -0.29599
                       0.95901                       0.08953                      -0.26886
                       0.96545                       0.08101                      -0.24769
                       0.97078                       0.07514                      -0.22791
                       0.97601                       0.06966                      -0.20626
                       0.98095                       0.06491                      -0.18308
                       0.98521                       0.06192                      -0.15975
                       0.98895                       0.05999                      -0.13553
                       0.99190                       0.05992                      -0.11199
                       0.99382                       0.06283                      -0.09150
                       0.99530                       0.06565                      -0.07115
                       0.99624                       0.06728                      -0.05460
                       0.99677                       0.06809                      -0.04256
                       0.99694                       0.07009                      -0.03469
                       0.99686                       0.07190                      -0.03308
        </DataArray>
        <DataArray type="Float32" Name="OrientationY" NumberOfComponents="3" format="ascii">
                       0.30057                      -0.57229                       0.76298
                       0.30057                      -0.57236                       0.76293
                       0.30055                      -0.57254                       0.76281
                       0.30052                      -0.57276                       0.76265
                       0.30049                      -0.57307                       0.76243
                       0.27002                      -0.57657                       0.77114
                       0.24786                      -0.57898                       0.77676
                       0.22837                      -0.58098                       0.78122
                       0.20762                      -0.58292                       0.78556
                       0.18606                      -0.58476                       0.78958
                       0.16543                      -0.58643                       0.79293
                       0.14473                      -0.58804                       0.79578
                       0.12570                      -0.58953                       0.79791
                       0.11093                      -0.59076                       0.79918
                       0.09625                      -0.59199                       0.80018
                       0.08394                      -0.59300                       0.80082
                       0.07477                      -0.59370                       0.80120
                       0.06965                      -0.59404                       0.80142
                       0.06944                      -0.59399                       0.80147
        </DataArray>
        <DataArray type="Float32" Name="OrientationZ" NumberOfComponents="3" format="ascii">
                      -0.09607                      -0.81407                      -0.57276
                      -0.09574                      -0.81399                      -0.57294
                      -0.09464                      -0.81374                      -0.57348
                      -0.09300                      -0.81339                      -0.57423
                      -0.09028                      -0.81287                      -0.57541
                      -0.08597                      -0.81213                      -0.57711
                      -0.08049                      -0.81131                      -0.57905
                      -0.07371                      -0.81044                      -0.58117
                      -0.06551                      -0.80954                      -0.58340
                      -0.05581                      -0.80860                      -0.58570
                      -0.04458                      -0.80763                      -0.58800
                      -0.03196                      -0.80660                      -0.59023
                      -0.01821                      -0.80552                      -0.59228
                      -0.00384                      -0.80439                      -0.59408
                       0.01041                      -0.80327                      -0.59553
                       0.02150                      -0.80239                      -0.59642
                       0.02928                      -0.80180                      -0.59688
                       0.03557                      -0.80138                      -0.59710
                       0.03798                      -0.80125                      -0.59712
        </DataArray>
        <DataArray type="Float32" Name="Force" NumberOfComponents="3" format="ascii">
                       0.32653                      -2.55518                       3.57695
                     144.83444                     -29.57582                      17.83034
                     181.02719                     -54.20363                      47.13562
                     152.60530                     -57.71381                      57.25090
                    1223.61676                     219.55566                    -504.00867
                    1270.97816                     211.79930                    -490.28376
                    1528.00433                     268.16759                    -593.14143
                    1611.84093                     283.08192                    -605.90156
                    1786.59666                     320.34117                    -654.14888
                    2032.25805                     346.22509                    -682.65738
                    2280.32863                     400.53850                    -736.88008
                    2551.96568                     435.88585                    -749.54681
                    3189.84497                     519.45246                    -823.21422
                    3406.10669                     560.77610                    -800.96177
                    3574.00326                     595.87963                    -761.12271
                    3663.37282                     614.84798                    -714.47168
                    3572.92134                     600.84295                    -649.77986
                    2595.25250                     438.95590                    -446.99451
                     885.53279                      60.83643                     -25.05085
        </DataArray>
        <DataArray type="Float32" Name="Moment" NumberOfComponents="3" format="ascii">
                       0.00000                       0.00000                       0.00000
                       0.00000                       0.00000                       0.00000
                       0.00000                       0.00000                       0.00000
                       0.00000                       0.00000                       0.00000
                      51.64457                     466.74903                     328.70577
                      56.28838                     534.99262                     377.03139
                      51.40056                     522.84377                     368.79910
                      50.43925                     561.56744                     396.54896
                      40.01802                     502.80394                     355.52282
                      34.55184                     511.71771                     362.38934
                      24.91778                     464.81870                     329.76670
                      18.71664                     492.66616                     350.22551
                      13.77702                     655.64248                     467.09794
                       2.10482                     643.07096                     459.18306
                      -8.73484                     609.97555                     436.53103
                     -16.07021                     573.56638                     411.19191
                     -19.12445                     508.24531                     364.80888
                     -11.63633                     256.37077                     184.19971
                     -10.97850                     226.98170                     163.14570
        </DataArray>
      </PointData>
      <Lines>
        <DataArray type="Int32" Name="connectivity" format="ascii">
      0      1
      1      2
      2      3
      3      4
      4      5
      5      6
      6      7
      7      8
      8      9
      9     10
     10     11
     11     12
     12     13
     13     14
     14     15
     15     16
     16     17
     17     18
        </DataArray>
        <DataArray type="Int32" Name="offsets" format="ascii">
      2
      4
      6
      8
     10
     12
     14
     16
     18
     20
     22
     24
     26
     28
     30
     32
     34
     36
        </DataArray>
      </Lines>
    </Piece>
  </PolyData>
</VTKFile>
