<?xml version="1.0"?>
<VTKFile type="PolyData" version="0.1" byte_order="LittleEndian">
  <PolyData>
    <Piece NumberOfPoints="     22" NumberOfVerts="  0" NumberOfLines="     21"
           NumberOfStrips="  0" NumberOfPolys="      0">
      <Points>
        <DataArray type="Float32" NumberOfComponents="3" format="ascii">
                       0.00009                      -0.00000                       2.19000
                       0.00085                      -0.00003                       6.57000
                       0.00254                      -0.00007                      10.95000
                       0.00522                      -0.00013                      15.33000
                       0.00891                      -0.00021                      19.71000
                       0.01356                      -0.00032                      24.08999
                       0.01914                      -0.00045                      28.46999
                       0.02560                      -0.00060                      32.84999
                       0.03291                      -0.00079                      37.22998
                       0.04106                      -0.00101                      41.60997
                       0.05006                      -0.00127                      45.98996
                       0.05994                      -0.00157                      50.36995
                       0.07074                      -0.00192                      54.74994
                       0.08249                      -0.00232                      59.12992
                       0.09520                      -0.00276                      63.50990
                       0.10884                      -0.00326                      67.88988
                       0.12331                      -0.00380                      72.26986
                       0.13839                      -0.00438                      76.64983
                       0.15374                      -0.00501                      81.02981
                       0.16880                      -0.00566                      85.40978
                       0.17600                      -0.00599                      87.59977
                       0.00000                       0.00000                       0.00000
        </DataArray>
      </Points>
      <PointData>
        <DataArray type="Float32" Name="TranslationalVelocity" NumberOfComponents="3" format="ascii">
                       0.00001                       0.00000                      -0.00000
                       0.00014                       0.00004                      -0.00000
                       0.00042                       0.00009                      -0.00000
                       0.00087                       0.00018                      -0.00000
                       0.00149                       0.00028                      -0.00000
                       0.00228                       0.00041                      -0.00000
                       0.00324                       0.00055                      -0.00000
                       0.00435                       0.00071                      -0.00000
                       0.00562                       0.00089                      -0.00001
                       0.00705                       0.00109                      -0.00001
                       0.00864                       0.00131                      -0.00001
                       0.01041                       0.00155                      -0.00002
                       0.01235                       0.00180                      -0.00002
                       0.01449                       0.00206                      -0.00003
                       0.01682                       0.00234                      -0.00003
                       0.01934                       0.00263                      -0.00004
                       0.02203                       0.00293                      -0.00005
                       0.02486                       0.00324                      -0.00006
                       0.02774                       0.00355                      -0.00007
                       0.03060                       0.00386                      -0.00008
                       0.03196                       0.00402                      -0.00008
                       0.00000                      -0.00000                       0.00000
        </DataArray>
        <DataArray type="Float32" Name="RotationalVelocity" NumberOfComponents="3" format="ascii">
                      -0.00000                       0.00001                       0.00000
                      -0.00001                       0.00005                       0.00000
                      -0.00002                       0.00008                       0.00000
                      -0.00002                       0.00012                       0.00000
                      -0.00003                       0.00016                       0.00000
                      -0.00003                       0.00020                       0.00000
                      -0.00003                       0.00024                       0.00000
                      -0.00004                       0.00027                       0.00000
                      -0.00004                       0.00031                       0.00000
                      -0.00005                       0.00034                       0.00000
                      -0.00005                       0.00038                       0.00000
                      -0.00006                       0.00042                       0.00000
                      -0.00006                       0.00047                       0.00000
                      -0.00006                       0.00051                       0.00000
                      -0.00006                       0.00055                       0.00000
                      -0.00007                       0.00060                       0.00000
                      -0.00007                       0.00063                       0.00000
                      -0.00007                       0.00065                       0.00000
                      -0.00007                       0.00066                       0.00000
                      -0.00007                       0.00064                       0.00000
                      -0.00007                       0.00061                       0.00000
                       0.00000                      -0.00000                       0.00000
        </DataArray>
        <DataArray type="Float32" Name="TranslationalAcceleration" NumberOfComponents="3" format="ascii">
                       0.00002                       0.00001                      -0.00000
                       0.00022                       0.00005                      -0.00000
                       0.00066                       0.00012                      -0.00000
                       0.00136                       0.00022                      -0.00000
                       0.00234                       0.00035                      -0.00000
                       0.00358                       0.00050                      -0.00000
                       0.00509                       0.00067                      -0.00001
                       0.00685                       0.00085                      -0.00001
                       0.00887                       0.00106                      -0.00001
                       0.01115                       0.00128                      -0.00002
                       0.01371                       0.00151                      -0.00002
                       0.01655                       0.00175                      -0.00003
                       0.01969                       0.00199                      -0.00004
                       0.02315                       0.00224                      -0.00005
                       0.02694                       0.00249                      -0.00006
                       0.03105                       0.00273                      -0.00008
                       0.03545                       0.00297                      -0.00009
                       0.04008                       0.00320                      -0.00011
                       0.04482                       0.00342                      -0.00013
                       0.04951                       0.00364                      -0.00015
                       0.05176                       0.00375                      -0.00015
                       0.00000                      -0.00000                       0.00000
        </DataArray>
        <DataArray type="Float32" Name="RotationalAcceleration" NumberOfComponents="3" format="ascii">
                      -0.00000                       0.00002                       0.00000
                      -0.00001                       0.00007                       0.00000
                      -0.00002                       0.00013                       0.00000
                      -0.00003                       0.00019                       0.00000
                      -0.00003                       0.00025                       0.00000
                      -0.00004                       0.00031                       0.00000
                      -0.00004                       0.00037                       0.00000
                      -0.00004                       0.00043                       0.00000
                      -0.00005                       0.00049                       0.00000
                      -0.00005                       0.00055                       0.00000
                      -0.00005                       0.00061                       0.00000
                      -0.00006                       0.00068                       0.00000
                      -0.00006                       0.00075                       0.00000
                      -0.00006                       0.00083                       0.00000
                      -0.00006                       0.00090                       0.00000
                      -0.00006                       0.00097                       0.00000
                      -0.00005                       0.00103                       0.00000
                      -0.00005                       0.00107                       0.00000
                      -0.00005                       0.00108                       0.00000
                      -0.00005                       0.00105                       0.00000
                      -0.00005                       0.00101                       0.00000
                       0.00000                      -0.00000                       0.00000
        </DataArray>
        <DataArray type="Float32" Name="OrientationX" NumberOfComponents="3" format="ascii">
                       1.00000                       0.00000                      -0.00008
                       1.00000                       0.00000                      -0.00028
                       1.00000                       0.00000                      -0.00050
                       1.00000                       0.00000                      -0.00073
                       1.00000                       0.00000                      -0.00095
                       1.00000                       0.00000                      -0.00117
                       1.00000                       0.00000                      -0.00138
                       1.00000                       0.00000                      -0.00157
                       1.00000                       0.00000                      -0.00177
                       1.00000                       0.00000                      -0.00196
                       1.00000                       0.00000                      -0.00215
                       1.00000                       0.00000                      -0.00236
                       1.00000                       0.00000                      -0.00257
                       1.00000                       0.00000                      -0.00279
                       1.00000                       0.00000                      -0.00301
                       0.99999                       0.00000                      -0.00321
                       0.99999                       0.00000                      -0.00338
                       0.99999                       0.00000                      -0.00349
                       0.99999                       0.00000                      -0.00350
                       0.99999                       0.00000                      -0.00335
                       0.99999                       0.00000                      -0.00321
                       1.00000                      -0.00000                       0.00000
        </DataArray>
        <DataArray type="Float32" Name="OrientationY" NumberOfComponents="3" format="ascii">
                       0.00000                       1.00000                       0.00000
                       0.00000                       1.00000                       0.00001
                       0.00000                       1.00000                       0.00001
                       0.00000                       1.00000                       0.00002
                       0.00000                       1.00000                       0.00002
                       0.00000                       1.00000                       0.00003
                       0.00000                       1.00000                       0.00003
                       0.00000                       1.00000                       0.00004
                       0.00000                       1.00000                       0.00005
                       0.00000                       1.00000                       0.00005
                       0.00000                       1.00000                       0.00006
                       0.00000                       1.00000                       0.00007
                       0.00000                       1.00000                       0.00008
                       0.00000                       1.00000                       0.00010
                       0.00000                       1.00000                       0.00011
                       0.00000                       1.00000                       0.00012
                       0.00000                       1.00000                       0.00013
                       0.00000                       1.00000                       0.00014
                       0.00000                       1.00000                       0.00015
                       0.00000                       1.00000                       0.00015
                       0.00000                       1.00000                       0.00015
                      -0.00000                       1.00000                      -0.00000
        </DataArray>
        <DataArray type="Float32" Name="OrientationZ" NumberOfComponents="3" format="ascii">
                       0.00008                      -0.00000                       1.00000
                       0.00028                      -0.00001                       1.00000
                       0.00050                      -0.00001                       1.00000
                       0.00073                      -0.00002                       1.00000
                       0.00095                      -0.00002                       1.00000
                       0.00117                      -0.00003                       1.00000
                       0.00138                      -0.00003                       1.00000
                       0.00157                      -0.00004                       1.00000
                       0.00177                      -0.00005                       1.00000
                       0.00196                      -0.00005                       1.00000
                       0.00215                      -0.00006                       1.00000
                       0.00236                      -0.00007                       1.00000
                       0.00257                      -0.00008                       1.00000
                       0.00279                      -0.00010                       1.00000
                       0.00301                      -0.00011                       1.00000
                       0.00321                      -0.00012                       0.99999
                       0.00338                      -0.00013                       0.99999
                       0.00349                      -0.00014                       0.99999
                       0.00350                      -0.00015                       0.99999
                       0.00335                      -0.00015                       0.99999
                       0.00321                      -0.00015                       0.99999
                       0.00000                      -0.00000                       1.00000
        </DataArray>
      </PointData>
      <Lines>
        <DataArray type="Int32" Name="connectivity" format="ascii">
      0      1
      1      2
      2      3
      3      4
      4      5
      5      6
      6      7
      7      8
      8      9
      9     10
     10     11
     11     12
     12     13
     13     14
     14     15
     15     16
     16     17
     17     18
     18     19
     19     20
     21      0
        </DataArray>
        <DataArray type="Int32" Name="offsets" format="ascii">
      2
      4
      6
      8
     10
     12
     14
     16
     18
     20
     22
     24
     26
     28
     30
     32
     34
     36
     38
     40
     42
        </DataArray>
      </Lines>
    </Piece>
  </PolyData>
</VTKFile>
