<?xml version="1.0"?>
<VTKFile type="PolyData" version="0.1" byte_order="LittleEndian">
  <PolyData>
    <Piece NumberOfPoints="     22" NumberOfVerts="  0" NumberOfLines="     21"
           NumberOfStrips="  0" NumberOfPolys="      0">
      <Points>
        <DataArray type="Float32" NumberOfComponents="3" format="ascii">
                       0.00002                      -0.00000                       2.19000
                       0.00024                      -0.00001                       6.57000
                       0.00070                      -0.00001                      10.95000
                       0.00142                      -0.00003                      15.33000
                       0.00241                      -0.00004                      19.71000
                       0.00365                      -0.00006                      24.09000
                       0.00512                      -0.00009                      28.47000
                       0.00681                      -0.00012                      32.85000
                       0.00869                      -0.00016                      37.23000
                       0.01077                      -0.00020                      41.61000
                       0.01303                      -0.00025                      45.99000
                       0.01547                      -0.00031                      50.37000
                       0.01810                      -0.00038                      54.75000
                       0.02093                      -0.00045                      59.13000
                       0.02394                      -0.00053                      63.50999
                       0.02713                      -0.00063                      67.88999
                       0.03048                      -0.00073                      72.26999
                       0.03394                      -0.00083                      76.64999
                       0.03742                      -0.00095                      81.02999
                       0.04080                      -0.00107                      85.40999
                       0.04240                      -0.00113                      87.59999
                       0.00000                       0.00000                       0.00000
        </DataArray>
      </Points>
      <PointData>
        <DataArray type="Float32" Name="TranslationalVelocity" NumberOfComponents="3" format="ascii">
                       0.00001                       0.00000                      -0.00000
                       0.00013                       0.00000                      -0.00000
                       0.00039                       0.00001                      -0.00000
                       0.00080                       0.00001                      -0.00000
                       0.00136                       0.00002                      -0.00000
                       0.00207                       0.00003                      -0.00000
                       0.00293                       0.00005                      -0.00000
                       0.00392                       0.00006                      -0.00000
                       0.00505                       0.00007                      -0.00000
                       0.00631                       0.00009                      -0.00000
                       0.00771                       0.00011                      -0.00000
                       0.00925                       0.00013                      -0.00000
                       0.01094                       0.00016                      -0.00000
                       0.01278                       0.00018                      -0.00001
                       0.01478                       0.00021                      -0.00001
                       0.01694                       0.00024                      -0.00001
                       0.01922                       0.00027                      -0.00001
                       0.02162                       0.00030                      -0.00001
                       0.02406                       0.00033                      -0.00001
                       0.02645                       0.00037                      -0.00002
                       0.02760                       0.00038                      -0.00002
                       0.00000                      -0.00000                       0.00000
        </DataArray>
        <DataArray type="Float32" Name="RotationalVelocity" NumberOfComponents="3" format="ascii">
                      -0.00000                       0.00001                       0.00000
                      -0.00000                       0.00004                       0.00000
                      -0.00000                       0.00008                       0.00000
                      -0.00000                       0.00011                       0.00000
                      -0.00000                       0.00015                       0.00000
                      -0.00000                       0.00018                       0.00000
                      -0.00000                       0.00021                       0.00000
                      -0.00000                       0.00024                       0.00000
                      -0.00000                       0.00027                       0.00000
                      -0.00000                       0.00030                       0.00000
                      -0.00000                       0.00034                       0.00000
                      -0.00001                       0.00037                       0.00000
                      -0.00001                       0.00040                       0.00000
                      -0.00001                       0.00044                       0.00000
                      -0.00001                       0.00047                       0.00000
                      -0.00001                       0.00051                       0.00000
                      -0.00001                       0.00054                       0.00000
                      -0.00001                       0.00055                       0.00000
                      -0.00001                       0.00056                       0.00000
                      -0.00001                       0.00053                       0.00000
                      -0.00001                       0.00051                       0.00000
                       0.00000                      -0.00000                       0.00000
        </DataArray>
        <DataArray type="Float32" Name="TranslationalAcceleration" NumberOfComponents="3" format="ascii">
                       0.00002                      -0.00000                      -0.00000
                       0.00016                      -0.00001                      -0.00000
                       0.00048                      -0.00003                      -0.00000
                       0.00099                      -0.00006                      -0.00000
                       0.00170                      -0.00010                      -0.00000
                       0.00259                      -0.00014                      -0.00000
                       0.00366                      -0.00019                      -0.00000
                       0.00491                      -0.00025                      -0.00000
                       0.00632                      -0.00031                      -0.00000
                       0.00791                      -0.00039                      -0.00000
                       0.00967                      -0.00047                      -0.00001
                       0.01161                      -0.00056                      -0.00001
                       0.01373                      -0.00067                      -0.00001
                       0.01606                      -0.00077                      -0.00001
                       0.01859                      -0.00089                      -0.00001
                       0.02131                      -0.00102                      -0.00002
                       0.02421                      -0.00115                      -0.00002
                       0.02724                      -0.00129                      -0.00002
                       0.03033                      -0.00143                      -0.00003
                       0.03337                      -0.00158                      -0.00003
                       0.03483                      -0.00165                      -0.00003
                       0.00000                      -0.00000                       0.00000
        </DataArray>
        <DataArray type="Float32" Name="RotationalAcceleration" NumberOfComponents="3" format="ascii">
                       0.00000                       0.00002                       0.00000
                       0.00000                       0.00005                       0.00000
                       0.00001                       0.00009                       0.00000
                       0.00001                       0.00014                       0.00000
                       0.00001                       0.00018                       0.00000
                       0.00001                       0.00022                       0.00000
                       0.00001                       0.00026                       0.00000
                       0.00001                       0.00030                       0.00000
                       0.00002                       0.00034                       0.00000
                       0.00002                       0.00038                       0.00000
                       0.00002                       0.00042                       0.00000
                       0.00002                       0.00046                       0.00000
                       0.00002                       0.00051                       0.00000
                       0.00003                       0.00055                       0.00000
                       0.00003                       0.00060                       0.00000
                       0.00003                       0.00064                       0.00000
                       0.00003                       0.00068                       0.00000
                       0.00003                       0.00070                       0.00000
                       0.00003                       0.00071                       0.00000
                       0.00003                       0.00068                       0.00000
                       0.00003                       0.00065                       0.00000
                       0.00000                      -0.00000                       0.00000
        </DataArray>
        <DataArray type="Float32" Name="OrientationX" NumberOfComponents="3" format="ascii">
                       1.00000                       0.00000                      -0.00002
                       1.00000                       0.00000                      -0.00008
                       1.00000                       0.00000                      -0.00014
                       1.00000                       0.00000                      -0.00020
                       1.00000                       0.00000                      -0.00025
                       1.00000                       0.00000                      -0.00031
                       1.00000                       0.00000                      -0.00036
                       1.00000                       0.00000                      -0.00041
                       1.00000                       0.00000                      -0.00045
                       1.00000                       0.00000                      -0.00050
                       1.00000                       0.00000                      -0.00054
                       1.00000                       0.00000                      -0.00058
                       1.00000                       0.00000                      -0.00062
                       1.00000                       0.00000                      -0.00067
                       1.00000                       0.00000                      -0.00071
                       1.00000                       0.00000                      -0.00075
                       1.00000                       0.00000                      -0.00078
                       1.00000                       0.00000                      -0.00080
                       1.00000                       0.00000                      -0.00079
                       1.00000                       0.00000                      -0.00075
                       1.00000                       0.00000                      -0.00071
                       1.00000                      -0.00000                       0.00000
        </DataArray>
        <DataArray type="Float32" Name="OrientationY" NumberOfComponents="3" format="ascii">
                       0.00000                       1.00000                       0.00000
                       0.00000                       1.00000                       0.00000
                       0.00000                       1.00000                       0.00000
                       0.00000                       1.00000                       0.00000
                       0.00000                       1.00000                       0.00000
                       0.00000                       1.00000                       0.00001
                       0.00000                       1.00000                       0.00001
                       0.00000                       1.00000                       0.00001
                       0.00000                       1.00000                       0.00001
                       0.00000                       1.00000                       0.00001
                       0.00000                       1.00000                       0.00001
                       0.00000                       1.00000                       0.00001
                       0.00000                       1.00000                       0.00002
                       0.00000                       1.00000                       0.00002
                       0.00000                       1.00000                       0.00002
                       0.00000                       1.00000                       0.00002
                       0.00000                       1.00000                       0.00002
                       0.00000                       1.00000                       0.00003
                       0.00000                       1.00000                       0.00003
                       0.00000                       1.00000                       0.00003
                       0.00000                       1.00000                       0.00003
                      -0.00000                       1.00000                      -0.00000
        </DataArray>
        <DataArray type="Float32" Name="OrientationZ" NumberOfComponents="3" format="ascii">
                       0.00002                      -0.00000                       1.00000
                       0.00008                      -0.00000                       1.00000
                       0.00014                      -0.00000                       1.00000
                       0.00020                      -0.00000                       1.00000
                       0.00025                      -0.00000                       1.00000
                       0.00031                      -0.00001                       1.00000
                       0.00036                      -0.00001                       1.00000
                       0.00041                      -0.00001                       1.00000
                       0.00045                      -0.00001                       1.00000
                       0.00050                      -0.00001                       1.00000
                       0.00054                      -0.00001                       1.00000
                       0.00058                      -0.00001                       1.00000
                       0.00062                      -0.00002                       1.00000
                       0.00067                      -0.00002                       1.00000
                       0.00071                      -0.00002                       1.00000
                       0.00075                      -0.00002                       1.00000
                       0.00078                      -0.00002                       1.00000
                       0.00080                      -0.00003                       1.00000
                       0.00079                      -0.00003                       1.00000
                       0.00075                      -0.00003                       1.00000
                       0.00071                      -0.00003                       1.00000
                       0.00000                      -0.00000                       1.00000
        </DataArray>
      </PointData>
      <Lines>
        <DataArray type="Int32" Name="connectivity" format="ascii">
      0      1
      1      2
      2      3
      3      4
      4      5
      5      6
      6      7
      7      8
      8      9
      9     10
     10     11
     11     12
     12     13
     13     14
     14     15
     15     16
     16     17
     17     18
     18     19
     19     20
     21      0
        </DataArray>
        <DataArray type="Int32" Name="offsets" format="ascii">
      2
      4
      6
      8
     10
     12
     14
     16
     18
     20
     22
     24
     26
     28
     30
     32
     34
     36
     38
     40
     42
        </DataArray>
      </Lines>
    </Piece>
  </PolyData>
</VTKFile>
