<?xml version="1.0"?>
<VTKFile type="PolyData" version="0.1" byte_order="LittleEndian">
  <PolyData>
    <Piece NumberOfPoints="     22" NumberOfVerts="  0" NumberOfLines="     21"
           NumberOfStrips="  0" NumberOfPolys="      0">
      <Points>
        <DataArray type="Float32" NumberOfComponents="3" format="ascii">
                       0.00003                       0.00000                       2.19000
                       0.00033                       0.00000                       6.57000
                       0.00097                       0.00000                      10.95000
                       0.00198                       0.00000                      15.33000
                       0.00336                       0.00000                      19.71000
                       0.00509                       0.00000                      24.09000
                       0.00715                      -0.00000                      28.47000
                       0.00953                      -0.00001                      32.85000
                       0.01219                      -0.00002                      37.23000
                       0.01513                      -0.00003                      41.61000
                       0.01834                      -0.00005                      45.99000
                       0.02182                      -0.00007                      50.36999
                       0.02559                      -0.00011                      54.74999
                       0.02965                      -0.00014                      59.12999
                       0.03400                      -0.00019                      63.50999
                       0.03863                      -0.00025                      67.88999
                       0.04350                      -0.00031                      72.26998
                       0.04854                      -0.00039                      76.64998
                       0.05363                      -0.00047                      81.02998
                       0.05859                      -0.00055                      85.40997
                       0.06095                      -0.00060                      87.59997
                       0.00000                       0.00000                       0.00000
        </DataArray>
      </Points>
      <PointData>
        <DataArray type="Float32" Name="TranslationalVelocity" NumberOfComponents="3" format="ascii">
                       0.00001                       0.00000                      -0.00000
                       0.00010                       0.00001                      -0.00000
                       0.00030                       0.00003                      -0.00000
                       0.00062                       0.00006                      -0.00000
                       0.00107                       0.00010                      -0.00000
                       0.00164                       0.00014                      -0.00000
                       0.00233                       0.00019                      -0.00000
                       0.00313                       0.00025                      -0.00000
                       0.00406                       0.00031                      -0.00000
                       0.00510                       0.00038                      -0.00000
                       0.00627                       0.00046                      -0.00000
                       0.00757                       0.00055                      -0.00000
                       0.00900                       0.00064                      -0.00001
                       0.01059                       0.00074                      -0.00001
                       0.01232                       0.00085                      -0.00001
                       0.01420                       0.00096                      -0.00001
                       0.01621                       0.00108                      -0.00001
                       0.01833                       0.00120                      -0.00002
                       0.02050                       0.00132                      -0.00002
                       0.02264                       0.00145                      -0.00002
                       0.02367                       0.00151                      -0.00002
                       0.00000                      -0.00000                       0.00000
        </DataArray>
        <DataArray type="Float32" Name="RotationalVelocity" NumberOfComponents="3" format="ascii">
                      -0.00000                       0.00001                       0.00000
                      -0.00000                       0.00003                       0.00000
                      -0.00001                       0.00006                       0.00000
                      -0.00001                       0.00009                       0.00000
                      -0.00001                       0.00012                       0.00000
                      -0.00001                       0.00014                       0.00000
                      -0.00001                       0.00017                       0.00000
                      -0.00001                       0.00020                       0.00000
                      -0.00002                       0.00022                       0.00000
                      -0.00002                       0.00025                       0.00000
                      -0.00002                       0.00028                       0.00000
                      -0.00002                       0.00031                       0.00000
                      -0.00002                       0.00034                       0.00000
                      -0.00002                       0.00038                       0.00000
                      -0.00002                       0.00041                       0.00000
                      -0.00003                       0.00045                       0.00000
                      -0.00003                       0.00047                       0.00000
                      -0.00003                       0.00049                       0.00000
                      -0.00003                       0.00050                       0.00000
                      -0.00003                       0.00048                       0.00000
                      -0.00003                       0.00046                       0.00000
                       0.00000                      -0.00000                       0.00000
        </DataArray>
        <DataArray type="Float32" Name="TranslationalAcceleration" NumberOfComponents="3" format="ascii">
                       0.00002                      -0.00000                      -0.00000
                       0.00016                      -0.00002                      -0.00000
                       0.00047                      -0.00006                      -0.00000
                       0.00096                      -0.00012                      -0.00000
                       0.00162                      -0.00019                      -0.00000
                       0.00243                      -0.00027                      -0.00000
                       0.00339                      -0.00036                      -0.00000
                       0.00447                      -0.00046                      -0.00000
                       0.00567                      -0.00058                      -0.00000
                       0.00696                      -0.00070                      -0.00000
                       0.00834                      -0.00083                      -0.00001
                       0.00980                      -0.00097                      -0.00001
                       0.01134                      -0.00112                      -0.00001
                       0.01295                      -0.00127                      -0.00001
                       0.01464                      -0.00142                      -0.00001
                       0.01639                      -0.00157                      -0.00002
                       0.01819                      -0.00173                      -0.00002
                       0.02002                      -0.00188                      -0.00002
                       0.02184                      -0.00204                      -0.00003
                       0.02356                      -0.00219                      -0.00003
                       0.02437                      -0.00226                      -0.00003
                       0.00000                      -0.00000                       0.00000
        </DataArray>
        <DataArray type="Float32" Name="RotationalAcceleration" NumberOfComponents="3" format="ascii">
                       0.00000                       0.00002                       0.00000
                       0.00001                       0.00005                       0.00000
                       0.00001                       0.00009                       0.00000
                       0.00001                       0.00013                       0.00000
                       0.00002                       0.00017                       0.00000
                       0.00002                       0.00020                       0.00000
                       0.00002                       0.00023                       0.00000
                       0.00002                       0.00026                       0.00000
                       0.00003                       0.00028                       0.00000
                       0.00003                       0.00031                       0.00000
                       0.00003                       0.00032                       0.00000
                       0.00003                       0.00034                       0.00000
                       0.00003                       0.00036                       0.00000
                       0.00003                       0.00038                       0.00000
                       0.00004                       0.00039                       0.00000
                       0.00004                       0.00041                       0.00000
                       0.00004                       0.00042                       0.00000
                       0.00004                       0.00042                       0.00000
                       0.00003                       0.00041                       0.00000
                       0.00003                       0.00038                       0.00000
                       0.00003                       0.00036                       0.00000
                       0.00000                      -0.00000                       0.00000
        </DataArray>
        <DataArray type="Float32" Name="OrientationX" NumberOfComponents="3" format="ascii">
                       1.00000                      -0.00000                      -0.00003
                       1.00000                      -0.00000                      -0.00011
                       1.00000                      -0.00000                      -0.00019
                       1.00000                      -0.00000                      -0.00027
                       1.00000                       0.00000                      -0.00036
                       1.00000                       0.00000                      -0.00043
                       1.00000                       0.00000                      -0.00051
                       1.00000                       0.00000                      -0.00058
                       1.00000                       0.00000                      -0.00064
                       1.00000                       0.00000                      -0.00070
                       1.00000                       0.00000                      -0.00076
                       1.00000                       0.00000                      -0.00083
                       1.00000                       0.00000                      -0.00089
                       1.00000                       0.00000                      -0.00096
                       1.00000                       0.00000                      -0.00103
                       1.00000                       0.00000                      -0.00109
                       1.00000                       0.00000                      -0.00113
                       1.00000                       0.00000                      -0.00116
                       1.00000                       0.00000                      -0.00116
                       1.00000                       0.00000                      -0.00110
                       1.00000                       0.00000                      -0.00105
                       1.00000                      -0.00000                       0.00000
        </DataArray>
        <DataArray type="Float32" Name="OrientationY" NumberOfComponents="3" format="ascii">
                      -0.00000                       1.00000                      -0.00000
                      -0.00000                       1.00000                      -0.00000
                      -0.00000                       1.00000                      -0.00000
                      -0.00000                       1.00000                      -0.00000
                       0.00000                       1.00000                       0.00000
                       0.00000                       1.00000                       0.00000
                       0.00000                       1.00000                       0.00000
                       0.00000                       1.00000                       0.00000
                       0.00000                       1.00000                       0.00000
                       0.00000                       1.00000                       0.00000
                       0.00000                       1.00000                       0.00000
                       0.00000                       1.00000                       0.00001
                       0.00000                       1.00000                       0.00001
                       0.00000                       1.00000                       0.00001
                       0.00000                       1.00000                       0.00001
                       0.00000                       1.00000                       0.00001
                       0.00000                       1.00000                       0.00002
                       0.00000                       1.00000                       0.00002
                       0.00000                       1.00000                       0.00002
                       0.00000                       1.00000                       0.00002
                       0.00000                       1.00000                       0.00002
                      -0.00000                       1.00000                      -0.00000
        </DataArray>
        <DataArray type="Float32" Name="OrientationZ" NumberOfComponents="3" format="ascii">
                       0.00003                       0.00000                       1.00000
                       0.00011                       0.00000                       1.00000
                       0.00019                       0.00000                       1.00000
                       0.00027                       0.00000                       1.00000
                       0.00036                      -0.00000                       1.00000
                       0.00043                      -0.00000                       1.00000
                       0.00051                      -0.00000                       1.00000
                       0.00058                      -0.00000                       1.00000
                       0.00064                      -0.00000                       1.00000
                       0.00070                      -0.00000                       1.00000
                       0.00076                      -0.00000                       1.00000
                       0.00083                      -0.00001                       1.00000
                       0.00089                      -0.00001                       1.00000
                       0.00096                      -0.00001                       1.00000
                       0.00103                      -0.00001                       1.00000
                       0.00109                      -0.00001                       1.00000
                       0.00113                      -0.00002                       1.00000
                       0.00116                      -0.00002                       1.00000
                       0.00116                      -0.00002                       1.00000
                       0.00110                      -0.00002                       1.00000
                       0.00105                      -0.00002                       1.00000
                       0.00000                      -0.00000                       1.00000
        </DataArray>
      </PointData>
      <Lines>
        <DataArray type="Int32" Name="connectivity" format="ascii">
      0      1
      1      2
      2      3
      3      4
      4      5
      5      6
      6      7
      7      8
      8      9
      9     10
     10     11
     11     12
     12     13
     13     14
     14     15
     15     16
     16     17
     17     18
     18     19
     19     20
     21      0
        </DataArray>
        <DataArray type="Int32" Name="offsets" format="ascii">
      2
      4
      6
      8
     10
     12
     14
     16
     18
     20
     22
     24
     26
     28
     30
     32
     34
     36
     38
     40
     42
        </DataArray>
      </Lines>
    </Piece>
  </PolyData>
</VTKFile>
