<?xml version="1.0"?>
<VTKFile type="PolyData" version="0.1" byte_order="LittleEndian">
  <PolyData>
    <Piece NumberOfPoints="     19" NumberOfVerts="  0" NumberOfLines="     18"
           NumberOfStrips="  0" NumberOfPolys="      0">
      <Points>
        <DataArray type="Float32" NumberOfComponents="3" format="ascii">
                      -5.03284                      -0.85069                      88.78842
                      -5.19397                      -1.62141                      87.67128
                      -5.54151                      -3.08366                      85.38584
                      -5.89924                      -4.50779                      83.07549
                      -6.34942                      -6.26411                      80.17147
                      -6.82138                      -8.48814                      76.75783
                      -7.25079                     -10.81672                      73.41055
                      -7.66665                     -13.14390                      70.06054
                      -8.06289                     -15.47114                      66.70812
                      -8.43676                     -17.79692                      63.35206
                      -8.78628                     -20.11831                      59.99033
                      -9.10753                     -22.43680                      56.62374
                      -9.39864                     -24.75267                      53.25253
                      -9.65858                     -27.06623                      49.87711
                      -9.88485                     -29.37775                      46.49780
                     -10.04729                     -31.30272                      43.67920
                     -10.16152                     -32.84855                      41.42761
                     -10.26104                     -34.43958                      39.20595
                     -10.30863                     -35.20031                      38.07190
        </DataArray>
      </Points>
      <PointData>
        <DataArray type="Float32" Name="TranslationalVelocity" NumberOfComponents="3" format="ascii">
                       0.00432                       0.68301                      -0.46591
                      -0.03494                       1.30914                      -0.89222
                      -0.10941                       2.59052                      -1.70077
                      -0.18182                       3.88548                      -2.48787
                      -0.27087                       5.51206                      -3.45800
                      -0.38301                       7.41952                      -4.68563
                      -0.49965                       9.28640                      -5.96985
                      -0.61540                      11.15237                      -7.25216
                      -0.73016                      13.01710                      -8.53348
                      -0.84361                      14.88134                      -9.81310
                      -0.95536                      16.74633                     -11.08962
                      -1.06523                      18.61170                     -12.36402
                      -1.17299                      20.47744                     -13.63662
                      -1.27839                      22.34349                     -14.90773
                      -1.38122                      24.20970                     -16.17756
                      -1.46476                      25.76477                     -17.23490
                      -1.53054                      27.00611                     -18.08388
                      -1.59733                      28.23017                     -18.95751
                      -1.62848                      28.85477                     -19.37516
        </DataArray>
        <DataArray type="Float32" Name="RotationalVelocity" NumberOfComponents="3" format="ascii">
                       0.55339                       0.00080                      -0.04980
                       0.55330                       0.00078                      -0.04979
                       0.55307                       0.00075                      -0.04974
                       0.55278                       0.00070                      -0.04969
                       0.55236                       0.00063                      -0.04962
                       0.55183                       0.00050                      -0.04956
                       0.55130                       0.00032                      -0.04951
                       0.55082                       0.00009                      -0.04948
                       0.55038                      -0.00020                      -0.04945
                       0.55002                      -0.00055                      -0.04941
                       0.54972                      -0.00097                      -0.04934
                       0.54949                      -0.00146                      -0.04923
                       0.54931                      -0.00199                      -0.04907
                       0.54918                      -0.00255                      -0.04885
                       0.54909                      -0.00312                      -0.04857
                       0.54903                      -0.00358                      -0.04831
                       0.54900                      -0.00392                      -0.04808
                       0.54897                      -0.00421                      -0.04786
                       0.54897                      -0.00434                      -0.04775
        </DataArray>
        <DataArray type="Float32" Name="TranslationalAcceleration" NumberOfComponents="3" format="ascii">
                       0.03792                       0.31634                       0.33265
                       0.03872                       0.39063                       0.40561
                       0.11244                       1.09903                       1.17825
                       0.18173                       1.73957                       1.90223
                       0.26458                       2.48037                       2.75570
                       0.35903                       3.34893                       3.69481
                       0.45381                       4.22038                       4.57770
                       0.55658                       5.08750                       5.45531
                       0.67119                       5.96229                       6.33900
                       0.80083                       6.84829                       7.23273
                       0.94797                       7.74321                       8.13501
                       1.11438                       8.64262                       9.04002
                       1.30132                       9.54057                       9.94133
                       1.50959                      10.43204                      10.83395
                       1.73964                      11.31504                      11.71673
                       1.94851                      12.04616                      12.44813
                       2.12594                      12.63362                      13.03293
                       2.31149                      13.23923                      13.61336
                       2.40890                      13.53698                      13.91744
        </DataArray>
        <DataArray type="Float32" Name="OrientationX" NumberOfComponents="3" format="ascii">
                       0.95348                       0.16562                      -0.25190
                       0.95351                       0.16576                      -0.25170
                       0.95360                       0.16619                      -0.25107
                       0.95373                       0.16683                      -0.25014
                       0.95394                       0.16788                      -0.24862
                       0.96263                       0.14366                      -0.22957
                       0.96845                       0.12694                      -0.21446
                       0.97323                       0.11294                      -0.20017
                       0.97790                       0.09837                      -0.18448
                       0.98230                       0.08365                      -0.16762
                       0.98610                       0.07025                      -0.15055
                       0.98949                       0.05729                      -0.13279
                       0.99224                       0.04612                      -0.11544
                       0.99421                       0.03874                      -0.10020
                       0.99588                       0.03140                      -0.08513
                       0.99702                       0.02497                      -0.07296
                       0.99774                       0.02002                      -0.06418
                       0.99813                       0.01795                      -0.05843
                       0.99819                       0.01862                      -0.05723
        </DataArray>
        <DataArray type="Float32" Name="OrientationY" NumberOfComponents="3" format="ascii">
                       0.27774                      -0.80753                       0.52035
                       0.27773                      -0.80756                       0.52030
                       0.27771                      -0.80766                       0.52016
                       0.27768                      -0.80778                       0.51999
                       0.27765                      -0.80794                       0.51976
                       0.24704                      -0.81312                       0.52707
                       0.22480                      -0.81646                       0.53184
                       0.20523                      -0.81910                       0.53568
                       0.18442                      -0.82155                       0.53948
                       0.16282                      -0.82374                       0.54308
                       0.14220                      -0.82552                       0.54616
                       0.12154                      -0.82701                       0.54889
                       0.10260                      -0.82816                       0.55102
                       0.08797                      -0.82893                       0.55239
                       0.07348                      -0.82957                       0.55354
                       0.06136                      -0.83000                       0.55438
                       0.05236                      -0.83024                       0.55494
                       0.04744                      -0.83033                       0.55525
                       0.04733                      -0.83030                       0.55530
        </DataArray>
        <DataArray type="Float32" Name="OrientationZ" NumberOfComponents="3" format="ascii">
                      -0.11724                      -0.56610                      -0.81596
                      -0.11702                      -0.56601                      -0.81605
                      -0.11633                      -0.56575                      -0.81633
                      -0.11531                      -0.56539                      -0.81672
                      -0.11361                      -0.56485                      -0.81734
                      -0.11095                      -0.56409                      -0.81822
                      -0.10759                      -0.56327                      -0.81924
                      -0.10346                      -0.56242                      -0.82035
                      -0.09849                      -0.56158                      -0.82154
                      -0.09265                      -0.56076                      -0.82278
                      -0.08592                      -0.55998                      -0.82404
                      -0.07837                      -0.55925                      -0.82528
                      -0.07019                      -0.55859                      -0.82647
                      -0.06166                      -0.55800                      -0.82755
                      -0.05324                      -0.55752                      -0.82846
                      -0.04671                      -0.55721                      -0.82906
                      -0.04217                      -0.55705                      -0.82941
                      -0.03855                      -0.55699                      -0.82963
                      -0.03718                      -0.55700                      -0.82968
        </DataArray>
        <DataArray type="Float32" Name="Force" NumberOfComponents="3" format="ascii">
                       0.13249                      -2.14897                       1.47189
                     127.48465                     -30.50904                       2.88445
                     160.62838                     -55.39213                      15.53347
                     134.29175                     -58.40692                      21.54879
                    1091.62184                     295.88801                    -356.99690
                    1072.07037                     246.12800                    -316.10324
                    1182.30154                     252.34615                    -330.27492
                    1123.59178                     242.73189                    -309.97785
                    1155.48091                     264.74312                    -321.95902
                    1352.60604                     318.80407                    -373.02728
                    1489.80910                     369.05292                    -410.59760
                    1611.96286                     370.34124                    -408.95777
                    1939.88746                     391.56351                    -434.92871
                    2047.75248                     389.88494                    -421.19132
                    2154.76731                     389.81741                    -406.59966
                    2204.58675                     379.98603                    -385.24429
                    2158.30038                     357.42958                    -355.03340
                    1598.73375                     258.81992                    -251.76897
                     494.11667                       5.82419                     -25.98004
        </DataArray>
        <DataArray type="Float32" Name="Moment" NumberOfComponents="3" format="ascii">
                       0.00000                       0.00000                       0.00000
                       0.00000                       0.00000                       0.00000
                       0.00000                       0.00000                       0.00000
                       0.00000                       0.00000                       0.00000
                      63.47811                     316.57614                     456.48905
                      70.65279                     361.00591                     520.71095
                      68.11577                     359.17275                     518.26290
                      67.38331                     369.76930                     533.79986
                      59.38650                     342.59407                     494.84370
                      52.10951                     319.87434                     462.32779
                      38.07029                     252.25255                     364.86331
                      31.79536                     231.20542                     334.69922
                      31.43749                     255.57529                     370.31159
                      27.24546                     252.49140                     366.18645
                      22.60996                     243.09001                     352.87762
                      18.45469                     226.47158                     328.98865
                      14.61947                     198.98186                     289.19873
                       6.85759                     102.22907                     148.63777
                       5.75893                      89.04809                     129.49235
        </DataArray>
      </PointData>
      <Lines>
        <DataArray type="Int32" Name="connectivity" format="ascii">
      0      1
      1      2
      2      3
      3      4
      4      5
      5      6
      6      7
      7      8
      8      9
      9     10
     10     11
     11     12
     12     13
     13     14
     14     15
     15     16
     16     17
     17     18
        </DataArray>
        <DataArray type="Int32" Name="offsets" format="ascii">
      2
      4
      6
      8
     10
     12
     14
     16
     18
     20
     22
     24
     26
     28
     30
     32
     34
     36
        </DataArray>
      </Lines>
    </Piece>
  </PolyData>
</VTKFile>
