<?xml version="1.0"?>
<VTKFile type="PolyData" version="0.1" byte_order="LittleEndian">
  <PolyData>
    <Piece NumberOfPoints="     19" NumberOfVerts="  0" NumberOfLines="     18"
           NumberOfStrips="  0" NumberOfPolys="      0">
      <Points>
        <DataArray type="Float32" NumberOfComponents="3" format="ascii">
                      -5.10859                      -0.17764                      88.53096
                      -5.28893                      -0.33555                      87.18541
                      -5.67156                      -0.55707                      84.48602
                      -6.06340                      -0.73368                      81.78245
                      -6.55661                      -0.92716                      78.40007
                      -7.08880                      -1.30049                      74.35027
                      -7.58771                      -1.80150                      70.31138
                      -8.07846                      -2.30325                      66.27157
                      -8.55628                      -2.80740                      62.23047
                      -9.01964                      -3.31195                      58.18772
                      -9.46760                      -3.81326                      54.14285
                      -9.89739                      -4.31287                      50.09579
                     -10.30799                      -4.81094                      46.04653
                     -10.69895                      -5.30765                      41.99514
                     -11.06803                      -5.80318                      37.94155
                     -11.35858                      -6.21552                      34.56198
                     -11.58100                      -6.55304                      31.85848
                     -11.79539                      -6.94522                      29.16071
                     -11.90041                      -7.09995                      27.80704
        </DataArray>
      </Points>
      <PointData>
        <DataArray type="Float32" Name="TranslationalVelocity" NumberOfComponents="3" format="ascii">
                       0.02007                       0.63617                      -0.07272
                       0.01340                       1.21536                      -0.13981
                       0.00367                       2.37759                      -0.23381
                      -0.00434                       3.54118                      -0.30870
                      -0.01329                       4.99582                      -0.39074
                      -0.02930                       6.73342                      -0.54909
                      -0.04994                       8.46307                      -0.76140
                      -0.07029                      10.19081                      -0.97380
                      -0.09023                      11.91676                      -1.18701
                      -0.10949                      13.64127                      -1.40023
                      -0.12778                      15.36475                      -1.61197
                      -0.14498                      17.08738                      -1.82294
                      -0.16102                      18.80939                      -2.03324
                      -0.17587                      20.53092                      -2.24297
                      -0.18960                      22.25205                      -2.45221
                      -0.20028                      23.68596                      -2.62629
                      -0.20880                      24.83238                      -2.76874
                      -0.21930                      25.97577                      -2.93414
                      -0.22289                      26.54926                      -2.99940
        </DataArray>
        <DataArray type="Float32" Name="RotationalVelocity" NumberOfComponents="3" format="ascii">
                       0.42546                       0.00051                      -0.03786
                       0.42538                       0.00051                      -0.03785
                       0.42515                       0.00050                      -0.03783
                       0.42487                       0.00049                      -0.03780
                       0.42447                       0.00048                      -0.03778
                       0.42396                       0.00045                      -0.03777
                       0.42346                       0.00040                      -0.03780
                       0.42298                       0.00030                      -0.03787
                       0.42256                       0.00016                      -0.03799
                       0.42219                      -0.00004                      -0.03815
                       0.42188                      -0.00028                      -0.03836
                       0.42162                      -0.00058                      -0.03860
                       0.42140                      -0.00089                      -0.03886
                       0.42122                      -0.00121                      -0.03910
                       0.42107                      -0.00150                      -0.03931
                       0.42097                      -0.00169                      -0.03943
                       0.42091                      -0.00178                      -0.03947
                       0.42086                      -0.00179                      -0.03944
                       0.42085                      -0.00176                      -0.03939
        </DataArray>
        <DataArray type="Float32" Name="TranslationalAcceleration" NumberOfComponents="3" format="ascii">
                       0.02660                       0.07163                       0.26580
                       0.02928                       0.08812                       0.32116
                       0.08363                       0.23715                       0.92226
                       0.13328                       0.36458                       1.47810
                       0.19055                       0.50705                       2.12851
                       0.25352                       0.69091                       2.85860
                       0.31255                       0.89131                       3.56030
                       0.36992                       1.08997                       4.25830
                       0.42649                       1.28970                       4.96211
                       0.48256                       1.49110                       5.67491
                       0.53813                       1.69332                       6.39536
                       0.59295                       1.89575                       7.11914
                       0.64684                       2.09730                       7.84111
                       0.69980                       2.29711                       8.55707
                       0.75220                       2.49501                       9.26552
                       0.79607                       2.65901                       9.85208
                       0.83176                       2.79221                      10.32154
                       0.86770                       2.93694                      10.79350
                       0.88703                       3.00326                      11.03498
        </DataArray>
        <DataArray type="Float32" Name="OrientationX" NumberOfComponents="3" format="ascii">
                       0.96225                       0.22356                      -0.15526
                       0.96227                       0.22358                      -0.15510
                       0.96233                       0.22363                      -0.15462
                       0.96243                       0.22371                      -0.15391
                       0.96258                       0.22385                      -0.15274
                       0.96993                       0.19309                      -0.14817
                       0.97474                       0.17091                      -0.14381
                       0.97861                       0.15153                      -0.13916
                       0.98231                       0.13101                      -0.13380
                       0.98571                       0.10984                      -0.12775
                       0.98856                       0.08978                      -0.12117
                       0.99102                       0.06983                      -0.11404
                       0.99295                       0.05172                      -0.10663
                       0.99432                       0.03800                      -0.09946
                       0.99543                       0.02444                      -0.09235
                       0.99615                       0.01306                      -0.08674
                       0.99656                       0.00458                      -0.08277
                       0.99681                       0.00006                      -0.07985
                       0.99688                       0.00008                      -0.07895
        </DataArray>
        <DataArray type="Float32" Name="OrientationY" NumberOfComponents="3" format="ascii">
                       0.23837                      -0.96751                       0.08425
                       0.23838                      -0.96751                       0.08426
                       0.23838                      -0.96751                       0.08427
                       0.23837                      -0.96751                       0.08430
                       0.23838                      -0.96750                       0.08433
                       0.20755                      -0.97415                       0.08916
                       0.18519                      -0.97834                       0.09253
                       0.16555                      -0.98158                       0.09537
                       0.14470                      -0.98458                       0.09826
                       0.12311                      -0.98723                       0.10111
                       0.10255                      -0.98931                       0.10366
                       0.08203                      -0.99097                       0.10604
                       0.06328                      -0.99213                       0.10804
                       0.04889                      -0.99279                       0.10943
                       0.03466                      -0.99325                       0.11072
                       0.02276                      -0.99348                       0.11173
                       0.01391                      -0.99356                       0.11247
                       0.00910                      -0.99357                       0.11289
                       0.00902                      -0.99356                       0.11293
        </DataArray>
        <DataArray type="Float32" Name="OrientationZ" NumberOfComponents="3" format="ascii">
                      -0.13138                      -0.11808                      -0.98427
                      -0.13123                      -0.11805                      -0.98430
                      -0.13075                      -0.11796                      -0.98437
                      -0.13005                      -0.11782                      -0.98448
                      -0.12890                      -0.11758                      -0.98466
                      -0.12712                      -0.11723                      -0.98494
                      -0.12488                      -0.11682                      -0.98527
                      -0.12214                      -0.11637                      -0.98567
                      -0.11886                      -0.11588                      -0.98612
                      -0.11501                      -0.11539                      -0.98664
                      -0.11057                      -0.11490                      -0.98720
                      -0.10560                      -0.11444                      -0.98780
                      -0.10021                      -0.11403                      -0.98841
                      -0.09458                      -0.11367                      -0.98901
                      -0.08902                      -0.11341                      -0.98955
                      -0.08472                      -0.11327                      -0.98995
                      -0.08172                      -0.11323                      -0.99020
                      -0.07933                      -0.11325                      -0.99039
                      -0.07843                      -0.11329                      -0.99046
        </DataArray>
        <DataArray type="Float32" Name="Force" NumberOfComponents="3" format="ascii">
                       0.00757                      -0.71763                       0.08508
                     115.13730                     -17.64266                     -13.23348
                     131.84116                     -35.47778                     -13.25558
                     104.64675                     -39.77402                      -9.05280
                     846.01115                     291.70996                    -145.73929
                     822.84505                     241.76203                    -135.19446
                     902.40972                     242.67180                    -143.47661
                     814.47217                     193.64485                    -124.14579
                     757.40959                     157.67247                    -110.19567
                     835.85779                     178.95724                    -118.87667
                     860.29623                     189.80046                    -119.09243
                     966.45716                     222.92603                    -130.00865
                    1141.08406                     263.96175                    -147.26893
                    1260.21532                     283.32872                    -154.39982
                    1337.84512                     283.24329                    -154.20774
                    1377.78634                     274.01623                    -150.64138
                    1342.77882                     251.75944                    -140.88210
                     976.26324                     174.60665                     -99.04356
                     285.06556                      -2.97313                     -22.21695
        </DataArray>
        <DataArray type="Float32" Name="Moment" NumberOfComponents="3" format="ascii">
                       0.00000                       0.00000                       0.00000
                       0.00000                       0.00000                       0.00000
                       0.00000                       0.00000                       0.00000
                       0.00000                       0.00000                       0.00000
                      60.37092                      55.31109                     461.16093
                      66.27832                      61.58062                     513.51691
                      64.62475                      61.12904                     509.85520
                      64.43504                      62.32342                     519.94636
                      60.41635                      60.05775                     501.19369
                      55.21388                      56.73562                     473.63546
                      43.47394                      46.47197                     388.10922
                      38.29624                      42.87105                     358.19726
                      32.74089                      38.63095                     322.92758
                      28.38044                      35.48160                     296.75174
                      23.53276                      31.26045                     261.57896
                      20.52174                      28.64703                     239.80348
                      17.31435                      25.05646                     209.80344
                       8.50027                      12.67167                     106.12557
                       7.22918                      10.90044                      91.29881
        </DataArray>
      </PointData>
      <Lines>
        <DataArray type="Int32" Name="connectivity" format="ascii">
      0      1
      1      2
      2      3
      3      4
      4      5
      5      6
      6      7
      7      8
      8      9
      9     10
     10     11
     11     12
     12     13
     13     14
     14     15
     15     16
     16     17
     17     18
        </DataArray>
        <DataArray type="Int32" Name="offsets" format="ascii">
      2
      4
      6
      8
     10
     12
     14
     16
     18
     20
     22
     24
     26
     28
     30
     32
     34
     36
        </DataArray>
      </Lines>
    </Piece>
  </PolyData>
</VTKFile>
